<?xml version='1.0' encoding='UTF-8' ?>
<svg xmlns='http://www.w3.org/2000/svg' xmlns:xlink='http://www.w3.org/1999/xlink' viewBox='0 0 576.00 432.00'>
<defs>
  <style type='text/css'><![CDATA[
    line, polyline, polygon, path, rect, circle {
      fill: none;
      stroke: #000000;
      stroke-linecap: round;
      stroke-linejoin: round;
      stroke-miterlimit: 10.00;
    }
  ]]></style>
</defs>
<rect width='100%' height='100%' style='stroke: none; fill: #FFFFFF;'/>
<rect x='0.000000000000064' y='0.00' width='576.00' height='432.00' style='stroke-width: 1.55; stroke: #BFC4BB; fill: #BFC4BB;' />
<defs>
  <clipPath id='cpNDcuMjZ8MjE1LjU0fDM4Ni40OHwzMi41NQ=='>
    <rect x='47.26' y='32.55' width='168.28' height='353.93' />
  </clipPath>
</defs>
<rect x='47.26' y='32.55' width='168.28' height='353.93' style='stroke-width: 1.55; stroke: none; fill: #BFC4BB;' clip-path='url(#cpNDcuMjZ8MjE1LjU0fDM4Ni40OHwzMi41NQ==)' />
<polyline points='47.26,316.77 215.54,316.77 ' style='stroke-width: 0.078; stroke-linecap: butt;' clip-path='url(#cpNDcuMjZ8MjE1LjU0fDM4Ni40OHwzMi41NQ==)' />
<polyline points='47.26,209.52 215.54,209.52 ' style='stroke-width: 0.078; stroke-linecap: butt;' clip-path='url(#cpNDcuMjZ8MjE1LjU0fDM4Ni40OHwzMi41NQ==)' />
<polyline points='47.26,102.27 215.54,102.27 ' style='stroke-width: 0.078; stroke-linecap: butt;' clip-path='url(#cpNDcuMjZ8MjE1LjU0fDM4Ni40OHwzMi41NQ==)' />
<polyline points='77.38,386.48 77.38,32.55 ' style='stroke-width: 0.078; stroke-linecap: butt;' clip-path='url(#cpNDcuMjZ8MjE1LjU0fDM4Ni40OHwzMi41NQ==)' />
<polyline points='112.12,386.48 112.12,32.55 ' style='stroke-width: 0.078; stroke-linecap: butt;' clip-path='url(#cpNDcuMjZ8MjE1LjU0fDM4Ni40OHwzMi41NQ==)' />
<polyline points='146.86,386.48 146.86,32.55 ' style='stroke-width: 0.078; stroke-linecap: butt;' clip-path='url(#cpNDcuMjZ8MjE1LjU0fDM4Ni40OHwzMi41NQ==)' />
<polyline points='181.60,386.48 181.60,32.55 ' style='stroke-width: 0.078; stroke-linecap: butt;' clip-path='url(#cpNDcuMjZ8MjE1LjU0fDM4Ni40OHwzMi41NQ==)' />
<polyline points='47.26,370.40 215.54,370.40 ' style='stroke-width: 0.16; stroke-linecap: butt;' clip-path='url(#cpNDcuMjZ8MjE1LjU0fDM4Ni40OHwzMi41NQ==)' />
<polyline points='47.26,263.14 215.54,263.14 ' style='stroke-width: 0.16; stroke-linecap: butt;' clip-path='url(#cpNDcuMjZ8MjE1LjU0fDM4Ni40OHwzMi41NQ==)' />
<polyline points='47.26,155.89 215.54,155.89 ' style='stroke-width: 0.16; stroke-linecap: butt;' clip-path='url(#cpNDcuMjZ8MjE1LjU0fDM4Ni40OHwzMi41NQ==)' />
<polyline points='47.26,48.64 215.54,48.64 ' style='stroke-width: 0.16; stroke-linecap: butt;' clip-path='url(#cpNDcuMjZ8MjE1LjU0fDM4Ni40OHwzMi41NQ==)' />
<polyline points='60.01,386.48 60.01,32.55 ' style='stroke-width: 0.16; stroke-linecap: butt;' clip-path='url(#cpNDcuMjZ8MjE1LjU0fDM4Ni40OHwzMi41NQ==)' />
<polyline points='94.75,386.48 94.75,32.55 ' style='stroke-width: 0.16; stroke-linecap: butt;' clip-path='url(#cpNDcuMjZ8MjE1LjU0fDM4Ni40OHwzMi41NQ==)' />
<polyline points='129.49,386.48 129.49,32.55 ' style='stroke-width: 0.16; stroke-linecap: butt;' clip-path='url(#cpNDcuMjZ8MjE1LjU0fDM4Ni40OHwzMi41NQ==)' />
<polyline points='164.23,386.48 164.23,32.55 ' style='stroke-width: 0.16; stroke-linecap: butt;' clip-path='url(#cpNDcuMjZ8MjE1LjU0fDM4Ni40OHwzMi41NQ==)' />
<polyline points='198.97,386.48 198.97,32.55 ' style='stroke-width: 0.16; stroke-linecap: butt;' clip-path='url(#cpNDcuMjZ8MjE1LjU0fDM4Ni40OHwzMi41NQ==)' />
<rect x='54.91' y='348.95' width='10.20' height='21.45' style='stroke-width: 1.07; stroke: #FFFFFF; stroke-linecap: square; stroke-linejoin: miter; fill: #595959;' clip-path='url(#cpNDcuMjZ8MjE1LjU0fDM4Ni40OHwzMi41NQ==)' />
<rect x='65.11' y='306.04' width='10.20' height='64.35' style='stroke-width: 1.07; stroke: #FFFFFF; stroke-linecap: square; stroke-linejoin: miter; fill: #595959;' clip-path='url(#cpNDcuMjZ8MjE1LjU0fDM4Ni40OHwzMi41NQ==)' />
<rect x='75.30' y='284.59' width='10.20' height='85.80' style='stroke-width: 1.07; stroke: #FFFFFF; stroke-linecap: square; stroke-linejoin: miter; fill: #595959;' clip-path='url(#cpNDcuMjZ8MjE1LjU0fDM4Ni40OHwzMi41NQ==)' />
<rect x='85.50' y='198.79' width='10.20' height='171.60' style='stroke-width: 1.07; stroke: #FFFFFF; stroke-linecap: square; stroke-linejoin: miter; fill: #595959;' clip-path='url(#cpNDcuMjZ8MjE1LjU0fDM4Ni40OHwzMi41NQ==)' />
<rect x='95.70' y='241.69' width='10.20' height='128.70' style='stroke-width: 1.07; stroke: #FFFFFF; stroke-linecap: square; stroke-linejoin: miter; fill: #595959;' clip-path='url(#cpNDcuMjZ8MjE1LjU0fDM4Ni40OHwzMi41NQ==)' />
<rect x='105.90' y='306.04' width='10.20' height='64.35' style='stroke-width: 1.07; stroke: #FFFFFF; stroke-linecap: square; stroke-linejoin: miter; fill: #595959;' clip-path='url(#cpNDcuMjZ8MjE1LjU0fDM4Ni40OHwzMi41NQ==)' />
<rect x='116.10' y='327.50' width='10.20' height='42.90' style='stroke-width: 1.07; stroke: #FFFFFF; stroke-linecap: square; stroke-linejoin: miter; fill: #595959;' clip-path='url(#cpNDcuMjZ8MjE1LjU0fDM4Ni40OHwzMi41NQ==)' />
<rect x='126.30' y='348.95' width='10.20' height='21.45' style='stroke-width: 1.07; stroke: #FFFFFF; stroke-linecap: square; stroke-linejoin: miter; fill: #595959;' clip-path='url(#cpNDcuMjZ8MjE1LjU0fDM4Ni40OHwzMi41NQ==)' />
<rect x='136.50' y='370.40' width='10.20' height='0.00' style='stroke-width: 1.07; stroke: #FFFFFF; stroke-linecap: square; stroke-linejoin: miter; fill: #595959;' clip-path='url(#cpNDcuMjZ8MjE1LjU0fDM4Ni40OHwzMi41NQ==)' />
<rect x='146.69' y='370.40' width='10.20' height='0.00' style='stroke-width: 1.07; stroke: #FFFFFF; stroke-linecap: square; stroke-linejoin: miter; fill: #595959;' clip-path='url(#cpNDcuMjZ8MjE1LjU0fDM4Ni40OHwzMi41NQ==)' />
<rect x='156.89' y='370.40' width='10.20' height='0.00' style='stroke-width: 1.07; stroke: #FFFFFF; stroke-linecap: square; stroke-linejoin: miter; fill: #595959;' clip-path='url(#cpNDcuMjZ8MjE1LjU0fDM4Ni40OHwzMi41NQ==)' />
<rect x='167.09' y='370.40' width='10.20' height='0.00' style='stroke-width: 1.07; stroke: #FFFFFF; stroke-linecap: square; stroke-linejoin: miter; fill: #595959;' clip-path='url(#cpNDcuMjZ8MjE1LjU0fDM4Ni40OHwzMi41NQ==)' />
<rect x='177.29' y='370.40' width='10.20' height='0.00' style='stroke-width: 1.07; stroke: #FFFFFF; stroke-linecap: square; stroke-linejoin: miter; fill: #595959;' clip-path='url(#cpNDcuMjZ8MjE1LjU0fDM4Ni40OHwzMi41NQ==)' />
<rect x='187.49' y='348.95' width='10.20' height='21.45' style='stroke-width: 1.07; stroke: #FFFFFF; stroke-linecap: square; stroke-linejoin: miter; fill: #595959;' clip-path='url(#cpNDcuMjZ8MjE1LjU0fDM4Ni40OHwzMi41NQ==)' />
<rect x='197.69' y='348.95' width='10.20' height='21.45' style='stroke-width: 1.07; stroke: #FFFFFF; stroke-linecap: square; stroke-linejoin: miter; fill: #595959;' clip-path='url(#cpNDcuMjZ8MjE1LjU0fDM4Ni40OHwzMi41NQ==)' />
<rect x='47.26' y='32.55' width='168.28' height='353.93' style='stroke-width: 1.55;' clip-path='url(#cpNDcuMjZ8MjE1LjU0fDM4Ni40OHwzMi41NQ==)' />
<defs>
  <clipPath id='cpMC4wMHw1NzYuMDB8NDMyLjAwfDAuMDA='>
    <rect x='0.00' y='0.00' width='576.00' height='432.00' />
  </clipPath>
</defs>
<defs>
  <clipPath id='cpMjIzLjUxfDM5MS43OHwzODYuNDh8MzIuNTU='>
    <rect x='223.51' y='32.55' width='168.28' height='353.93' />
  </clipPath>
</defs>
<rect x='223.51' y='32.55' width='168.28' height='353.93' style='stroke-width: 1.55; stroke: none; fill: #BFC4BB;' clip-path='url(#cpMjIzLjUxfDM5MS43OHwzODYuNDh8MzIuNTU=)' />
<polyline points='223.51,316.77 391.78,316.77 ' style='stroke-width: 0.078; stroke-linecap: butt;' clip-path='url(#cpMjIzLjUxfDM5MS43OHwzODYuNDh8MzIuNTU=)' />
<polyline points='223.51,209.52 391.78,209.52 ' style='stroke-width: 0.078; stroke-linecap: butt;' clip-path='url(#cpMjIzLjUxfDM5MS43OHwzODYuNDh8MzIuNTU=)' />
<polyline points='223.51,102.27 391.78,102.27 ' style='stroke-width: 0.078; stroke-linecap: butt;' clip-path='url(#cpMjIzLjUxfDM5MS43OHwzODYuNDh8MzIuNTU=)' />
<polyline points='253.62,386.48 253.62,32.55 ' style='stroke-width: 0.078; stroke-linecap: butt;' clip-path='url(#cpMjIzLjUxfDM5MS43OHwzODYuNDh8MzIuNTU=)' />
<polyline points='288.36,386.48 288.36,32.55 ' style='stroke-width: 0.078; stroke-linecap: butt;' clip-path='url(#cpMjIzLjUxfDM5MS43OHwzODYuNDh8MzIuNTU=)' />
<polyline points='323.11,386.48 323.11,32.55 ' style='stroke-width: 0.078; stroke-linecap: butt;' clip-path='url(#cpMjIzLjUxfDM5MS43OHwzODYuNDh8MzIuNTU=)' />
<polyline points='357.85,386.48 357.85,32.55 ' style='stroke-width: 0.078; stroke-linecap: butt;' clip-path='url(#cpMjIzLjUxfDM5MS43OHwzODYuNDh8MzIuNTU=)' />
<polyline points='223.51,370.40 391.78,370.40 ' style='stroke-width: 0.16; stroke-linecap: butt;' clip-path='url(#cpMjIzLjUxfDM5MS43OHwzODYuNDh8MzIuNTU=)' />
<polyline points='223.51,263.14 391.78,263.14 ' style='stroke-width: 0.16; stroke-linecap: butt;' clip-path='url(#cpMjIzLjUxfDM5MS43OHwzODYuNDh8MzIuNTU=)' />
<polyline points='223.51,155.89 391.78,155.89 ' style='stroke-width: 0.16; stroke-linecap: butt;' clip-path='url(#cpMjIzLjUxfDM5MS43OHwzODYuNDh8MzIuNTU=)' />
<polyline points='223.51,48.64 391.78,48.64 ' style='stroke-width: 0.16; stroke-linecap: butt;' clip-path='url(#cpMjIzLjUxfDM5MS43OHwzODYuNDh8MzIuNTU=)' />
<polyline points='236.25,386.48 236.25,32.55 ' style='stroke-width: 0.16; stroke-linecap: butt;' clip-path='url(#cpMjIzLjUxfDM5MS43OHwzODYuNDh8MzIuNTU=)' />
<polyline points='270.99,386.48 270.99,32.55 ' style='stroke-width: 0.16; stroke-linecap: butt;' clip-path='url(#cpMjIzLjUxfDM5MS43OHwzODYuNDh8MzIuNTU=)' />
<polyline points='305.74,386.48 305.74,32.55 ' style='stroke-width: 0.16; stroke-linecap: butt;' clip-path='url(#cpMjIzLjUxfDM5MS43OHwzODYuNDh8MzIuNTU=)' />
<polyline points='340.48,386.48 340.48,32.55 ' style='stroke-width: 0.16; stroke-linecap: butt;' clip-path='url(#cpMjIzLjUxfDM5MS43OHwzODYuNDh8MzIuNTU=)' />
<polyline points='375.22,386.48 375.22,32.55 ' style='stroke-width: 0.16; stroke-linecap: butt;' clip-path='url(#cpMjIzLjUxfDM5MS43OHwzODYuNDh8MzIuNTU=)' />
<rect x='231.15' y='348.95' width='10.20' height='21.45' style='stroke-width: 1.07; stroke: #FFFFFF; stroke-linecap: square; stroke-linejoin: miter; fill: #595959;' clip-path='url(#cpMjIzLjUxfDM5MS43OHwzODYuNDh8MzIuNTU=)' />
<rect x='241.35' y='241.69' width='10.20' height='128.70' style='stroke-width: 1.07; stroke: #FFFFFF; stroke-linecap: square; stroke-linejoin: miter; fill: #595959;' clip-path='url(#cpMjIzLjUxfDM5MS43OHwzODYuNDh8MzIuNTU=)' />
<rect x='251.55' y='220.24' width='10.20' height='150.15' style='stroke-width: 1.07; stroke: #FFFFFF; stroke-linecap: square; stroke-linejoin: miter; fill: #595959;' clip-path='url(#cpMjIzLjUxfDM5MS43OHwzODYuNDh8MzIuNTU=)' />
<rect x='261.75' y='220.24' width='10.20' height='150.15' style='stroke-width: 1.07; stroke: #FFFFFF; stroke-linecap: square; stroke-linejoin: miter; fill: #595959;' clip-path='url(#cpMjIzLjUxfDM5MS43OHwzODYuNDh8MzIuNTU=)' />
<rect x='271.95' y='348.95' width='10.20' height='21.45' style='stroke-width: 1.07; stroke: #FFFFFF; stroke-linecap: square; stroke-linejoin: miter; fill: #595959;' clip-path='url(#cpMjIzLjUxfDM5MS43OHwzODYuNDh8MzIuNTU=)' />
<rect x='282.15' y='348.95' width='10.20' height='21.45' style='stroke-width: 1.07; stroke: #FFFFFF; stroke-linecap: square; stroke-linejoin: miter; fill: #595959;' clip-path='url(#cpMjIzLjUxfDM5MS43OHwzODYuNDh8MzIuNTU=)' />
<rect x='292.35' y='284.59' width='10.20' height='85.80' style='stroke-width: 1.07; stroke: #FFFFFF; stroke-linecap: square; stroke-linejoin: miter; fill: #595959;' clip-path='url(#cpMjIzLjUxfDM5MS43OHwzODYuNDh8MzIuNTU=)' />
<rect x='302.54' y='327.50' width='10.20' height='42.90' style='stroke-width: 1.07; stroke: #FFFFFF; stroke-linecap: square; stroke-linejoin: miter; fill: #595959;' clip-path='url(#cpMjIzLjUxfDM5MS43OHwzODYuNDh8MzIuNTU=)' />
<rect x='312.74' y='348.95' width='10.20' height='21.45' style='stroke-width: 1.07; stroke: #FFFFFF; stroke-linecap: square; stroke-linejoin: miter; fill: #595959;' clip-path='url(#cpMjIzLjUxfDM5MS43OHwzODYuNDh8MzIuNTU=)' />
<rect x='322.94' y='370.40' width='10.20' height='0.00' style='stroke-width: 1.07; stroke: #FFFFFF; stroke-linecap: square; stroke-linejoin: miter; fill: #595959;' clip-path='url(#cpMjIzLjUxfDM5MS43OHwzODYuNDh8MzIuNTU=)' />
<rect x='333.14' y='370.40' width='10.20' height='0.00' style='stroke-width: 1.07; stroke: #FFFFFF; stroke-linecap: square; stroke-linejoin: miter; fill: #595959;' clip-path='url(#cpMjIzLjUxfDM5MS43OHwzODYuNDh8MzIuNTU=)' />
<rect x='343.34' y='370.40' width='10.20' height='0.00' style='stroke-width: 1.07; stroke: #FFFFFF; stroke-linecap: square; stroke-linejoin: miter; fill: #595959;' clip-path='url(#cpMjIzLjUxfDM5MS43OHwzODYuNDh8MzIuNTU=)' />
<rect x='353.54' y='370.40' width='10.20' height='0.00' style='stroke-width: 1.07; stroke: #FFFFFF; stroke-linecap: square; stroke-linejoin: miter; fill: #595959;' clip-path='url(#cpMjIzLjUxfDM5MS43OHwzODYuNDh8MzIuNTU=)' />
<rect x='363.74' y='370.40' width='10.20' height='0.00' style='stroke-width: 1.07; stroke: #FFFFFF; stroke-linecap: square; stroke-linejoin: miter; fill: #595959;' clip-path='url(#cpMjIzLjUxfDM5MS43OHwzODYuNDh8MzIuNTU=)' />
<rect x='373.94' y='370.40' width='10.20' height='0.00' style='stroke-width: 1.07; stroke: #FFFFFF; stroke-linecap: square; stroke-linejoin: miter; fill: #595959;' clip-path='url(#cpMjIzLjUxfDM5MS43OHwzODYuNDh8MzIuNTU=)' />
<rect x='223.51' y='32.55' width='168.28' height='353.93' style='stroke-width: 1.55;' clip-path='url(#cpMjIzLjUxfDM5MS43OHwzODYuNDh8MzIuNTU=)' />
<defs>
  <clipPath id='cpMC4wMHw1NzYuMDB8NDMyLjAwfDAuMDA='>
    <rect x='0.00' y='0.00' width='576.00' height='432.00' />
  </clipPath>
</defs>
<defs>
  <clipPath id='cpMzk5Ljc1fDU2OC4wM3wzODYuNDh8MzIuNTU='>
    <rect x='399.75' y='32.55' width='168.28' height='353.93' />
  </clipPath>
</defs>
<rect x='399.75' y='32.55' width='168.28' height='353.93' style='stroke-width: 1.55; stroke: none; fill: #BFC4BB;' clip-path='url(#cpMzk5Ljc1fDU2OC4wM3wzODYuNDh8MzIuNTU=)' />
<polyline points='399.75,316.77 568.03,316.77 ' style='stroke-width: 0.078; stroke-linecap: butt;' clip-path='url(#cpMzk5Ljc1fDU2OC4wM3wzODYuNDh8MzIuNTU=)' />
<polyline points='399.75,209.52 568.03,209.52 ' style='stroke-width: 0.078; stroke-linecap: butt;' clip-path='url(#cpMzk5Ljc1fDU2OC4wM3wzODYuNDh8MzIuNTU=)' />
<polyline points='399.75,102.27 568.03,102.27 ' style='stroke-width: 0.078; stroke-linecap: butt;' clip-path='url(#cpMzk5Ljc1fDU2OC4wM3wzODYuNDh8MzIuNTU=)' />
<polyline points='429.87,386.48 429.87,32.55 ' style='stroke-width: 0.078; stroke-linecap: butt;' clip-path='url(#cpMzk5Ljc1fDU2OC4wM3wzODYuNDh8MzIuNTU=)' />
<polyline points='464.61,386.48 464.61,32.55 ' style='stroke-width: 0.078; stroke-linecap: butt;' clip-path='url(#cpMzk5Ljc1fDU2OC4wM3wzODYuNDh8MzIuNTU=)' />
<polyline points='499.35,386.48 499.35,32.55 ' style='stroke-width: 0.078; stroke-linecap: butt;' clip-path='url(#cpMzk5Ljc1fDU2OC4wM3wzODYuNDh8MzIuNTU=)' />
<polyline points='534.09,386.48 534.09,32.55 ' style='stroke-width: 0.078; stroke-linecap: butt;' clip-path='url(#cpMzk5Ljc1fDU2OC4wM3wzODYuNDh8MzIuNTU=)' />
<polyline points='399.75,370.40 568.03,370.40 ' style='stroke-width: 0.16; stroke-linecap: butt;' clip-path='url(#cpMzk5Ljc1fDU2OC4wM3wzODYuNDh8MzIuNTU=)' />
<polyline points='399.75,263.14 568.03,263.14 ' style='stroke-width: 0.16; stroke-linecap: butt;' clip-path='url(#cpMzk5Ljc1fDU2OC4wM3wzODYuNDh8MzIuNTU=)' />
<polyline points='399.75,155.89 568.03,155.89 ' style='stroke-width: 0.16; stroke-linecap: butt;' clip-path='url(#cpMzk5Ljc1fDU2OC4wM3wzODYuNDh8MzIuNTU=)' />
<polyline points='399.75,48.64 568.03,48.64 ' style='stroke-width: 0.16; stroke-linecap: butt;' clip-path='url(#cpMzk5Ljc1fDU2OC4wM3wzODYuNDh8MzIuNTU=)' />
<polyline points='412.50,386.48 412.50,32.55 ' style='stroke-width: 0.16; stroke-linecap: butt;' clip-path='url(#cpMzk5Ljc1fDU2OC4wM3wzODYuNDh8MzIuNTU=)' />
<polyline points='447.24,386.48 447.24,32.55 ' style='stroke-width: 0.16; stroke-linecap: butt;' clip-path='url(#cpMzk5Ljc1fDU2OC4wM3wzODYuNDh8MzIuNTU=)' />
<polyline points='481.98,386.48 481.98,32.55 ' style='stroke-width: 0.16; stroke-linecap: butt;' clip-path='url(#cpMzk5Ljc1fDU2OC4wM3wzODYuNDh8MzIuNTU=)' />
<polyline points='516.72,386.48 516.72,32.55 ' style='stroke-width: 0.16; stroke-linecap: butt;' clip-path='url(#cpMzk5Ljc1fDU2OC4wM3wzODYuNDh8MzIuNTU=)' />
<polyline points='551.46,386.48 551.46,32.55 ' style='stroke-width: 0.16; stroke-linecap: butt;' clip-path='url(#cpMzk5Ljc1fDU2OC4wM3wzODYuNDh8MzIuNTU=)' />
<rect x='407.40' y='327.50' width='10.20' height='42.90' style='stroke-width: 1.07; stroke: #FFFFFF; stroke-linecap: square; stroke-linejoin: miter; fill: #595959;' clip-path='url(#cpMzk5Ljc1fDU2OC4wM3wzODYuNDh8MzIuNTU=)' />
<rect x='417.60' y='177.34' width='10.20' height='193.05' style='stroke-width: 1.07; stroke: #FFFFFF; stroke-linecap: square; stroke-linejoin: miter; fill: #595959;' clip-path='url(#cpMzk5Ljc1fDU2OC4wM3wzODYuNDh8MzIuNTU=)' />
<rect x='427.80' y='134.44' width='10.20' height='235.95' style='stroke-width: 1.07; stroke: #FFFFFF; stroke-linecap: square; stroke-linejoin: miter; fill: #595959;' clip-path='url(#cpMzk5Ljc1fDU2OC4wM3wzODYuNDh8MzIuNTU=)' />
<rect x='438.00' y='48.64' width='10.20' height='321.76' style='stroke-width: 1.07; stroke: #FFFFFF; stroke-linecap: square; stroke-linejoin: miter; fill: #595959;' clip-path='url(#cpMzk5Ljc1fDU2OC4wM3wzODYuNDh8MzIuNTU=)' />
<rect x='448.20' y='220.24' width='10.20' height='150.15' style='stroke-width: 1.07; stroke: #FFFFFF; stroke-linecap: square; stroke-linejoin: miter; fill: #595959;' clip-path='url(#cpMzk5Ljc1fDU2OC4wM3wzODYuNDh8MzIuNTU=)' />
<rect x='458.39' y='284.59' width='10.20' height='85.80' style='stroke-width: 1.07; stroke: #FFFFFF; stroke-linecap: square; stroke-linejoin: miter; fill: #595959;' clip-path='url(#cpMzk5Ljc1fDU2OC4wM3wzODYuNDh8MzIuNTU=)' />
<rect x='468.59' y='241.69' width='10.20' height='128.70' style='stroke-width: 1.07; stroke: #FFFFFF; stroke-linecap: square; stroke-linejoin: miter; fill: #595959;' clip-path='url(#cpMzk5Ljc1fDU2OC4wM3wzODYuNDh8MzIuNTU=)' />
<rect x='478.79' y='306.04' width='10.20' height='64.35' style='stroke-width: 1.07; stroke: #FFFFFF; stroke-linecap: square; stroke-linejoin: miter; fill: #595959;' clip-path='url(#cpMzk5Ljc1fDU2OC4wM3wzODYuNDh8MzIuNTU=)' />
<rect x='488.99' y='348.95' width='10.20' height='21.45' style='stroke-width: 1.07; stroke: #FFFFFF; stroke-linecap: square; stroke-linejoin: miter; fill: #595959;' clip-path='url(#cpMzk5Ljc1fDU2OC4wM3wzODYuNDh8MzIuNTU=)' />
<rect x='499.19' y='370.40' width='10.20' height='0.00' style='stroke-width: 1.07; stroke: #FFFFFF; stroke-linecap: square; stroke-linejoin: miter; fill: #595959;' clip-path='url(#cpMzk5Ljc1fDU2OC4wM3wzODYuNDh8MzIuNTU=)' />
<rect x='509.39' y='370.40' width='10.20' height='0.00' style='stroke-width: 1.07; stroke: #FFFFFF; stroke-linecap: square; stroke-linejoin: miter; fill: #595959;' clip-path='url(#cpMzk5Ljc1fDU2OC4wM3wzODYuNDh8MzIuNTU=)' />
<rect x='519.59' y='370.40' width='10.20' height='0.00' style='stroke-width: 1.07; stroke: #FFFFFF; stroke-linecap: square; stroke-linejoin: miter; fill: #595959;' clip-path='url(#cpMzk5Ljc1fDU2OC4wM3wzODYuNDh8MzIuNTU=)' />
<rect x='529.79' y='370.40' width='10.20' height='0.00' style='stroke-width: 1.07; stroke: #FFFFFF; stroke-linecap: square; stroke-linejoin: miter; fill: #595959;' clip-path='url(#cpMzk5Ljc1fDU2OC4wM3wzODYuNDh8MzIuNTU=)' />
<rect x='539.98' y='348.95' width='10.20' height='21.45' style='stroke-width: 1.07; stroke: #FFFFFF; stroke-linecap: square; stroke-linejoin: miter; fill: #595959;' clip-path='url(#cpMzk5Ljc1fDU2OC4wM3wzODYuNDh8MzIuNTU=)' />
<rect x='550.18' y='348.95' width='10.20' height='21.45' style='stroke-width: 1.07; stroke: #FFFFFF; stroke-linecap: square; stroke-linejoin: miter; fill: #595959;' clip-path='url(#cpMzk5Ljc1fDU2OC4wM3wzODYuNDh8MzIuNTU=)' />
<rect x='399.75' y='32.55' width='168.28' height='353.93' style='stroke-width: 1.55;' clip-path='url(#cpMzk5Ljc1fDU2OC4wM3wzODYuNDh8MzIuNTU=)' />
<defs>
  <clipPath id='cpMC4wMHw1NzYuMDB8NDMyLjAwfDAuMDA='>
    <rect x='0.00' y='0.00' width='576.00' height='432.00' />
  </clipPath>
</defs>
<defs>
  <clipPath id='cpNDcuMjZ8MjE1LjU0fDMyLjU1fDcuOTc='>
    <rect x='47.26' y='7.97' width='168.28' height='24.58' />
  </clipPath>
</defs>
<rect x='47.26' y='7.97' width='168.28' height='24.58' style='stroke-width: 1.55; fill: #000000;' clip-path='url(#cpNDcuMjZ8MjE1LjU0fDMyLjU1fDcuOTc=)' />
<g clip-path='url(#cpNDcuMjZ8MjE1LjU0fDMyLjU1fDcuOTc=)'><text x='102.52' y='24.70' style='font-size: 12.80px; fill: #FFFFFF; font-family: Georgia;' textLength='57.75px' lengthAdjust='spacingAndGlyphs'>глицерин</text></g>
<defs>
  <clipPath id='cpMC4wMHw1NzYuMDB8NDMyLjAwfDAuMDA='>
    <rect x='0.00' y='0.00' width='576.00' height='432.00' />
  </clipPath>
</defs>
<defs>
  <clipPath id='cpMjIzLjUxfDM5MS43OHwzMi41NXw3Ljk3'>
    <rect x='223.51' y='7.97' width='168.28' height='24.58' />
  </clipPath>
</defs>
<rect x='223.51' y='7.97' width='168.28' height='24.58' style='stroke-width: 1.55; fill: #000000;' clip-path='url(#cpMjIzLjUxfDM5MS43OHwzMi41NXw3Ljk3)' />
<g clip-path='url(#cpMjIzLjUxfDM5MS43OHwzMi41NXw3Ljk3)'><text x='289.47' y='24.70' style='font-size: 12.80px; fill: #FFFFFF; font-family: Georgia;' textLength='36.36px' lengthAdjust='spacingAndGlyphs'>буфер</text></g>
<defs>
  <clipPath id='cpMC4wMHw1NzYuMDB8NDMyLjAwfDAuMDA='>
    <rect x='0.00' y='0.00' width='576.00' height='432.00' />
  </clipPath>
</defs>
<defs>
  <clipPath id='cpMzk5Ljc1fDU2OC4wM3wzMi41NXw3Ljk3'>
    <rect x='399.75' y='7.97' width='168.28' height='24.58' />
  </clipPath>
</defs>
<rect x='399.75' y='7.97' width='168.28' height='24.58' style='stroke-width: 1.55; fill: #000000;' clip-path='url(#cpMzk5Ljc1fDU2OC4wM3wzMi41NXw3Ljk3)' />
<g clip-path='url(#cpMzk5Ljc1fDU2OC4wM3wzMi41NXw3Ljk3)'><text x='472.20' y='24.70' style='font-size: 12.80px; fill: #FFFFFF; font-family: Georgia;' textLength='23.38px' lengthAdjust='spacingAndGlyphs'>(all)</text></g>
<defs>
  <clipPath id='cpMC4wMHw1NzYuMDB8NDMyLjAwfDAuMDA='>
    <rect x='0.00' y='0.00' width='576.00' height='432.00' />
  </clipPath>
</defs>
<polyline points='60.01,390.47 60.01,386.48 ' style='stroke-width: 0.78; stroke-linecap: butt;' clip-path='url(#cpMC4wMHw1NzYuMDB8NDMyLjAwfDAuMDA=)' />
<polyline points='94.75,390.47 94.75,386.48 ' style='stroke-width: 0.78; stroke-linecap: butt;' clip-path='url(#cpMC4wMHw1NzYuMDB8NDMyLjAwfDAuMDA=)' />
<polyline points='129.49,390.47 129.49,386.48 ' style='stroke-width: 0.78; stroke-linecap: butt;' clip-path='url(#cpMC4wMHw1NzYuMDB8NDMyLjAwfDAuMDA=)' />
<polyline points='164.23,390.47 164.23,386.48 ' style='stroke-width: 0.78; stroke-linecap: butt;' clip-path='url(#cpMC4wMHw1NzYuMDB8NDMyLjAwfDAuMDA=)' />
<polyline points='198.97,390.47 198.97,386.48 ' style='stroke-width: 0.78; stroke-linecap: butt;' clip-path='url(#cpMC4wMHw1NzYuMDB8NDMyLjAwfDAuMDA=)' />
<g clip-path='url(#cpMC4wMHw1NzYuMDB8NDMyLjAwfDAuMDA=)'><text x='41.01' y='402.53' style='font-size: 12.80px; font-family: Georgia;' textLength='37.99px' lengthAdjust='spacingAndGlyphs'>0e+00</text></g>
<g clip-path='url(#cpMC4wMHw1NzYuMDB8NDMyLjAwfDAuMDA=)'><text x='78.14' y='402.53' style='font-size: 12.80px; font-family: Georgia;' textLength='33.21px' lengthAdjust='spacingAndGlyphs'>2e-04</text></g>
<g clip-path='url(#cpMC4wMHw1NzYuMDB8NDMyLjAwfDAuMDA=)'><text x='112.84' y='402.53' style='font-size: 12.80px; font-family: Georgia;' textLength='33.29px' lengthAdjust='spacingAndGlyphs'>4e-04</text></g>
<g clip-path='url(#cpMC4wMHw1NzYuMDB8NDMyLjAwfDAuMDA=)'><text x='147.58' y='402.53' style='font-size: 12.80px; font-family: Georgia;' textLength='33.31px' lengthAdjust='spacingAndGlyphs'>6e-04</text></g>
<g clip-path='url(#cpMC4wMHw1NzYuMDB8NDMyLjAwfDAuMDA=)'><text x='182.12' y='402.53' style='font-size: 12.80px; font-family: Georgia;' textLength='33.69px' lengthAdjust='spacingAndGlyphs'>8e-04</text></g>
<polyline points='236.25,390.47 236.25,386.48 ' style='stroke-width: 0.78; stroke-linecap: butt;' clip-path='url(#cpMC4wMHw1NzYuMDB8NDMyLjAwfDAuMDA=)' />
<polyline points='270.99,390.47 270.99,386.48 ' style='stroke-width: 0.78; stroke-linecap: butt;' clip-path='url(#cpMC4wMHw1NzYuMDB8NDMyLjAwfDAuMDA=)' />
<polyline points='305.74,390.47 305.74,386.48 ' style='stroke-width: 0.78; stroke-linecap: butt;' clip-path='url(#cpMC4wMHw1NzYuMDB8NDMyLjAwfDAuMDA=)' />
<polyline points='340.48,390.47 340.48,386.48 ' style='stroke-width: 0.78; stroke-linecap: butt;' clip-path='url(#cpMC4wMHw1NzYuMDB8NDMyLjAwfDAuMDA=)' />
<polyline points='375.22,390.47 375.22,386.48 ' style='stroke-width: 0.78; stroke-linecap: butt;' clip-path='url(#cpMC4wMHw1NzYuMDB8NDMyLjAwfDAuMDA=)' />
<g clip-path='url(#cpMC4wMHw1NzYuMDB8NDMyLjAwfDAuMDA=)'><text x='217.26' y='402.53' style='font-size: 12.80px; font-family: Georgia;' textLength='37.99px' lengthAdjust='spacingAndGlyphs'>0e+00</text></g>
<g clip-path='url(#cpMC4wMHw1NzYuMDB8NDMyLjAwfDAuMDA=)'><text x='254.39' y='402.53' style='font-size: 12.80px; font-family: Georgia;' textLength='33.21px' lengthAdjust='spacingAndGlyphs'>2e-04</text></g>
<g clip-path='url(#cpMC4wMHw1NzYuMDB8NDMyLjAwfDAuMDA=)'><text x='289.09' y='402.53' style='font-size: 12.80px; font-family: Georgia;' textLength='33.29px' lengthAdjust='spacingAndGlyphs'>4e-04</text></g>
<g clip-path='url(#cpMC4wMHw1NzYuMDB8NDMyLjAwfDAuMDA=)'><text x='323.82' y='402.53' style='font-size: 12.80px; font-family: Georgia;' textLength='33.31px' lengthAdjust='spacingAndGlyphs'>6e-04</text></g>
<g clip-path='url(#cpMC4wMHw1NzYuMDB8NDMyLjAwfDAuMDA=)'><text x='358.37' y='402.53' style='font-size: 12.80px; font-family: Georgia;' textLength='33.69px' lengthAdjust='spacingAndGlyphs'>8e-04</text></g>
<polyline points='412.50,390.47 412.50,386.48 ' style='stroke-width: 0.78; stroke-linecap: butt;' clip-path='url(#cpMC4wMHw1NzYuMDB8NDMyLjAwfDAuMDA=)' />
<polyline points='447.24,390.47 447.24,386.48 ' style='stroke-width: 0.78; stroke-linecap: butt;' clip-path='url(#cpMC4wMHw1NzYuMDB8NDMyLjAwfDAuMDA=)' />
<polyline points='481.98,390.47 481.98,386.48 ' style='stroke-width: 0.78; stroke-linecap: butt;' clip-path='url(#cpMC4wMHw1NzYuMDB8NDMyLjAwfDAuMDA=)' />
<polyline points='516.72,390.47 516.72,386.48 ' style='stroke-width: 0.78; stroke-linecap: butt;' clip-path='url(#cpMC4wMHw1NzYuMDB8NDMyLjAwfDAuMDA=)' />
<polyline points='551.46,390.47 551.46,386.48 ' style='stroke-width: 0.78; stroke-linecap: butt;' clip-path='url(#cpMC4wMHw1NzYuMDB8NDMyLjAwfDAuMDA=)' />
<g clip-path='url(#cpMC4wMHw1NzYuMDB8NDMyLjAwfDAuMDA=)'><text x='393.51' y='402.53' style='font-size: 12.80px; font-family: Georgia;' textLength='37.99px' lengthAdjust='spacingAndGlyphs'>0e+00</text></g>
<g clip-path='url(#cpMC4wMHw1NzYuMDB8NDMyLjAwfDAuMDA=)'><text x='430.64' y='402.53' style='font-size: 12.80px; font-family: Georgia;' textLength='33.21px' lengthAdjust='spacingAndGlyphs'>2e-04</text></g>
<g clip-path='url(#cpMC4wMHw1NzYuMDB8NDMyLjAwfDAuMDA=)'><text x='465.34' y='402.53' style='font-size: 12.80px; font-family: Georgia;' textLength='33.29px' lengthAdjust='spacingAndGlyphs'>4e-04</text></g>
<g clip-path='url(#cpMC4wMHw1NzYuMDB8NDMyLjAwfDAuMDA=)'><text x='500.07' y='402.53' style='font-size: 12.80px; font-family: Georgia;' textLength='33.31px' lengthAdjust='spacingAndGlyphs'>6e-04</text></g>
<g clip-path='url(#cpMC4wMHw1NzYuMDB8NDMyLjAwfDAuMDA=)'><text x='534.62' y='402.53' style='font-size: 12.80px; font-family: Georgia;' textLength='33.69px' lengthAdjust='spacingAndGlyphs'>8e-04</text></g>
<g clip-path='url(#cpMC4wMHw1NzYuMDB8NDMyLjAwfDAuMDA=)'><text x='32.23' y='374.83' style='font-size: 12.80px; font-family: Georgia;' textLength='7.86px' lengthAdjust='spacingAndGlyphs'>0</text></g>
<g clip-path='url(#cpMC4wMHw1NzYuMDB8NDMyLjAwfDAuMDA=)'><text x='33.32' y='267.58' style='font-size: 12.80px; font-family: Georgia;' textLength='6.76px' lengthAdjust='spacingAndGlyphs'>5</text></g>
<g clip-path='url(#cpMC4wMHw1NzYuMDB8NDMyLjAwfDAuMDA=)'><text x='26.73' y='160.33' style='font-size: 12.80px; font-family: Georgia;' textLength='13.36px' lengthAdjust='spacingAndGlyphs'>10</text></g>
<g clip-path='url(#cpMC4wMHw1NzYuMDB8NDMyLjAwfDAuMDA=)'><text x='27.82' y='53.07' style='font-size: 12.80px; font-family: Georgia;' textLength='12.26px' lengthAdjust='spacingAndGlyphs'>15</text></g>
<polyline points='43.27,370.40 47.26,370.40 ' style='stroke-width: 0.78; stroke-linecap: butt;' clip-path='url(#cpMC4wMHw1NzYuMDB8NDMyLjAwfDAuMDA=)' />
<polyline points='43.27,263.14 47.26,263.14 ' style='stroke-width: 0.78; stroke-linecap: butt;' clip-path='url(#cpMC4wMHw1NzYuMDB8NDMyLjAwfDAuMDA=)' />
<polyline points='43.27,155.89 47.26,155.89 ' style='stroke-width: 0.78; stroke-linecap: butt;' clip-path='url(#cpMC4wMHw1NzYuMDB8NDMyLjAwfDAuMDA=)' />
<polyline points='43.27,48.64 47.26,48.64 ' style='stroke-width: 0.78; stroke-linecap: butt;' clip-path='url(#cpMC4wMHw1NzYuMDB8NDMyLjAwfDAuMDA=)' />
<g clip-path='url(#cpMC4wMHw1NzYuMDB8NDMyLjAwfDAuMDA=)'><text x='290.84' y='420.56' style='font-size: 16.00px; font-family: Georgia;' textLength='33.60px' lengthAdjust='spacingAndGlyphs'>cbha</text></g>
<g clip-path='url(#cpMC4wMHw1NzYuMDB8NDMyLjAwfDAuMDA=)'><text transform='translate(19.06,229.55) rotate(-90)' style='font-size: 16.00px; font-family: Georgia;' textLength='40.07px' lengthAdjust='spacingAndGlyphs'>count</text></g>
</svg>
