<?xml version='1.0' encoding='UTF-8' ?>
<svg xmlns='http://www.w3.org/2000/svg' xmlns:xlink='http://www.w3.org/1999/xlink' viewBox='0 0 576.00 432.00'>
<defs>
  <style type='text/css'><![CDATA[
    line, polyline, polygon, path, rect, circle {
      fill: none;
      stroke: #000000;
      stroke-linecap: round;
      stroke-linejoin: round;
      stroke-miterlimit: 10.00;
    }
  ]]></style>
</defs>
<rect width='100%' height='100%' style='stroke: none; fill: #FFFFFF;'/>
<defs>
  <clipPath id='cpMC4wMHw1NzYuMDB8MjE2LjAwfDAuMDA='>
    <rect x='0.00' y='0.00' width='576.00' height='216.00' />
  </clipPath>
</defs>
<rect x='0.00' y='0.00' width='576.00' height='216.00' style='stroke-width: 1.55; stroke: #BFC4BB; fill: #BFC4BB;' clip-path='url(#cpMC4wMHw1NzYuMDB8MjE2LjAwfDAuMDA=)' />
<defs>
  <clipPath id='cpMC4wMHw1NzYuMDB8NDMyLjAwfDAuMDA='>
    <rect x='0.00' y='0.00' width='576.00' height='432.00' />
  </clipPath>
</defs>
<defs>
  <clipPath id='cpNDMuOTd8NTY4LjAzfDE3MC42Mnw3Ljk3'>
    <rect x='43.97' y='7.97' width='524.06' height='162.65' />
  </clipPath>
</defs>
<rect x='43.97' y='7.97' width='524.06' height='162.65' style='stroke-width: 1.55; stroke: none; fill: #BFC4BB;' clip-path='url(#cpNDMuOTd8NTY4LjAzfDE3MC42Mnw3Ljk3)' />
<polyline points='43.97,151.60 568.03,151.60 ' style='stroke-width: 0.078; stroke-linecap: butt;' clip-path='url(#cpNDMuOTd8NTY4LjAzfDE3MC42Mnw3Ljk3)' />
<polyline points='43.97,104.53 568.03,104.53 ' style='stroke-width: 0.078; stroke-linecap: butt;' clip-path='url(#cpNDMuOTd8NTY4LjAzfDE3MC42Mnw3Ljk3)' />
<polyline points='43.97,57.46 568.03,57.46 ' style='stroke-width: 0.078; stroke-linecap: butt;' clip-path='url(#cpNDMuOTd8NTY4LjAzfDE3MC42Mnw3Ljk3)' />
<polyline points='43.97,10.39 568.03,10.39 ' style='stroke-width: 0.078; stroke-linecap: butt;' clip-path='url(#cpNDMuOTd8NTY4LjAzfDE3MC42Mnw3Ljk3)' />
<polyline points='86.70,170.62 86.70,7.97 ' style='stroke-width: 0.078; stroke-linecap: butt;' clip-path='url(#cpNDMuOTd8NTY4LjAzfDE3MC42Mnw3Ljk3)' />
<polyline points='205.49,170.62 205.49,7.97 ' style='stroke-width: 0.078; stroke-linecap: butt;' clip-path='url(#cpNDMuOTd8NTY4LjAzfDE3MC42Mnw3Ljk3)' />
<polyline points='324.27,170.62 324.27,7.97 ' style='stroke-width: 0.078; stroke-linecap: butt;' clip-path='url(#cpNDMuOTd8NTY4LjAzfDE3MC42Mnw3Ljk3)' />
<polyline points='443.06,170.62 443.06,7.97 ' style='stroke-width: 0.078; stroke-linecap: butt;' clip-path='url(#cpNDMuOTd8NTY4LjAzfDE3MC42Mnw3Ljk3)' />
<polyline points='561.85,170.62 561.85,7.97 ' style='stroke-width: 0.078; stroke-linecap: butt;' clip-path='url(#cpNDMuOTd8NTY4LjAzfDE3MC42Mnw3Ljk3)' />
<polyline points='43.97,128.06 568.03,128.06 ' style='stroke-width: 0.16; stroke-linecap: butt;' clip-path='url(#cpNDMuOTd8NTY4LjAzfDE3MC42Mnw3Ljk3)' />
<polyline points='43.97,80.99 568.03,80.99 ' style='stroke-width: 0.16; stroke-linecap: butt;' clip-path='url(#cpNDMuOTd8NTY4LjAzfDE3MC42Mnw3Ljk3)' />
<polyline points='43.97,33.92 568.03,33.92 ' style='stroke-width: 0.16; stroke-linecap: butt;' clip-path='url(#cpNDMuOTd8NTY4LjAzfDE3MC42Mnw3Ljk3)' />
<polyline points='146.09,170.62 146.09,7.97 ' style='stroke-width: 0.16; stroke-linecap: butt;' clip-path='url(#cpNDMuOTd8NTY4LjAzfDE3MC42Mnw3Ljk3)' />
<polyline points='264.88,170.62 264.88,7.97 ' style='stroke-width: 0.16; stroke-linecap: butt;' clip-path='url(#cpNDMuOTd8NTY4LjAzfDE3MC42Mnw3Ljk3)' />
<polyline points='383.67,170.62 383.67,7.97 ' style='stroke-width: 0.16; stroke-linecap: butt;' clip-path='url(#cpNDMuOTd8NTY4LjAzfDE3MC42Mnw3Ljk3)' />
<polyline points='502.45,170.62 502.45,7.97 ' style='stroke-width: 0.16; stroke-linecap: butt;' clip-path='url(#cpNDMuOTd8NTY4LjAzfDE3MC42Mnw3Ljk3)' />
<line x1='43.97' y1='80.99' x2='568.03' y2='80.99' style='stroke-width: 1.07; stroke-linecap: butt;' clip-path='url(#cpNDMuOTd8NTY4LjAzfDE3MC42Mnw3Ljk3)' />
<circle cx='162.14' cy='25.08' r='1.95' style='stroke-width: 0.71; fill: #000000;' clip-path='url(#cpNDMuOTd8NTY4LjAzfDE3MC42Mnw3Ljk3)' />
<circle cx='153.14' cy='127.36' r='1.95' style='stroke-width: 0.71; fill: #000000;' clip-path='url(#cpNDMuOTd8NTY4LjAzfDE3MC42Mnw3Ljk3)' />
<circle cx='175.86' cy='44.19' r='1.95' style='stroke-width: 0.71; fill: #000000;' clip-path='url(#cpNDMuOTd8NTY4LjAzfDE3MC42Mnw3Ljk3)' />
<circle cx='163.46' cy='29.93' r='1.95' style='stroke-width: 0.71; fill: #000000;' clip-path='url(#cpNDMuOTd8NTY4LjAzfDE3MC42Mnw3Ljk3)' />
<circle cx='128.14' cy='96.34' r='1.95' style='stroke-width: 0.71; fill: #000000;' clip-path='url(#cpNDMuOTd8NTY4LjAzfDE3MC42Mnw3Ljk3)' />
<circle cx='92.74' cy='163.23' r='1.95' style='stroke-width: 0.71; fill: #000000;' clip-path='url(#cpNDMuOTd8NTY4LjAzfDE3MC42Mnw3Ljk3)' />
<circle cx='147.22' cy='70.88' r='1.95' style='stroke-width: 0.71; fill: #000000;' clip-path='url(#cpNDMuOTd8NTY4LjAzfDE3MC42Mnw3Ljk3)' />
<circle cx='125.72' cy='126.48' r='1.95' style='stroke-width: 0.71; fill: #000000;' clip-path='url(#cpNDMuOTd8NTY4LjAzfDE3MC42Mnw3Ljk3)' />
<circle cx='186.67' cy='36.57' r='1.95' style='stroke-width: 0.71; fill: #000000;' clip-path='url(#cpNDMuOTd8NTY4LjAzfDE3MC42Mnw3Ljk3)' />
<circle cx='85.64' cy='64.93' r='1.95' style='stroke-width: 0.71; fill: #000000;' clip-path='url(#cpNDMuOTd8NTY4LjAzfDE3MC42Mnw3Ljk3)' />
<circle cx='108.17' cy='48.77' r='1.95' style='stroke-width: 0.71; fill: #000000;' clip-path='url(#cpNDMuOTd8NTY4LjAzfDE3MC42Mnw3Ljk3)' />
<circle cx='135.19' cy='15.36' r='1.95' style='stroke-width: 0.71; fill: #000000;' clip-path='url(#cpNDMuOTd8NTY4LjAzfDE3MC42Mnw3Ljk3)' />
<circle cx='108.58' cy='48.79' r='1.95' style='stroke-width: 0.71; fill: #000000;' clip-path='url(#cpNDMuOTd8NTY4LjAzfDE3MC42Mnw3Ljk3)' />
<circle cx='107.44' cy='69.25' r='1.95' style='stroke-width: 0.71; fill: #000000;' clip-path='url(#cpNDMuOTd8NTY4LjAzfDE3MC42Mnw3Ljk3)' />
<circle cx='67.79' cy='131.88' r='1.95' style='stroke-width: 0.71; fill: #000000;' clip-path='url(#cpNDMuOTd8NTY4LjAzfDE3MC42Mnw3Ljk3)' />
<circle cx='108.34' cy='71.31' r='1.95' style='stroke-width: 0.71; fill: #000000;' clip-path='url(#cpNDMuOTd8NTY4LjAzfDE3MC42Mnw3Ljk3)' />
<circle cx='106.62' cy='68.81' r='1.95' style='stroke-width: 0.71; fill: #000000;' clip-path='url(#cpNDMuOTd8NTY4LjAzfDE3MC42Mnw3Ljk3)' />
<circle cx='103.05' cy='62.99' r='1.95' style='stroke-width: 0.71; fill: #000000;' clip-path='url(#cpNDMuOTd8NTY4LjAzfDE3MC42Mnw3Ljk3)' />
<circle cx='118.29' cy='83.29' r='1.95' style='stroke-width: 0.71; fill: #000000;' clip-path='url(#cpNDMuOTd8NTY4LjAzfDE3MC42Mnw3Ljk3)' />
<circle cx='253.24' cy='132.78' r='1.95' style='stroke-width: 0.71; fill: #000000;' clip-path='url(#cpNDMuOTd8NTY4LjAzfDE3MC42Mnw3Ljk3)' />
<circle cx='314.21' cy='30.48' r='1.95' style='stroke-width: 0.71; fill: #000000;' clip-path='url(#cpNDMuOTd8NTY4LjAzfDE3MC42Mnw3Ljk3)' />
<circle cx='295.48' cy='75.69' r='1.95' style='stroke-width: 0.71; fill: #000000;' clip-path='url(#cpNDMuOTd8NTY4LjAzfDE3MC42Mnw3Ljk3)' />
<circle cx='254.18' cy='118.08' r='1.95' style='stroke-width: 0.71; fill: #000000;' clip-path='url(#cpNDMuOTd8NTY4LjAzfDE3MC42Mnw3Ljk3)' />
<circle cx='226.93' cy='116.50' r='1.95' style='stroke-width: 0.71; fill: #000000;' clip-path='url(#cpNDMuOTd8NTY4LjAzfDE3MC42Mnw3Ljk3)' />
<circle cx='140.67' cy='54.58' r='1.95' style='stroke-width: 0.71; fill: #000000;' clip-path='url(#cpNDMuOTd8NTY4LjAzfDE3MC42Mnw3Ljk3)' />
<circle cx='228.89' cy='83.60' r='1.95' style='stroke-width: 0.71; fill: #000000;' clip-path='url(#cpNDMuOTd8NTY4LjAzfDE3MC42Mnw3Ljk3)' />
<circle cx='216.94' cy='57.02' r='1.95' style='stroke-width: 0.71; fill: #000000;' clip-path='url(#cpNDMuOTd8NTY4LjAzfDE3MC42Mnw3Ljk3)' />
<circle cx='330.66' cy='77.93' r='1.95' style='stroke-width: 0.71; fill: #000000;' clip-path='url(#cpNDMuOTd8NTY4LjAzfDE3MC42Mnw3Ljk3)' />
<circle cx='139.34' cy='84.94' r='1.95' style='stroke-width: 0.71; fill: #000000;' clip-path='url(#cpNDMuOTd8NTY4LjAzfDE3MC42Mnw3Ljk3)' />
<circle cx='180.84' cy='58.00' r='1.95' style='stroke-width: 0.71; fill: #000000;' clip-path='url(#cpNDMuOTd8NTY4LjAzfDE3MC42Mnw3Ljk3)' />
<circle cx='288.44' cy='112.30' r='1.95' style='stroke-width: 0.71; fill: #000000;' clip-path='url(#cpNDMuOTd8NTY4LjAzfDE3MC42Mnw3Ljk3)' />
<circle cx='226.86' cy='102.73' r='1.95' style='stroke-width: 0.71; fill: #000000;' clip-path='url(#cpNDMuOTd8NTY4LjAzfDE3MC42Mnw3Ljk3)' />
<circle cx='278.53' cy='119.31' r='1.95' style='stroke-width: 0.71; fill: #000000;' clip-path='url(#cpNDMuOTd8NTY4LjAzfDE3MC42Mnw3Ljk3)' />
<circle cx='241.58' cy='134.93' r='1.95' style='stroke-width: 0.71; fill: #000000;' clip-path='url(#cpNDMuOTd8NTY4LjAzfDE3MC42Mnw3Ljk3)' />
<circle cx='272.60' cy='105.12' r='1.95' style='stroke-width: 0.71; fill: #000000;' clip-path='url(#cpNDMuOTd8NTY4LjAzfDE3MC42Mnw3Ljk3)' />
<circle cx='285.05' cy='130.48' r='1.95' style='stroke-width: 0.71; fill: #000000;' clip-path='url(#cpNDMuOTd8NTY4LjAzfDE3MC42Mnw3Ljk3)' />
<circle cx='282.18' cy='155.29' r='1.95' style='stroke-width: 0.71; fill: #000000;' clip-path='url(#cpNDMuOTd8NTY4LjAzfDE3MC42Mnw3Ljk3)' />
<circle cx='331.25' cy='95.87' r='1.95' style='stroke-width: 0.71; fill: #000000;' clip-path='url(#cpNDMuOTd8NTY4LjAzfDE3MC42Mnw3Ljk3)' />
<circle cx='344.33' cy='60.51' r='1.95' style='stroke-width: 0.71; fill: #000000;' clip-path='url(#cpNDMuOTd8NTY4LjAzfDE3MC42Mnw3Ljk3)' />
<circle cx='475.28' cy='83.84' r='1.95' style='stroke-width: 0.71; fill: #000000;' clip-path='url(#cpNDMuOTd8NTY4LjAzfDE3MC42Mnw3Ljk3)' />
<circle cx='415.10' cy='78.73' r='1.95' style='stroke-width: 0.71; fill: #000000;' clip-path='url(#cpNDMuOTd8NTY4LjAzfDE3MC42Mnw3Ljk3)' />
<circle cx='344.89' cy='68.08' r='1.95' style='stroke-width: 0.71; fill: #000000;' clip-path='url(#cpNDMuOTd8NTY4LjAzfDE3MC42Mnw3Ljk3)' />
<circle cx='325.71' cy='63.67' r='1.95' style='stroke-width: 0.71; fill: #000000;' clip-path='url(#cpNDMuOTd8NTY4LjAzfDE3MC42Mnw3Ljk3)' />
<circle cx='188.61' cy='112.40' r='1.95' style='stroke-width: 0.71; fill: #000000;' clip-path='url(#cpNDMuOTd8NTY4LjAzfDE3MC42Mnw3Ljk3)' />
<circle cx='310.56' cy='87.90' r='1.95' style='stroke-width: 0.71; fill: #000000;' clip-path='url(#cpNDMuOTd8NTY4LjAzfDE3MC42Mnw3Ljk3)' />
<circle cx='308.16' cy='96.21' r='1.95' style='stroke-width: 0.71; fill: #000000;' clip-path='url(#cpNDMuOTd8NTY4LjAzfDE3MC42Mnw3Ljk3)' />
<circle cx='474.65' cy='68.73' r='1.95' style='stroke-width: 0.71; fill: #000000;' clip-path='url(#cpNDMuOTd8NTY4LjAzfDE3MC42Mnw3Ljk3)' />
<circle cx='193.04' cy='114.58' r='1.95' style='stroke-width: 0.71; fill: #000000;' clip-path='url(#cpNDMuOTd8NTY4LjAzfDE3MC42Mnw3Ljk3)' />
<circle cx='253.52' cy='121.97' r='1.95' style='stroke-width: 0.71; fill: #000000;' clip-path='url(#cpNDMuOTd8NTY4LjAzfDE3MC42Mnw3Ljk3)' />
<circle cx='441.69' cy='64.96' r='1.95' style='stroke-width: 0.71; fill: #000000;' clip-path='url(#cpNDMuOTd8NTY4LjAzfDE3MC42Mnw3Ljk3)' />
<circle cx='345.13' cy='81.84' r='1.95' style='stroke-width: 0.71; fill: #000000;' clip-path='url(#cpNDMuOTd8NTY4LjAzfDE3MC42Mnw3Ljk3)' />
<circle cx='449.61' cy='52.88' r='1.95' style='stroke-width: 0.71; fill: #000000;' clip-path='url(#cpNDMuOTd8NTY4LjAzfDE3MC42Mnw3Ljk3)' />
<circle cx='415.38' cy='41.70' r='1.95' style='stroke-width: 0.71; fill: #000000;' clip-path='url(#cpNDMuOTd8NTY4LjAzfDE3MC42Mnw3Ljk3)' />
<circle cx='436.85' cy='62.69' r='1.95' style='stroke-width: 0.71; fill: #000000;' clip-path='url(#cpNDMuOTd8NTY4LjAzfDE3MC42Mnw3Ljk3)' />
<circle cx='463.47' cy='44.38' r='1.95' style='stroke-width: 0.71; fill: #000000;' clip-path='url(#cpNDMuOTd8NTY4LjAzfDE3MC42Mnw3Ljk3)' />
<circle cx='461.32' cy='31.49' r='1.95' style='stroke-width: 0.71; fill: #000000;' clip-path='url(#cpNDMuOTd8NTY4LjAzfDE3MC42Mnw3Ljk3)' />
<circle cx='544.21' cy='48.90' r='1.95' style='stroke-width: 0.71; fill: #000000;' clip-path='url(#cpNDMuOTd8NTY4LjAzfDE3MC42Mnw3Ljk3)' />
<rect x='43.97' y='7.97' width='524.06' height='162.65' style='stroke-width: 1.55;' clip-path='url(#cpNDMuOTd8NTY4LjAzfDE3MC42Mnw3Ljk3)' />
<defs>
  <clipPath id='cpMC4wMHw1NzYuMDB8NDMyLjAwfDAuMDA='>
    <rect x='0.00' y='0.00' width='576.00' height='432.00' />
  </clipPath>
</defs>
<g clip-path='url(#cpMC4wMHw1NzYuMDB8NDMyLjAwfDAuMDA=)'><text x='26.51' y='132.50' style='font-size: 12.80px; font-family: Georgia;' textLength='10.29px' lengthAdjust='spacingAndGlyphs'>-1</text></g>
<g clip-path='url(#cpMC4wMHw1NzYuMDB8NDMyLjAwfDAuMDA=)'><text x='28.94' y='85.43' style='font-size: 12.80px; font-family: Georgia;' textLength='7.86px' lengthAdjust='spacingAndGlyphs'>0</text></g>
<g clip-path='url(#cpMC4wMHw1NzYuMDB8NDMyLjAwfDAuMDA=)'><text x='31.30' y='38.36' style='font-size: 12.80px; font-family: Georgia;' textLength='5.50px' lengthAdjust='spacingAndGlyphs'>1</text></g>
<polyline points='39.99,128.06 43.97,128.06 ' style='stroke-width: 0.78; stroke-linecap: butt;' clip-path='url(#cpMC4wMHw1NzYuMDB8NDMyLjAwfDAuMDA=)' />
<polyline points='39.99,80.99 43.97,80.99 ' style='stroke-width: 0.78; stroke-linecap: butt;' clip-path='url(#cpMC4wMHw1NzYuMDB8NDMyLjAwfDAuMDA=)' />
<polyline points='39.99,33.92 43.97,33.92 ' style='stroke-width: 0.78; stroke-linecap: butt;' clip-path='url(#cpMC4wMHw1NzYuMDB8NDMyLjAwfDAuMDA=)' />
<polyline points='146.09,174.61 146.09,170.62 ' style='stroke-width: 0.78; stroke-linecap: butt;' clip-path='url(#cpMC4wMHw1NzYuMDB8NDMyLjAwfDAuMDA=)' />
<polyline points='264.88,174.61 264.88,170.62 ' style='stroke-width: 0.78; stroke-linecap: butt;' clip-path='url(#cpMC4wMHw1NzYuMDB8NDMyLjAwfDAuMDA=)' />
<polyline points='383.67,174.61 383.67,170.62 ' style='stroke-width: 0.78; stroke-linecap: butt;' clip-path='url(#cpMC4wMHw1NzYuMDB8NDMyLjAwfDAuMDA=)' />
<polyline points='502.45,174.61 502.45,170.62 ' style='stroke-width: 0.78; stroke-linecap: butt;' clip-path='url(#cpMC4wMHw1NzYuMDB8NDMyLjAwfDAuMDA=)' />
<g clip-path='url(#cpMC4wMHw1NzYuMDB8NDMyLjAwfDAuMDA=)'><text x='137.69' y='186.67' style='font-size: 12.80px; font-family: Georgia;' textLength='16.81px' lengthAdjust='spacingAndGlyphs'>0.1</text></g>
<g clip-path='url(#cpMC4wMHw1NzYuMDB8NDMyLjAwfDAuMDA=)'><text x='255.65' y='186.67' style='font-size: 12.80px; font-family: Georgia;' textLength='18.46px' lengthAdjust='spacingAndGlyphs'>0.2</text></g>
<g clip-path='url(#cpMC4wMHw1NzYuMDB8NDMyLjAwfDAuMDA=)'><text x='374.48' y='186.67' style='font-size: 12.80px; font-family: Georgia;' textLength='18.37px' lengthAdjust='spacingAndGlyphs'>0.3</text></g>
<g clip-path='url(#cpMC4wMHw1NzYuMDB8NDMyLjAwfDAuMDA=)'><text x='493.19' y='186.67' style='font-size: 12.80px; font-family: Georgia;' textLength='18.54px' lengthAdjust='spacingAndGlyphs'>0.4</text></g>
<g clip-path='url(#cpMC4wMHw1NzYuMDB8NDMyLjAwfDAuMDA=)'><text x='284.92' y='204.56' style='font-size: 16.00px; font-family: Georgia;' textLength='42.17px' lengthAdjust='spacingAndGlyphs'>.fitted</text></g>
<g clip-path='url(#cpMC4wMHw1NzYuMDB8NDMyLjAwfDAuMDA=)'><text transform='translate(19.06,116.08) rotate(-90)' style='font-size: 16.00px; font-family: Georgia;' textLength='53.57px' lengthAdjust='spacingAndGlyphs'>.scresid</text></g>
<defs>
  <clipPath id='cpMC4wMHw1NzYuMDB8NDMyLjAwfDIxNi4wMA=='>
    <rect x='0.00' y='216.00' width='576.00' height='216.00' />
  </clipPath>
</defs>
<defs>
  <clipPath id='cpMC4wMHw1NzYuMDB8NDMyLjAwfDAuMDA='>
    <rect x='0.00' y='0.00' width='576.00' height='432.00' />
  </clipPath>
</defs>
<defs>
  <clipPath id='cpMC4wMHwyODguMDB8NDMyLjAwfDIxNi4wMA=='>
    <rect x='0.00' y='216.00' width='288.00' height='216.00' />
  </clipPath>
</defs>
<rect x='0.00' y='216.00' width='288.00' height='216.00' style='stroke-width: 1.55; stroke: #BFC4BB; fill: #BFC4BB;' clip-path='url(#cpMC4wMHwyODguMDB8NDMyLjAwfDIxNi4wMA==)' />
<defs>
  <clipPath id='cpMC4wMHw1NzYuMDB8NDMyLjAwfDAuMDA='>
    <rect x='0.00' y='0.00' width='576.00' height='432.00' />
  </clipPath>
</defs>
<defs>
  <clipPath id='cpNDMuOTd8MjgwLjAzfDM4Ni42MnwyMjMuOTc='>
    <rect x='43.97' y='223.97' width='236.06' height='162.65' />
  </clipPath>
</defs>
<rect x='43.97' y='223.97' width='236.06' height='162.65' style='stroke-width: 1.55; stroke: none; fill: #BFC4BB;' clip-path='url(#cpNDMuOTd8MjgwLjAzfDM4Ni42MnwyMjMuOTc=)' />
<polyline points='43.97,367.60 280.03,367.60 ' style='stroke-width: 0.078; stroke-linecap: butt;' clip-path='url(#cpNDMuOTd8MjgwLjAzfDM4Ni42MnwyMjMuOTc=)' />
<polyline points='43.97,320.53 280.03,320.53 ' style='stroke-width: 0.078; stroke-linecap: butt;' clip-path='url(#cpNDMuOTd8MjgwLjAzfDM4Ni42MnwyMjMuOTc=)' />
<polyline points='43.97,273.46 280.03,273.46 ' style='stroke-width: 0.078; stroke-linecap: butt;' clip-path='url(#cpNDMuOTd8MjgwLjAzfDM4Ni42MnwyMjMuOTc=)' />
<polyline points='43.97,226.39 280.03,226.39 ' style='stroke-width: 0.078; stroke-linecap: butt;' clip-path='url(#cpNDMuOTd8MjgwLjAzfDM4Ni42MnwyMjMuOTc=)' />
<polyline points='81.53,386.62 81.53,223.97 ' style='stroke-width: 0.078; stroke-linecap: butt;' clip-path='url(#cpNDMuOTd8MjgwLjAzfDM4Ni42MnwyMjMuOTc=)' />
<polyline points='135.18,386.62 135.18,223.97 ' style='stroke-width: 0.078; stroke-linecap: butt;' clip-path='url(#cpNDMuOTd8MjgwLjAzfDM4Ni42MnwyMjMuOTc=)' />
<polyline points='188.83,386.62 188.83,223.97 ' style='stroke-width: 0.078; stroke-linecap: butt;' clip-path='url(#cpNDMuOTd8MjgwLjAzfDM4Ni42MnwyMjMuOTc=)' />
<polyline points='242.48,386.62 242.48,223.97 ' style='stroke-width: 0.078; stroke-linecap: butt;' clip-path='url(#cpNDMuOTd8MjgwLjAzfDM4Ni42MnwyMjMuOTc=)' />
<polyline points='43.97,344.06 280.03,344.06 ' style='stroke-width: 0.16; stroke-linecap: butt;' clip-path='url(#cpNDMuOTd8MjgwLjAzfDM4Ni42MnwyMjMuOTc=)' />
<polyline points='43.97,296.99 280.03,296.99 ' style='stroke-width: 0.16; stroke-linecap: butt;' clip-path='url(#cpNDMuOTd8MjgwLjAzfDM4Ni42MnwyMjMuOTc=)' />
<polyline points='43.97,249.92 280.03,249.92 ' style='stroke-width: 0.16; stroke-linecap: butt;' clip-path='url(#cpNDMuOTd8MjgwLjAzfDM4Ni42MnwyMjMuOTc=)' />
<polyline points='54.70,386.62 54.70,223.97 ' style='stroke-width: 0.16; stroke-linecap: butt;' clip-path='url(#cpNDMuOTd8MjgwLjAzfDM4Ni42MnwyMjMuOTc=)' />
<polyline points='108.35,386.62 108.35,223.97 ' style='stroke-width: 0.16; stroke-linecap: butt;' clip-path='url(#cpNDMuOTd8MjgwLjAzfDM4Ni42MnwyMjMuOTc=)' />
<polyline points='162.00,386.62 162.00,223.97 ' style='stroke-width: 0.16; stroke-linecap: butt;' clip-path='url(#cpNDMuOTd8MjgwLjAzfDM4Ni42MnwyMjMuOTc=)' />
<polyline points='215.65,386.62 215.65,223.97 ' style='stroke-width: 0.16; stroke-linecap: butt;' clip-path='url(#cpNDMuOTd8MjgwLjAzfDM4Ni42MnwyMjMuOTc=)' />
<polyline points='269.30,386.62 269.30,223.97 ' style='stroke-width: 0.16; stroke-linecap: butt;' clip-path='url(#cpNDMuOTd8MjgwLjAzfDM4Ni42MnwyMjMuOTc=)' />
<circle cx='54.70' cy='241.08' r='2.49' style='stroke-width: 0.71; stroke: #006400; stroke-opacity: 0.40; fill: #006400; fill-opacity: 0.40;' clip-path='url(#cpNDMuOTd8MjgwLjAzfDM4Ni42MnwyMjMuOTc=)' />
<circle cx='54.70' cy='343.36' r='2.49' style='stroke-width: 0.71; stroke: #006400; stroke-opacity: 0.40; fill: #006400; fill-opacity: 0.40;' clip-path='url(#cpNDMuOTd8MjgwLjAzfDM4Ni42MnwyMjMuOTc=)' />
<circle cx='54.70' cy='260.19' r='2.49' style='stroke-width: 0.71; stroke: #006400; stroke-opacity: 0.40; fill: #006400; fill-opacity: 0.40;' clip-path='url(#cpNDMuOTd8MjgwLjAzfDM4Ni42MnwyMjMuOTc=)' />
<circle cx='54.70' cy='245.93' r='2.49' style='stroke-width: 0.71; stroke: #006400; stroke-opacity: 0.40; fill: #006400; fill-opacity: 0.40;' clip-path='url(#cpNDMuOTd8MjgwLjAzfDM4Ni42MnwyMjMuOTc=)' />
<circle cx='54.70' cy='312.34' r='2.49' style='stroke-width: 0.71; stroke: #006400; stroke-opacity: 0.40; fill: #006400; fill-opacity: 0.40;' clip-path='url(#cpNDMuOTd8MjgwLjAzfDM4Ni42MnwyMjMuOTc=)' />
<circle cx='54.70' cy='379.23' r='2.49' style='stroke-width: 0.71; stroke: #006400; stroke-opacity: 0.40; fill: #006400; fill-opacity: 0.40;' clip-path='url(#cpNDMuOTd8MjgwLjAzfDM4Ni42MnwyMjMuOTc=)' />
<circle cx='54.70' cy='286.88' r='2.49' style='stroke-width: 0.71; stroke: #006400; stroke-opacity: 0.40; fill: #006400; fill-opacity: 0.40;' clip-path='url(#cpNDMuOTd8MjgwLjAzfDM4Ni42MnwyMjMuOTc=)' />
<circle cx='54.70' cy='342.48' r='2.49' style='stroke-width: 0.71; stroke: #006400; stroke-opacity: 0.40; fill: #006400; fill-opacity: 0.40;' clip-path='url(#cpNDMuOTd8MjgwLjAzfDM4Ni42MnwyMjMuOTc=)' />
<circle cx='54.70' cy='252.57' r='2.49' style='stroke-width: 0.71; stroke: #006400; stroke-opacity: 0.40; fill: #006400; fill-opacity: 0.40;' clip-path='url(#cpNDMuOTd8MjgwLjAzfDM4Ni42MnwyMjMuOTc=)' />
<circle cx='54.70' cy='280.93' r='2.49' style='stroke-width: 0.71; stroke: #006400; stroke-opacity: 0.40; fill: #006400; fill-opacity: 0.40;' clip-path='url(#cpNDMuOTd8MjgwLjAzfDM4Ni42MnwyMjMuOTc=)' />
<circle cx='54.70' cy='264.77' r='2.49' style='stroke-width: 0.71; stroke: #006400; stroke-opacity: 0.40; fill: #006400; fill-opacity: 0.40;' clip-path='url(#cpNDMuOTd8MjgwLjAzfDM4Ni42MnwyMjMuOTc=)' />
<circle cx='54.70' cy='231.36' r='2.49' style='stroke-width: 0.71; stroke: #006400; stroke-opacity: 0.40; fill: #006400; fill-opacity: 0.40;' clip-path='url(#cpNDMuOTd8MjgwLjAzfDM4Ni42MnwyMjMuOTc=)' />
<circle cx='54.70' cy='264.79' r='2.49' style='stroke-width: 0.71; stroke: #006400; stroke-opacity: 0.40; fill: #006400; fill-opacity: 0.40;' clip-path='url(#cpNDMuOTd8MjgwLjAzfDM4Ni42MnwyMjMuOTc=)' />
<circle cx='54.70' cy='285.25' r='2.49' style='stroke-width: 0.71; stroke: #006400; stroke-opacity: 0.40; fill: #006400; fill-opacity: 0.40;' clip-path='url(#cpNDMuOTd8MjgwLjAzfDM4Ni42MnwyMjMuOTc=)' />
<circle cx='54.70' cy='347.88' r='2.49' style='stroke-width: 0.71; stroke: #006400; stroke-opacity: 0.40; fill: #006400; fill-opacity: 0.40;' clip-path='url(#cpNDMuOTd8MjgwLjAzfDM4Ni42MnwyMjMuOTc=)' />
<circle cx='54.70' cy='287.31' r='2.49' style='stroke-width: 0.71; stroke: #006400; stroke-opacity: 0.40; fill: #006400; fill-opacity: 0.40;' clip-path='url(#cpNDMuOTd8MjgwLjAzfDM4Ni42MnwyMjMuOTc=)' />
<circle cx='54.70' cy='284.81' r='2.49' style='stroke-width: 0.71; stroke: #006400; stroke-opacity: 0.40; fill: #006400; fill-opacity: 0.40;' clip-path='url(#cpNDMuOTd8MjgwLjAzfDM4Ni42MnwyMjMuOTc=)' />
<circle cx='54.70' cy='278.99' r='2.49' style='stroke-width: 0.71; stroke: #006400; stroke-opacity: 0.40; fill: #006400; fill-opacity: 0.40;' clip-path='url(#cpNDMuOTd8MjgwLjAzfDM4Ni42MnwyMjMuOTc=)' />
<circle cx='54.70' cy='299.29' r='2.49' style='stroke-width: 0.71; stroke: #006400; stroke-opacity: 0.40; fill: #006400; fill-opacity: 0.40;' clip-path='url(#cpNDMuOTd8MjgwLjAzfDM4Ni42MnwyMjMuOTc=)' />
<circle cx='162.00' cy='348.78' r='2.49' style='stroke-width: 0.71; stroke: #006400; stroke-opacity: 0.40; fill: #006400; fill-opacity: 0.40;' clip-path='url(#cpNDMuOTd8MjgwLjAzfDM4Ni42MnwyMjMuOTc=)' />
<circle cx='162.00' cy='246.48' r='2.49' style='stroke-width: 0.71; stroke: #006400; stroke-opacity: 0.40; fill: #006400; fill-opacity: 0.40;' clip-path='url(#cpNDMuOTd8MjgwLjAzfDM4Ni42MnwyMjMuOTc=)' />
<circle cx='162.00' cy='291.69' r='2.49' style='stroke-width: 0.71; stroke: #006400; stroke-opacity: 0.40; fill: #006400; fill-opacity: 0.40;' clip-path='url(#cpNDMuOTd8MjgwLjAzfDM4Ni42MnwyMjMuOTc=)' />
<circle cx='162.00' cy='334.08' r='2.49' style='stroke-width: 0.71; stroke: #006400; stroke-opacity: 0.40; fill: #006400; fill-opacity: 0.40;' clip-path='url(#cpNDMuOTd8MjgwLjAzfDM4Ni42MnwyMjMuOTc=)' />
<circle cx='162.00' cy='332.50' r='2.49' style='stroke-width: 0.71; stroke: #006400; stroke-opacity: 0.40; fill: #006400; fill-opacity: 0.40;' clip-path='url(#cpNDMuOTd8MjgwLjAzfDM4Ni42MnwyMjMuOTc=)' />
<circle cx='162.00' cy='270.58' r='2.49' style='stroke-width: 0.71; stroke: #006400; stroke-opacity: 0.40; fill: #006400; fill-opacity: 0.40;' clip-path='url(#cpNDMuOTd8MjgwLjAzfDM4Ni42MnwyMjMuOTc=)' />
<circle cx='162.00' cy='299.60' r='2.49' style='stroke-width: 0.71; stroke: #006400; stroke-opacity: 0.40; fill: #006400; fill-opacity: 0.40;' clip-path='url(#cpNDMuOTd8MjgwLjAzfDM4Ni42MnwyMjMuOTc=)' />
<circle cx='162.00' cy='273.02' r='2.49' style='stroke-width: 0.71; stroke: #006400; stroke-opacity: 0.40; fill: #006400; fill-opacity: 0.40;' clip-path='url(#cpNDMuOTd8MjgwLjAzfDM4Ni42MnwyMjMuOTc=)' />
<circle cx='162.00' cy='293.93' r='2.49' style='stroke-width: 0.71; stroke: #006400; stroke-opacity: 0.40; fill: #006400; fill-opacity: 0.40;' clip-path='url(#cpNDMuOTd8MjgwLjAzfDM4Ni42MnwyMjMuOTc=)' />
<circle cx='162.00' cy='300.94' r='2.49' style='stroke-width: 0.71; stroke: #006400; stroke-opacity: 0.40; fill: #006400; fill-opacity: 0.40;' clip-path='url(#cpNDMuOTd8MjgwLjAzfDM4Ni42MnwyMjMuOTc=)' />
<circle cx='162.00' cy='274.00' r='2.49' style='stroke-width: 0.71; stroke: #006400; stroke-opacity: 0.40; fill: #006400; fill-opacity: 0.40;' clip-path='url(#cpNDMuOTd8MjgwLjAzfDM4Ni42MnwyMjMuOTc=)' />
<circle cx='162.00' cy='328.30' r='2.49' style='stroke-width: 0.71; stroke: #006400; stroke-opacity: 0.40; fill: #006400; fill-opacity: 0.40;' clip-path='url(#cpNDMuOTd8MjgwLjAzfDM4Ni42MnwyMjMuOTc=)' />
<circle cx='162.00' cy='318.73' r='2.49' style='stroke-width: 0.71; stroke: #006400; stroke-opacity: 0.40; fill: #006400; fill-opacity: 0.40;' clip-path='url(#cpNDMuOTd8MjgwLjAzfDM4Ni42MnwyMjMuOTc=)' />
<circle cx='162.00' cy='335.31' r='2.49' style='stroke-width: 0.71; stroke: #006400; stroke-opacity: 0.40; fill: #006400; fill-opacity: 0.40;' clip-path='url(#cpNDMuOTd8MjgwLjAzfDM4Ni42MnwyMjMuOTc=)' />
<circle cx='162.00' cy='350.93' r='2.49' style='stroke-width: 0.71; stroke: #006400; stroke-opacity: 0.40; fill: #006400; fill-opacity: 0.40;' clip-path='url(#cpNDMuOTd8MjgwLjAzfDM4Ni42MnwyMjMuOTc=)' />
<circle cx='162.00' cy='321.12' r='2.49' style='stroke-width: 0.71; stroke: #006400; stroke-opacity: 0.40; fill: #006400; fill-opacity: 0.40;' clip-path='url(#cpNDMuOTd8MjgwLjAzfDM4Ni42MnwyMjMuOTc=)' />
<circle cx='162.00' cy='346.48' r='2.49' style='stroke-width: 0.71; stroke: #006400; stroke-opacity: 0.40; fill: #006400; fill-opacity: 0.40;' clip-path='url(#cpNDMuOTd8MjgwLjAzfDM4Ni42MnwyMjMuOTc=)' />
<circle cx='162.00' cy='371.29' r='2.49' style='stroke-width: 0.71; stroke: #006400; stroke-opacity: 0.40; fill: #006400; fill-opacity: 0.40;' clip-path='url(#cpNDMuOTd8MjgwLjAzfDM4Ni42MnwyMjMuOTc=)' />
<circle cx='162.00' cy='311.87' r='2.49' style='stroke-width: 0.71; stroke: #006400; stroke-opacity: 0.40; fill: #006400; fill-opacity: 0.40;' clip-path='url(#cpNDMuOTd8MjgwLjAzfDM4Ni42MnwyMjMuOTc=)' />
<circle cx='269.30' cy='276.51' r='2.49' style='stroke-width: 0.71; stroke: #006400; stroke-opacity: 0.40; fill: #006400; fill-opacity: 0.40;' clip-path='url(#cpNDMuOTd8MjgwLjAzfDM4Ni42MnwyMjMuOTc=)' />
<circle cx='269.30' cy='299.84' r='2.49' style='stroke-width: 0.71; stroke: #006400; stroke-opacity: 0.40; fill: #006400; fill-opacity: 0.40;' clip-path='url(#cpNDMuOTd8MjgwLjAzfDM4Ni42MnwyMjMuOTc=)' />
<circle cx='269.30' cy='294.73' r='2.49' style='stroke-width: 0.71; stroke: #006400; stroke-opacity: 0.40; fill: #006400; fill-opacity: 0.40;' clip-path='url(#cpNDMuOTd8MjgwLjAzfDM4Ni42MnwyMjMuOTc=)' />
<circle cx='269.30' cy='284.08' r='2.49' style='stroke-width: 0.71; stroke: #006400; stroke-opacity: 0.40; fill: #006400; fill-opacity: 0.40;' clip-path='url(#cpNDMuOTd8MjgwLjAzfDM4Ni42MnwyMjMuOTc=)' />
<circle cx='269.30' cy='279.67' r='2.49' style='stroke-width: 0.71; stroke: #006400; stroke-opacity: 0.40; fill: #006400; fill-opacity: 0.40;' clip-path='url(#cpNDMuOTd8MjgwLjAzfDM4Ni42MnwyMjMuOTc=)' />
<circle cx='269.30' cy='328.40' r='2.49' style='stroke-width: 0.71; stroke: #006400; stroke-opacity: 0.40; fill: #006400; fill-opacity: 0.40;' clip-path='url(#cpNDMuOTd8MjgwLjAzfDM4Ni42MnwyMjMuOTc=)' />
<circle cx='269.30' cy='303.90' r='2.49' style='stroke-width: 0.71; stroke: #006400; stroke-opacity: 0.40; fill: #006400; fill-opacity: 0.40;' clip-path='url(#cpNDMuOTd8MjgwLjAzfDM4Ni42MnwyMjMuOTc=)' />
<circle cx='269.30' cy='312.21' r='2.49' style='stroke-width: 0.71; stroke: #006400; stroke-opacity: 0.40; fill: #006400; fill-opacity: 0.40;' clip-path='url(#cpNDMuOTd8MjgwLjAzfDM4Ni42MnwyMjMuOTc=)' />
<circle cx='269.30' cy='284.73' r='2.49' style='stroke-width: 0.71; stroke: #006400; stroke-opacity: 0.40; fill: #006400; fill-opacity: 0.40;' clip-path='url(#cpNDMuOTd8MjgwLjAzfDM4Ni42MnwyMjMuOTc=)' />
<circle cx='269.30' cy='330.58' r='2.49' style='stroke-width: 0.71; stroke: #006400; stroke-opacity: 0.40; fill: #006400; fill-opacity: 0.40;' clip-path='url(#cpNDMuOTd8MjgwLjAzfDM4Ni42MnwyMjMuOTc=)' />
<circle cx='269.30' cy='337.97' r='2.49' style='stroke-width: 0.71; stroke: #006400; stroke-opacity: 0.40; fill: #006400; fill-opacity: 0.40;' clip-path='url(#cpNDMuOTd8MjgwLjAzfDM4Ni42MnwyMjMuOTc=)' />
<circle cx='269.30' cy='280.96' r='2.49' style='stroke-width: 0.71; stroke: #006400; stroke-opacity: 0.40; fill: #006400; fill-opacity: 0.40;' clip-path='url(#cpNDMuOTd8MjgwLjAzfDM4Ni42MnwyMjMuOTc=)' />
<circle cx='269.30' cy='297.84' r='2.49' style='stroke-width: 0.71; stroke: #006400; stroke-opacity: 0.40; fill: #006400; fill-opacity: 0.40;' clip-path='url(#cpNDMuOTd8MjgwLjAzfDM4Ni42MnwyMjMuOTc=)' />
<circle cx='269.30' cy='268.88' r='2.49' style='stroke-width: 0.71; stroke: #006400; stroke-opacity: 0.40; fill: #006400; fill-opacity: 0.40;' clip-path='url(#cpNDMuOTd8MjgwLjAzfDM4Ni42MnwyMjMuOTc=)' />
<circle cx='269.30' cy='257.70' r='2.49' style='stroke-width: 0.71; stroke: #006400; stroke-opacity: 0.40; fill: #006400; fill-opacity: 0.40;' clip-path='url(#cpNDMuOTd8MjgwLjAzfDM4Ni42MnwyMjMuOTc=)' />
<circle cx='269.30' cy='278.69' r='2.49' style='stroke-width: 0.71; stroke: #006400; stroke-opacity: 0.40; fill: #006400; fill-opacity: 0.40;' clip-path='url(#cpNDMuOTd8MjgwLjAzfDM4Ni42MnwyMjMuOTc=)' />
<circle cx='269.30' cy='260.38' r='2.49' style='stroke-width: 0.71; stroke: #006400; stroke-opacity: 0.40; fill: #006400; fill-opacity: 0.40;' clip-path='url(#cpNDMuOTd8MjgwLjAzfDM4Ni42MnwyMjMuOTc=)' />
<circle cx='269.30' cy='247.49' r='2.49' style='stroke-width: 0.71; stroke: #006400; stroke-opacity: 0.40; fill: #006400; fill-opacity: 0.40;' clip-path='url(#cpNDMuOTd8MjgwLjAzfDM4Ni42MnwyMjMuOTc=)' />
<circle cx='269.30' cy='264.90' r='2.49' style='stroke-width: 0.71; stroke: #006400; stroke-opacity: 0.40; fill: #006400; fill-opacity: 0.40;' clip-path='url(#cpNDMuOTd8MjgwLjAzfDM4Ni42MnwyMjMuOTc=)' />
<rect x='43.97' y='223.97' width='236.06' height='162.65' style='stroke-width: 1.55;' clip-path='url(#cpNDMuOTd8MjgwLjAzfDM4Ni42MnwyMjMuOTc=)' />
<defs>
  <clipPath id='cpMC4wMHw1NzYuMDB8NDMyLjAwfDAuMDA='>
    <rect x='0.00' y='0.00' width='576.00' height='432.00' />
  </clipPath>
</defs>
<g clip-path='url(#cpMC4wMHw1NzYuMDB8NDMyLjAwfDAuMDA=)'><text x='26.51' y='348.50' style='font-size: 12.80px; font-family: Georgia;' textLength='10.29px' lengthAdjust='spacingAndGlyphs'>-1</text></g>
<g clip-path='url(#cpMC4wMHw1NzYuMDB8NDMyLjAwfDAuMDA=)'><text x='28.94' y='301.43' style='font-size: 12.80px; font-family: Georgia;' textLength='7.86px' lengthAdjust='spacingAndGlyphs'>0</text></g>
<g clip-path='url(#cpMC4wMHw1NzYuMDB8NDMyLjAwfDAuMDA=)'><text x='31.30' y='254.36' style='font-size: 12.80px; font-family: Georgia;' textLength='5.50px' lengthAdjust='spacingAndGlyphs'>1</text></g>
<polyline points='39.99,344.06 43.97,344.06 ' style='stroke-width: 0.78; stroke-linecap: butt;' clip-path='url(#cpMC4wMHw1NzYuMDB8NDMyLjAwfDAuMDA=)' />
<polyline points='39.99,296.99 43.97,296.99 ' style='stroke-width: 0.78; stroke-linecap: butt;' clip-path='url(#cpMC4wMHw1NzYuMDB8NDMyLjAwfDAuMDA=)' />
<polyline points='39.99,249.92 43.97,249.92 ' style='stroke-width: 0.78; stroke-linecap: butt;' clip-path='url(#cpMC4wMHw1NzYuMDB8NDMyLjAwfDAuMDA=)' />
<polyline points='54.70,390.61 54.70,386.62 ' style='stroke-width: 0.78; stroke-linecap: butt;' clip-path='url(#cpMC4wMHw1NzYuMDB8NDMyLjAwfDAuMDA=)' />
<polyline points='108.35,390.61 108.35,386.62 ' style='stroke-width: 0.78; stroke-linecap: butt;' clip-path='url(#cpMC4wMHw1NzYuMDB8NDMyLjAwfDAuMDA=)' />
<polyline points='162.00,390.61 162.00,386.62 ' style='stroke-width: 0.78; stroke-linecap: butt;' clip-path='url(#cpMC4wMHw1NzYuMDB8NDMyLjAwfDAuMDA=)' />
<polyline points='215.65,390.61 215.65,386.62 ' style='stroke-width: 0.78; stroke-linecap: butt;' clip-path='url(#cpMC4wMHw1NzYuMDB8NDMyLjAwfDAuMDA=)' />
<polyline points='269.30,390.61 269.30,386.62 ' style='stroke-width: 0.78; stroke-linecap: butt;' clip-path='url(#cpMC4wMHw1NzYuMDB8NDMyLjAwfDAuMDA=)' />
<g clip-path='url(#cpMC4wMHw1NzYuMDB8NDMyLjAwfDAuMDA=)'><text x='45.67' y='402.67' style='font-size: 12.80px; font-family: Georgia;' textLength='18.07px' lengthAdjust='spacingAndGlyphs'>5.0</text></g>
<g clip-path='url(#cpMC4wMHw1NzYuMDB8NDMyLjAwfDAuMDA=)'><text x='100.03' y='402.67' style='font-size: 12.80px; font-family: Georgia;' textLength='16.64px' lengthAdjust='spacingAndGlyphs'>7.5</text></g>
<g clip-path='url(#cpMC4wMHw1NzYuMDB8NDMyLjAwfDAuMDA=)'><text x='149.67' y='402.67' style='font-size: 12.80px; font-family: Georgia;' textLength='24.66px' lengthAdjust='spacingAndGlyphs'>10.0</text></g>
<g clip-path='url(#cpMC4wMHw1NzYuMDB8NDMyLjAwfDAuMDA=)'><text x='204.22' y='402.67' style='font-size: 12.80px; font-family: Georgia;' textLength='22.86px' lengthAdjust='spacingAndGlyphs'>12.5</text></g>
<g clip-path='url(#cpMC4wMHw1NzYuMDB8NDMyLjAwfDAuMDA=)'><text x='257.52' y='402.67' style='font-size: 12.80px; font-family: Georgia;' textLength='23.57px' lengthAdjust='spacingAndGlyphs'>15.0</text></g>
<g clip-path='url(#cpMC4wMHw1NzYuMDB8NDMyLjAwfDAuMDA=)'><text x='145.70' y='420.56' style='font-size: 16.00px; font-family: Georgia;' textLength='32.61px' lengthAdjust='spacingAndGlyphs'>conc</text></g>
<g clip-path='url(#cpMC4wMHw1NzYuMDB8NDMyLjAwfDAuMDA=)'><text transform='translate(19.06,332.08) rotate(-90)' style='font-size: 16.00px; font-family: Georgia;' textLength='53.57px' lengthAdjust='spacingAndGlyphs'>.scresid</text></g>
<defs>
  <clipPath id='cpMjg4LjAwfDU3Ni4wMHw0MzIuMDB8MjE2LjAw'>
    <rect x='288.00' y='216.00' width='288.00' height='216.00' />
  </clipPath>
</defs>
<rect x='288.00' y='216.00' width='288.00' height='216.00' style='stroke-width: 1.55; stroke: #BFC4BB; fill: #BFC4BB;' clip-path='url(#cpMjg4LjAwfDU3Ni4wMHw0MzIuMDB8MjE2LjAw)' />
<defs>
  <clipPath id='cpMC4wMHw1NzYuMDB8NDMyLjAwfDAuMDA='>
    <rect x='0.00' y='0.00' width='576.00' height='432.00' />
  </clipPath>
</defs>
<defs>
  <clipPath id='cpMzMxLjk3fDU2OC4wM3wzODYuNjJ8MjIzLjk3'>
    <rect x='331.97' y='223.97' width='236.06' height='162.65' />
  </clipPath>
</defs>
<rect x='331.97' y='223.97' width='236.06' height='162.65' style='stroke-width: 1.55; stroke: none; fill: #BFC4BB;' clip-path='url(#cpMzMxLjk3fDU2OC4wM3wzODYuNjJ8MjIzLjk3)' />
<polyline points='331.97,367.60 568.03,367.60 ' style='stroke-width: 0.078; stroke-linecap: butt;' clip-path='url(#cpMzMxLjk3fDU2OC4wM3wzODYuNjJ8MjIzLjk3)' />
<polyline points='331.97,320.53 568.03,320.53 ' style='stroke-width: 0.078; stroke-linecap: butt;' clip-path='url(#cpMzMxLjk3fDU2OC4wM3wzODYuNjJ8MjIzLjk3)' />
<polyline points='331.97,273.46 568.03,273.46 ' style='stroke-width: 0.078; stroke-linecap: butt;' clip-path='url(#cpMzMxLjk3fDU2OC4wM3wzODYuNjJ8MjIzLjk3)' />
<polyline points='331.97,226.39 568.03,226.39 ' style='stroke-width: 0.078; stroke-linecap: butt;' clip-path='url(#cpMzMxLjk3fDU2OC4wM3wzODYuNjJ8MjIzLjk3)' />
<polyline points='331.97,344.06 568.03,344.06 ' style='stroke-width: 0.16; stroke-linecap: butt;' clip-path='url(#cpMzMxLjk3fDU2OC4wM3wzODYuNjJ8MjIzLjk3)' />
<polyline points='331.97,296.99 568.03,296.99 ' style='stroke-width: 0.16; stroke-linecap: butt;' clip-path='url(#cpMzMxLjk3fDU2OC4wM3wzODYuNjJ8MjIzLjk3)' />
<polyline points='331.97,249.92 568.03,249.92 ' style='stroke-width: 0.16; stroke-linecap: butt;' clip-path='url(#cpMzMxLjk3fDU2OC4wM3wzODYuNjJ8MjIzLjk3)' />
<polyline points='396.35,386.62 396.35,223.97 ' style='stroke-width: 0.16; stroke-linecap: butt;' clip-path='url(#cpMzMxLjk3fDU2OC4wM3wzODYuNjJ8MjIzLjk3)' />
<polyline points='503.65,386.62 503.65,223.97 ' style='stroke-width: 0.16; stroke-linecap: butt;' clip-path='url(#cpMzMxLjk3fDU2OC4wM3wzODYuNjJ8MjIzLjk3)' />
<line x1='396.35' y1='274.76' x2='396.35' y2='241.08' style='stroke-width: 1.07; stroke: #333333; stroke-linecap: butt;' clip-path='url(#cpMzMxLjk3fDU2OC4wM3wzODYuNjJ8MjIzLjk3)' />
<line x1='396.35' y1='320.37' x2='396.35' y2='379.23' style='stroke-width: 1.07; stroke: #333333; stroke-linecap: butt;' clip-path='url(#cpMzMxLjk3fDU2OC4wM3wzODYuNjJ8MjIzLjk3)' />
<polygon points='356.12,274.76 356.12,320.37 436.59,320.37 436.59,274.76 356.12,274.76 ' style='stroke-width: 1.07; stroke: #333333; fill: #FFFFFF;' clip-path='url(#cpMzMxLjk3fDU2OC4wM3wzODYuNjJ8MjIzLjk3)' />
<line x1='356.12' y1='293.93' x2='436.59' y2='293.93' style='stroke-width: 2.13; stroke: #333333; stroke-linecap: butt;' clip-path='url(#cpMzMxLjk3fDU2OC4wM3wzODYuNjJ8MjIzLjk3)' />
<line x1='503.65' y1='270.16' x2='503.65' y2='231.36' style='stroke-width: 1.07; stroke: #333333; stroke-linecap: butt;' clip-path='url(#cpMzMxLjk3fDU2OC4wM3wzODYuNjJ8MjIzLjk3)' />
<line x1='503.65' y1='326.50' x2='503.65' y2='371.29' style='stroke-width: 1.07; stroke: #333333; stroke-linecap: butt;' clip-path='url(#cpMzMxLjk3fDU2OC4wM3wzODYuNjJ8MjIzLjk3)' />
<polygon points='463.41,270.16 463.41,326.50 543.89,326.50 543.89,270.16 463.41,270.16 ' style='stroke-width: 1.07; stroke: #333333; fill: #FFFFFF;' clip-path='url(#cpMzMxLjk3fDU2OC4wM3wzODYuNjJ8MjIzLjk3)' />
<line x1='463.41' y1='286.28' x2='543.89' y2='286.28' style='stroke-width: 2.13; stroke: #333333; stroke-linecap: butt;' clip-path='url(#cpMzMxLjk3fDU2OC4wM3wzODYuNjJ8MjIzLjk3)' />
<rect x='331.97' y='223.97' width='236.06' height='162.65' style='stroke-width: 1.55;' clip-path='url(#cpMzMxLjk3fDU2OC4wM3wzODYuNjJ8MjIzLjk3)' />
<defs>
  <clipPath id='cpMC4wMHw1NzYuMDB8NDMyLjAwfDAuMDA='>
    <rect x='0.00' y='0.00' width='576.00' height='432.00' />
  </clipPath>
</defs>
<g clip-path='url(#cpMC4wMHw1NzYuMDB8NDMyLjAwfDAuMDA=)'><text x='314.51' y='348.50' style='font-size: 12.80px; font-family: Georgia;' textLength='10.29px' lengthAdjust='spacingAndGlyphs'>-1</text></g>
<g clip-path='url(#cpMC4wMHw1NzYuMDB8NDMyLjAwfDAuMDA=)'><text x='316.94' y='301.43' style='font-size: 12.80px; font-family: Georgia;' textLength='7.86px' lengthAdjust='spacingAndGlyphs'>0</text></g>
<g clip-path='url(#cpMC4wMHw1NzYuMDB8NDMyLjAwfDAuMDA=)'><text x='319.30' y='254.36' style='font-size: 12.80px; font-family: Georgia;' textLength='5.50px' lengthAdjust='spacingAndGlyphs'>1</text></g>
<polyline points='327.99,344.06 331.97,344.06 ' style='stroke-width: 0.78; stroke-linecap: butt;' clip-path='url(#cpMC4wMHw1NzYuMDB8NDMyLjAwfDAuMDA=)' />
<polyline points='327.99,296.99 331.97,296.99 ' style='stroke-width: 0.78; stroke-linecap: butt;' clip-path='url(#cpMC4wMHw1NzYuMDB8NDMyLjAwfDAuMDA=)' />
<polyline points='327.99,249.92 331.97,249.92 ' style='stroke-width: 0.78; stroke-linecap: butt;' clip-path='url(#cpMC4wMHw1NzYuMDB8NDMyLjAwfDAuMDA=)' />
<polyline points='396.35,390.61 396.35,386.62 ' style='stroke-width: 0.78; stroke-linecap: butt;' clip-path='url(#cpMC4wMHw1NzYuMDB8NDMyLjAwfDAuMDA=)' />
<polyline points='503.65,390.61 503.65,386.62 ' style='stroke-width: 0.78; stroke-linecap: butt;' clip-path='url(#cpMC4wMHw1NzYuMDB8NDMyLjAwfDAuMDA=)' />
<g clip-path='url(#cpMC4wMHw1NzYuMDB8NDMyLjAwfDAuMDA=)'><text x='386.73' y='402.67' style='font-size: 12.80px; font-family: Georgia;' textLength='19.24px' lengthAdjust='spacingAndGlyphs'>Gly</text></g>
<g clip-path='url(#cpMC4wMHw1NzYuMDB8NDMyLjAwfDAuMDA=)'><text x='493.70' y='402.67' style='font-size: 12.80px; font-family: Georgia;' textLength='19.89px' lengthAdjust='spacingAndGlyphs'>Buf</text></g>
<g clip-path='url(#cpMC4wMHw1NzYuMDB8NDMyLjAwfDAuMDA=)'><text x='416.60' y='420.56' style='font-size: 16.00px; font-family: Georgia;' textLength='66.81px' lengthAdjust='spacingAndGlyphs'>extragent</text></g>
<g clip-path='url(#cpMC4wMHw1NzYuMDB8NDMyLjAwfDAuMDA=)'><text transform='translate(307.06,332.08) rotate(-90)' style='font-size: 16.00px; font-family: Georgia;' textLength='53.57px' lengthAdjust='spacingAndGlyphs'>.scresid</text></g>
</svg>
