<?xml version='1.0' encoding='UTF-8' ?>
<svg xmlns='http://www.w3.org/2000/svg' xmlns:xlink='http://www.w3.org/1999/xlink' viewBox='0 0 576.00 432.00'>
<defs>
  <style type='text/css'><![CDATA[
    line, polyline, polygon, path, rect, circle {
      fill: none;
      stroke: #000000;
      stroke-linecap: round;
      stroke-linejoin: round;
      stroke-miterlimit: 10.00;
    }
  ]]></style>
</defs>
<rect width='100%' height='100%' style='stroke: none; fill: #FFFFFF;'/>
<defs>
  <clipPath id='cpMC4wMHw1NzYuMDB8MjE2LjAwfDAuMDA='>
    <rect x='0.00' y='0.00' width='576.00' height='216.00' />
  </clipPath>
</defs>
<rect x='0.00' y='0.00' width='576.00' height='216.00' style='stroke-width: 1.55; stroke: #BFC4BB; fill: #BFC4BB;' clip-path='url(#cpMC4wMHw1NzYuMDB8MjE2LjAwfDAuMDA=)' />
<defs>
  <clipPath id='cpMC4wMHw1NzYuMDB8NDMyLjAwfDAuMDA='>
    <rect x='0.00' y='0.00' width='576.00' height='432.00' />
  </clipPath>
</defs>
<defs>
  <clipPath id='cpNDMuOTd8NTY4LjAzfDE3MC42Mnw3Ljk3'>
    <rect x='43.97' y='7.97' width='524.06' height='162.65' />
  </clipPath>
</defs>
<rect x='43.97' y='7.97' width='524.06' height='162.65' style='stroke-width: 1.55; stroke: none; fill: #BFC4BB;' clip-path='url(#cpNDMuOTd8NTY4LjAzfDE3MC42Mnw3Ljk3)' />
<polyline points='43.97,155.56 568.03,155.56 ' style='stroke-width: 0.078; stroke-linecap: butt;' clip-path='url(#cpNDMuOTd8NTY4LjAzfDE3MC42Mnw3Ljk3)' />
<polyline points='43.97,108.81 568.03,108.81 ' style='stroke-width: 0.078; stroke-linecap: butt;' clip-path='url(#cpNDMuOTd8NTY4LjAzfDE3MC42Mnw3Ljk3)' />
<polyline points='43.97,62.06 568.03,62.06 ' style='stroke-width: 0.078; stroke-linecap: butt;' clip-path='url(#cpNDMuOTd8NTY4LjAzfDE3MC42Mnw3Ljk3)' />
<polyline points='43.97,15.30 568.03,15.30 ' style='stroke-width: 0.078; stroke-linecap: butt;' clip-path='url(#cpNDMuOTd8NTY4LjAzfDE3MC42Mnw3Ljk3)' />
<polyline points='108.22,170.62 108.22,7.97 ' style='stroke-width: 0.078; stroke-linecap: butt;' clip-path='url(#cpNDMuOTd8NTY4LjAzfDE3MC42Mnw3Ljk3)' />
<polyline points='227.11,170.62 227.11,7.97 ' style='stroke-width: 0.078; stroke-linecap: butt;' clip-path='url(#cpNDMuOTd8NTY4LjAzfDE3MC42Mnw3Ljk3)' />
<polyline points='345.99,170.62 345.99,7.97 ' style='stroke-width: 0.078; stroke-linecap: butt;' clip-path='url(#cpNDMuOTd8NTY4LjAzfDE3MC42Mnw3Ljk3)' />
<polyline points='464.87,170.62 464.87,7.97 ' style='stroke-width: 0.078; stroke-linecap: butt;' clip-path='url(#cpNDMuOTd8NTY4LjAzfDE3MC42Mnw3Ljk3)' />
<polyline points='43.97,132.19 568.03,132.19 ' style='stroke-width: 0.16; stroke-linecap: butt;' clip-path='url(#cpNDMuOTd8NTY4LjAzfDE3MC42Mnw3Ljk3)' />
<polyline points='43.97,85.43 568.03,85.43 ' style='stroke-width: 0.16; stroke-linecap: butt;' clip-path='url(#cpNDMuOTd8NTY4LjAzfDE3MC42Mnw3Ljk3)' />
<polyline points='43.97,38.68 568.03,38.68 ' style='stroke-width: 0.16; stroke-linecap: butt;' clip-path='url(#cpNDMuOTd8NTY4LjAzfDE3MC42Mnw3Ljk3)' />
<polyline points='48.78,170.62 48.78,7.97 ' style='stroke-width: 0.16; stroke-linecap: butt;' clip-path='url(#cpNDMuOTd8NTY4LjAzfDE3MC42Mnw3Ljk3)' />
<polyline points='167.66,170.62 167.66,7.97 ' style='stroke-width: 0.16; stroke-linecap: butt;' clip-path='url(#cpNDMuOTd8NTY4LjAzfDE3MC42Mnw3Ljk3)' />
<polyline points='286.55,170.62 286.55,7.97 ' style='stroke-width: 0.16; stroke-linecap: butt;' clip-path='url(#cpNDMuOTd8NTY4LjAzfDE3MC42Mnw3Ljk3)' />
<polyline points='405.43,170.62 405.43,7.97 ' style='stroke-width: 0.16; stroke-linecap: butt;' clip-path='url(#cpNDMuOTd8NTY4LjAzfDE3MC42Mnw3Ljk3)' />
<polyline points='524.32,170.62 524.32,7.97 ' style='stroke-width: 0.16; stroke-linecap: butt;' clip-path='url(#cpNDMuOTd8NTY4LjAzfDE3MC42Mnw3Ljk3)' />
<line x1='43.97' y1='85.43' x2='568.03' y2='85.43' style='stroke-width: 1.07; stroke-linecap: butt;' clip-path='url(#cpNDMuOTd8NTY4LjAzfDE3MC42Mnw3Ljk3)' />
<circle cx='169.87' cy='24.67' r='1.95' style='stroke-width: 0.71; fill: #000000;' clip-path='url(#cpNDMuOTd8NTY4LjAzfDE3MC42Mnw3Ljk3)' />
<circle cx='202.98' cy='153.28' r='1.95' style='stroke-width: 0.71; fill: #000000;' clip-path='url(#cpNDMuOTd8NTY4LjAzfDE3MC42Mnw3Ljk3)' />
<circle cx='191.22' cy='48.44' r='1.95' style='stroke-width: 0.71; fill: #000000;' clip-path='url(#cpNDMuOTd8NTY4LjAzfDE3MC42Mnw3Ljk3)' />
<circle cx='170.27' cy='27.73' r='1.95' style='stroke-width: 0.71; fill: #000000;' clip-path='url(#cpNDMuOTd8NTY4LjAzfDE3MC42Mnw3Ljk3)' />
<circle cx='158.61' cy='107.43' r='1.95' style='stroke-width: 0.71; fill: #000000;' clip-path='url(#cpNDMuOTd8NTY4LjAzfDE3MC42Mnw3Ljk3)' />
<circle cx='115.63' cy='155.01' r='1.95' style='stroke-width: 0.71; fill: #000000;' clip-path='url(#cpNDMuOTd8NTY4LjAzfDE3MC42Mnw3Ljk3)' />
<circle cx='158.13' cy='65.96' r='1.95' style='stroke-width: 0.71; fill: #000000;' clip-path='url(#cpNDMuOTd8NTY4LjAzfDE3MC42Mnw3Ljk3)' />
<circle cx='153.50' cy='129.62' r='1.95' style='stroke-width: 0.71; fill: #000000;' clip-path='url(#cpNDMuOTd8NTY4LjAzfDE3MC42Mnw3Ljk3)' />
<circle cx='209.04' cy='49.42' r='1.95' style='stroke-width: 0.71; fill: #000000;' clip-path='url(#cpNDMuOTd8NTY4LjAzfDE3MC42Mnw3Ljk3)' />
<circle cx='67.79' cy='31.15' r='1.95' style='stroke-width: 0.71; fill: #000000;' clip-path='url(#cpNDMuOTd8NTY4LjAzfDE3MC42Mnw3Ljk3)' />
<circle cx='88.04' cy='15.36' r='1.95' style='stroke-width: 0.71; fill: #000000;' clip-path='url(#cpNDMuOTd8NTY4LjAzfDE3MC42Mnw3Ljk3)' />
<circle cx='143.03' cy='16.76' r='1.95' style='stroke-width: 0.71; fill: #000000;' clip-path='url(#cpNDMuOTd8NTY4LjAzfDE3MC42Mnw3Ljk3)' />
<circle cx='112.45' cy='40.35' r='1.95' style='stroke-width: 0.71; fill: #000000;' clip-path='url(#cpNDMuOTd8NTY4LjAzfDE3MC42Mnw3Ljk3)' />
<circle cx='139.98' cy='87.15' r='1.95' style='stroke-width: 0.71; fill: #000000;' clip-path='url(#cpNDMuOTd8NTY4LjAzfDE3MC42Mnw3Ljk3)' />
<circle cx='123.52' cy='163.23' r='1.95' style='stroke-width: 0.71; fill: #000000;' clip-path='url(#cpNDMuOTd8NTY4LjAzfDE3MC42Mnw3Ljk3)' />
<circle cx='136.76' cy='84.56' r='1.95' style='stroke-width: 0.71; fill: #000000;' clip-path='url(#cpNDMuOTd8NTY4LjAzfDE3MC42Mnw3Ljk3)' />
<circle cx='143.51' cy='91.31' r='1.95' style='stroke-width: 0.71; fill: #000000;' clip-path='url(#cpNDMuOTd8NTY4LjAzfDE3MC42Mnw3Ljk3)' />
<circle cx='142.27' cy='88.93' r='1.95' style='stroke-width: 0.71; fill: #000000;' clip-path='url(#cpNDMuOTd8NTY4LjAzfDE3MC42Mnw3Ljk3)' />
<circle cx='167.12' cy='115.74' r='1.95' style='stroke-width: 0.71; fill: #000000;' clip-path='url(#cpNDMuOTd8NTY4LjAzfDE3MC42Mnw3Ljk3)' />
<circle cx='272.82' cy='126.19' r='1.95' style='stroke-width: 0.71; fill: #000000;' clip-path='url(#cpNDMuOTd8NTY4LjAzfDE3MC42Mnw3Ljk3)' />
<circle cx='339.02' cy='46.80' r='1.95' style='stroke-width: 0.71; fill: #000000;' clip-path='url(#cpNDMuOTd8NTY4LjAzfDE3MC42Mnw3Ljk3)' />
<circle cx='315.50' cy='79.29' r='1.95' style='stroke-width: 0.71; fill: #000000;' clip-path='url(#cpNDMuOTd8NTY4LjAzfDE3MC42Mnw3Ljk3)' />
<circle cx='273.60' cy='113.85' r='1.95' style='stroke-width: 0.71; fill: #000000;' clip-path='url(#cpNDMuOTd8NTY4LjAzfDE3MC42Mnw3Ljk3)' />
<circle cx='250.29' cy='116.66' r='1.95' style='stroke-width: 0.71; fill: #000000;' clip-path='url(#cpNDMuOTd8NTY4LjAzfDE3MC42Mnw3Ljk3)' />
<circle cx='164.32' cy='65.71' r='1.95' style='stroke-width: 0.71; fill: #000000;' clip-path='url(#cpNDMuOTd8NTY4LjAzfDE3MC42Mnw3Ljk3)' />
<circle cx='249.33' cy='86.35' r='1.95' style='stroke-width: 0.71; fill: #000000;' clip-path='url(#cpNDMuOTd8NTY4LjAzfDE3MC42Mnw3Ljk3)' />
<circle cx='240.07' cy='67.13' r='1.95' style='stroke-width: 0.71; fill: #000000;' clip-path='url(#cpNDMuOTd8NTY4LjAzfDE3MC42Mnw3Ljk3)' />
<circle cx='351.15' cy='81.61' r='1.95' style='stroke-width: 0.71; fill: #000000;' clip-path='url(#cpNDMuOTd8NTY4LjAzfDE3MC42Mnw3Ljk3)' />
<circle cx='157.02' cy='84.66' r='1.95' style='stroke-width: 0.71; fill: #000000;' clip-path='url(#cpNDMuOTd8NTY4LjAzfDE3MC42Mnw3Ljk3)' />
<circle cx='197.51' cy='61.24' r='1.95' style='stroke-width: 0.71; fill: #000000;' clip-path='url(#cpNDMuOTd8NTY4LjAzfDE3MC42Mnw3Ljk3)' />
<circle cx='307.50' cy='108.63' r='1.95' style='stroke-width: 0.71; fill: #000000;' clip-path='url(#cpNDMuOTd8NTY4LjAzfDE3MC42Mnw3Ljk3)' />
<circle cx='246.32' cy='101.19' r='1.95' style='stroke-width: 0.71; fill: #000000;' clip-path='url(#cpNDMuOTd8NTY4LjAzfDE3MC42Mnw3Ljk3)' />
<circle cx='301.39' cy='118.43' r='1.95' style='stroke-width: 0.71; fill: #000000;' clip-path='url(#cpNDMuOTd8NTY4LjAzfDE3MC42Mnw3Ljk3)' />
<circle cx='268.48' cy='135.59' r='1.95' style='stroke-width: 0.71; fill: #000000;' clip-path='url(#cpNDMuOTd8NTY4LjAzfDE3MC42Mnw3Ljk3)' />
<circle cx='294.95' cy='106.14' r='1.95' style='stroke-width: 0.71; fill: #000000;' clip-path='url(#cpNDMuOTd8NTY4LjAzfDE3MC42Mnw3Ljk3)' />
<circle cx='308.45' cy='128.23' r='1.95' style='stroke-width: 0.71; fill: #000000;' clip-path='url(#cpNDMuOTd8NTY4LjAzfDE3MC42Mnw3Ljk3)' />
<circle cx='305.98' cy='149.21' r='1.95' style='stroke-width: 0.71; fill: #000000;' clip-path='url(#cpNDMuOTd8NTY4LjAzfDE3MC42Mnw3Ljk3)' />
<circle cx='355.66' cy='100.56' r='1.95' style='stroke-width: 0.71; fill: #000000;' clip-path='url(#cpNDMuOTd8NTY4LjAzfDE3MC42Mnw3Ljk3)' />
<circle cx='375.76' cy='78.54' r='1.95' style='stroke-width: 0.71; fill: #000000;' clip-path='url(#cpNDMuOTd8NTY4LjAzfDE3MC42Mnw3Ljk3)' />
<circle cx='475.07' cy='64.84' r='1.95' style='stroke-width: 0.71; fill: #000000;' clip-path='url(#cpNDMuOTd8NTY4LjAzfDE3MC42Mnw3Ljk3)' />
<circle cx='439.78' cy='86.56' r='1.95' style='stroke-width: 0.71; fill: #000000;' clip-path='url(#cpNDMuOTd8NTY4LjAzfDE3MC42Mnw3Ljk3)' />
<circle cx='376.94' cy='85.47' r='1.95' style='stroke-width: 0.71; fill: #000000;' clip-path='url(#cpNDMuOTd8NTY4LjAzfDE3MC42Mnw3Ljk3)' />
<circle cx='341.97' cy='65.40' r='1.95' style='stroke-width: 0.71; fill: #000000;' clip-path='url(#cpNDMuOTd8NTY4LjAzfDE3MC42Mnw3Ljk3)' />
<circle cx='213.01' cy='114.37' r='1.95' style='stroke-width: 0.71; fill: #000000;' clip-path='url(#cpNDMuOTd8NTY4LjAzfDE3MC42Mnw3Ljk3)' />
<circle cx='340.53' cy='99.77' r='1.95' style='stroke-width: 0.71; fill: #000000;' clip-path='url(#cpNDMuOTd8NTY4LjAzfDE3MC42Mnw3Ljk3)' />
<circle cx='326.64' cy='94.69' r='1.95' style='stroke-width: 0.71; fill: #000000;' clip-path='url(#cpNDMuOTd8NTY4LjAzfDE3MC42Mnw3Ljk3)' />
<circle cx='493.25' cy='71.90' r='1.95' style='stroke-width: 0.71; fill: #000000;' clip-path='url(#cpNDMuOTd8NTY4LjAzfDE3MC42Mnw3Ljk3)' />
<circle cx='246.24' cy='146.15' r='1.95' style='stroke-width: 0.71; fill: #000000;' clip-path='url(#cpNDMuOTd8NTY4LjAzfDE3MC42Mnw3Ljk3)' />
<circle cx='306.98' cy='152.49' r='1.95' style='stroke-width: 0.71; fill: #000000;' clip-path='url(#cpNDMuOTd8NTY4LjAzfDE3MC42Mnw3Ljk3)' />
<circle cx='471.96' cy='80.95' r='1.95' style='stroke-width: 0.71; fill: #000000;' clip-path='url(#cpNDMuOTd8NTY4LjAzfDE3MC42Mnw3Ljk3)' />
<circle cx='380.19' cy='100.01' r='1.95' style='stroke-width: 0.71; fill: #000000;' clip-path='url(#cpNDMuOTd8NTY4LjAzfDE3MC42Mnw3Ljk3)' />
<circle cx='462.80' cy='53.15' r='1.95' style='stroke-width: 0.71; fill: #000000;' clip-path='url(#cpNDMuOTd8NTY4LjAzfDE3MC42Mnw3Ljk3)' />
<circle cx='413.43' cy='28.16' r='1.95' style='stroke-width: 0.71; fill: #000000;' clip-path='url(#cpNDMuOTd8NTY4LjAzfDE3MC42Mnw3Ljk3)' />
<circle cx='453.14' cy='64.51' r='1.95' style='stroke-width: 0.71; fill: #000000;' clip-path='url(#cpNDMuOTd8NTY4LjAzfDE3MC42Mnw3Ljk3)' />
<circle cx='473.39' cy='42.69' r='1.95' style='stroke-width: 0.71; fill: #000000;' clip-path='url(#cpNDMuOTd8NTY4LjAzfDE3MC42Mnw3Ljk3)' />
<circle cx='469.68' cy='30.39' r='1.95' style='stroke-width: 0.71; fill: #000000;' clip-path='url(#cpNDMuOTd8NTY4LjAzfDE3MC42Mnw3Ljk3)' />
<circle cx='544.21' cy='36.04' r='1.95' style='stroke-width: 0.71; fill: #000000;' clip-path='url(#cpNDMuOTd8NTY4LjAzfDE3MC42Mnw3Ljk3)' />
<rect x='43.97' y='7.97' width='524.06' height='162.65' style='stroke-width: 1.55;' clip-path='url(#cpNDMuOTd8NTY4LjAzfDE3MC42Mnw3Ljk3)' />
<defs>
  <clipPath id='cpMC4wMHw1NzYuMDB8NDMyLjAwfDAuMDA='>
    <rect x='0.00' y='0.00' width='576.00' height='432.00' />
  </clipPath>
</defs>
<g clip-path='url(#cpMC4wMHw1NzYuMDB8NDMyLjAwfDAuMDA=)'><text x='26.51' y='136.62' style='font-size: 12.80px; font-family: Georgia;' textLength='10.29px' lengthAdjust='spacingAndGlyphs'>-1</text></g>
<g clip-path='url(#cpMC4wMHw1NzYuMDB8NDMyLjAwfDAuMDA=)'><text x='28.94' y='89.87' style='font-size: 12.80px; font-family: Georgia;' textLength='7.86px' lengthAdjust='spacingAndGlyphs'>0</text></g>
<g clip-path='url(#cpMC4wMHw1NzYuMDB8NDMyLjAwfDAuMDA=)'><text x='31.30' y='43.11' style='font-size: 12.80px; font-family: Georgia;' textLength='5.50px' lengthAdjust='spacingAndGlyphs'>1</text></g>
<polyline points='39.99,132.19 43.97,132.19 ' style='stroke-width: 0.78; stroke-linecap: butt;' clip-path='url(#cpMC4wMHw1NzYuMDB8NDMyLjAwfDAuMDA=)' />
<polyline points='39.99,85.43 43.97,85.43 ' style='stroke-width: 0.78; stroke-linecap: butt;' clip-path='url(#cpMC4wMHw1NzYuMDB8NDMyLjAwfDAuMDA=)' />
<polyline points='39.99,38.68 43.97,38.68 ' style='stroke-width: 0.78; stroke-linecap: butt;' clip-path='url(#cpMC4wMHw1NzYuMDB8NDMyLjAwfDAuMDA=)' />
<polyline points='48.78,174.61 48.78,170.62 ' style='stroke-width: 0.78; stroke-linecap: butt;' clip-path='url(#cpMC4wMHw1NzYuMDB8NDMyLjAwfDAuMDA=)' />
<polyline points='167.66,174.61 167.66,170.62 ' style='stroke-width: 0.78; stroke-linecap: butt;' clip-path='url(#cpMC4wMHw1NzYuMDB8NDMyLjAwfDAuMDA=)' />
<polyline points='286.55,174.61 286.55,170.62 ' style='stroke-width: 0.78; stroke-linecap: butt;' clip-path='url(#cpMC4wMHw1NzYuMDB8NDMyLjAwfDAuMDA=)' />
<polyline points='405.43,174.61 405.43,170.62 ' style='stroke-width: 0.78; stroke-linecap: butt;' clip-path='url(#cpMC4wMHw1NzYuMDB8NDMyLjAwfDAuMDA=)' />
<polyline points='524.32,174.61 524.32,170.62 ' style='stroke-width: 0.78; stroke-linecap: butt;' clip-path='url(#cpMC4wMHw1NzYuMDB8NDMyLjAwfDAuMDA=)' />
<g clip-path='url(#cpMC4wMHw1NzYuMDB8NDMyLjAwfDAuMDA=)'><text x='39.20' y='186.67' style='font-size: 12.80px; font-family: Georgia;' textLength='19.16px' lengthAdjust='spacingAndGlyphs'>0.0</text></g>
<g clip-path='url(#cpMC4wMHw1NzYuMDB8NDMyLjAwfDAuMDA=)'><text x='159.26' y='186.67' style='font-size: 12.80px; font-family: Georgia;' textLength='16.81px' lengthAdjust='spacingAndGlyphs'>0.1</text></g>
<g clip-path='url(#cpMC4wMHw1NzYuMDB8NDMyLjAwfDAuMDA=)'><text x='277.32' y='186.67' style='font-size: 12.80px; font-family: Georgia;' textLength='18.46px' lengthAdjust='spacingAndGlyphs'>0.2</text></g>
<g clip-path='url(#cpMC4wMHw1NzYuMDB8NDMyLjAwfDAuMDA=)'><text x='396.25' y='186.67' style='font-size: 12.80px; font-family: Georgia;' textLength='18.37px' lengthAdjust='spacingAndGlyphs'>0.3</text></g>
<g clip-path='url(#cpMC4wMHw1NzYuMDB8NDMyLjAwfDAuMDA=)'><text x='515.05' y='186.67' style='font-size: 12.80px; font-family: Georgia;' textLength='18.54px' lengthAdjust='spacingAndGlyphs'>0.4</text></g>
<g clip-path='url(#cpMC4wMHw1NzYuMDB8NDMyLjAwfDAuMDA=)'><text x='284.92' y='204.56' style='font-size: 16.00px; font-family: Georgia;' textLength='42.17px' lengthAdjust='spacingAndGlyphs'>.fitted</text></g>
<g clip-path='url(#cpMC4wMHw1NzYuMDB8NDMyLjAwfDAuMDA=)'><text transform='translate(19.06,116.08) rotate(-90)' style='font-size: 16.00px; font-family: Georgia;' textLength='53.57px' lengthAdjust='spacingAndGlyphs'>.scresid</text></g>
<defs>
  <clipPath id='cpMC4wMHw1NzYuMDB8NDMyLjAwfDIxNi4wMA=='>
    <rect x='0.00' y='216.00' width='576.00' height='216.00' />
  </clipPath>
</defs>
<defs>
  <clipPath id='cpMC4wMHw1NzYuMDB8NDMyLjAwfDAuMDA='>
    <rect x='0.00' y='0.00' width='576.00' height='432.00' />
  </clipPath>
</defs>
<defs>
  <clipPath id='cpMC4wMHwyODguMDB8NDMyLjAwfDIxNi4wMA=='>
    <rect x='0.00' y='216.00' width='288.00' height='216.00' />
  </clipPath>
</defs>
<rect x='0.00' y='216.00' width='288.00' height='216.00' style='stroke-width: 1.55; stroke: #BFC4BB; fill: #BFC4BB;' clip-path='url(#cpMC4wMHwyODguMDB8NDMyLjAwfDIxNi4wMA==)' />
<defs>
  <clipPath id='cpMC4wMHw1NzYuMDB8NDMyLjAwfDAuMDA='>
    <rect x='0.00' y='0.00' width='576.00' height='432.00' />
  </clipPath>
</defs>
<defs>
  <clipPath id='cpNDMuOTd8MjgwLjAzfDM4Ni42MnwyMjMuOTc='>
    <rect x='43.97' y='223.97' width='236.06' height='162.65' />
  </clipPath>
</defs>
<rect x='43.97' y='223.97' width='236.06' height='162.65' style='stroke-width: 1.55; stroke: none; fill: #BFC4BB;' clip-path='url(#cpNDMuOTd8MjgwLjAzfDM4Ni42MnwyMjMuOTc=)' />
<polyline points='43.97,371.56 280.03,371.56 ' style='stroke-width: 0.078; stroke-linecap: butt;' clip-path='url(#cpNDMuOTd8MjgwLjAzfDM4Ni42MnwyMjMuOTc=)' />
<polyline points='43.97,324.81 280.03,324.81 ' style='stroke-width: 0.078; stroke-linecap: butt;' clip-path='url(#cpNDMuOTd8MjgwLjAzfDM4Ni42MnwyMjMuOTc=)' />
<polyline points='43.97,278.06 280.03,278.06 ' style='stroke-width: 0.078; stroke-linecap: butt;' clip-path='url(#cpNDMuOTd8MjgwLjAzfDM4Ni42MnwyMjMuOTc=)' />
<polyline points='43.97,231.30 280.03,231.30 ' style='stroke-width: 0.078; stroke-linecap: butt;' clip-path='url(#cpNDMuOTd8MjgwLjAzfDM4Ni42MnwyMjMuOTc=)' />
<polyline points='81.53,386.62 81.53,223.97 ' style='stroke-width: 0.078; stroke-linecap: butt;' clip-path='url(#cpNDMuOTd8MjgwLjAzfDM4Ni42MnwyMjMuOTc=)' />
<polyline points='135.18,386.62 135.18,223.97 ' style='stroke-width: 0.078; stroke-linecap: butt;' clip-path='url(#cpNDMuOTd8MjgwLjAzfDM4Ni42MnwyMjMuOTc=)' />
<polyline points='188.83,386.62 188.83,223.97 ' style='stroke-width: 0.078; stroke-linecap: butt;' clip-path='url(#cpNDMuOTd8MjgwLjAzfDM4Ni42MnwyMjMuOTc=)' />
<polyline points='242.48,386.62 242.48,223.97 ' style='stroke-width: 0.078; stroke-linecap: butt;' clip-path='url(#cpNDMuOTd8MjgwLjAzfDM4Ni42MnwyMjMuOTc=)' />
<polyline points='43.97,348.19 280.03,348.19 ' style='stroke-width: 0.16; stroke-linecap: butt;' clip-path='url(#cpNDMuOTd8MjgwLjAzfDM4Ni42MnwyMjMuOTc=)' />
<polyline points='43.97,301.43 280.03,301.43 ' style='stroke-width: 0.16; stroke-linecap: butt;' clip-path='url(#cpNDMuOTd8MjgwLjAzfDM4Ni42MnwyMjMuOTc=)' />
<polyline points='43.97,254.68 280.03,254.68 ' style='stroke-width: 0.16; stroke-linecap: butt;' clip-path='url(#cpNDMuOTd8MjgwLjAzfDM4Ni42MnwyMjMuOTc=)' />
<polyline points='54.70,386.62 54.70,223.97 ' style='stroke-width: 0.16; stroke-linecap: butt;' clip-path='url(#cpNDMuOTd8MjgwLjAzfDM4Ni42MnwyMjMuOTc=)' />
<polyline points='108.35,386.62 108.35,223.97 ' style='stroke-width: 0.16; stroke-linecap: butt;' clip-path='url(#cpNDMuOTd8MjgwLjAzfDM4Ni42MnwyMjMuOTc=)' />
<polyline points='162.00,386.62 162.00,223.97 ' style='stroke-width: 0.16; stroke-linecap: butt;' clip-path='url(#cpNDMuOTd8MjgwLjAzfDM4Ni42MnwyMjMuOTc=)' />
<polyline points='215.65,386.62 215.65,223.97 ' style='stroke-width: 0.16; stroke-linecap: butt;' clip-path='url(#cpNDMuOTd8MjgwLjAzfDM4Ni42MnwyMjMuOTc=)' />
<polyline points='269.30,386.62 269.30,223.97 ' style='stroke-width: 0.16; stroke-linecap: butt;' clip-path='url(#cpNDMuOTd8MjgwLjAzfDM4Ni42MnwyMjMuOTc=)' />
<circle cx='54.70' cy='240.67' r='2.49' style='stroke-width: 0.71; stroke: #006400; stroke-opacity: 0.40; fill: #006400; fill-opacity: 0.40;' clip-path='url(#cpNDMuOTd8MjgwLjAzfDM4Ni42MnwyMjMuOTc=)' />
<circle cx='54.70' cy='369.28' r='2.49' style='stroke-width: 0.71; stroke: #006400; stroke-opacity: 0.40; fill: #006400; fill-opacity: 0.40;' clip-path='url(#cpNDMuOTd8MjgwLjAzfDM4Ni42MnwyMjMuOTc=)' />
<circle cx='54.70' cy='264.44' r='2.49' style='stroke-width: 0.71; stroke: #006400; stroke-opacity: 0.40; fill: #006400; fill-opacity: 0.40;' clip-path='url(#cpNDMuOTd8MjgwLjAzfDM4Ni42MnwyMjMuOTc=)' />
<circle cx='54.70' cy='243.73' r='2.49' style='stroke-width: 0.71; stroke: #006400; stroke-opacity: 0.40; fill: #006400; fill-opacity: 0.40;' clip-path='url(#cpNDMuOTd8MjgwLjAzfDM4Ni42MnwyMjMuOTc=)' />
<circle cx='54.70' cy='323.43' r='2.49' style='stroke-width: 0.71; stroke: #006400; stroke-opacity: 0.40; fill: #006400; fill-opacity: 0.40;' clip-path='url(#cpNDMuOTd8MjgwLjAzfDM4Ni42MnwyMjMuOTc=)' />
<circle cx='54.70' cy='371.01' r='2.49' style='stroke-width: 0.71; stroke: #006400; stroke-opacity: 0.40; fill: #006400; fill-opacity: 0.40;' clip-path='url(#cpNDMuOTd8MjgwLjAzfDM4Ni42MnwyMjMuOTc=)' />
<circle cx='54.70' cy='281.96' r='2.49' style='stroke-width: 0.71; stroke: #006400; stroke-opacity: 0.40; fill: #006400; fill-opacity: 0.40;' clip-path='url(#cpNDMuOTd8MjgwLjAzfDM4Ni42MnwyMjMuOTc=)' />
<circle cx='54.70' cy='345.62' r='2.49' style='stroke-width: 0.71; stroke: #006400; stroke-opacity: 0.40; fill: #006400; fill-opacity: 0.40;' clip-path='url(#cpNDMuOTd8MjgwLjAzfDM4Ni42MnwyMjMuOTc=)' />
<circle cx='54.70' cy='265.42' r='2.49' style='stroke-width: 0.71; stroke: #006400; stroke-opacity: 0.40; fill: #006400; fill-opacity: 0.40;' clip-path='url(#cpNDMuOTd8MjgwLjAzfDM4Ni42MnwyMjMuOTc=)' />
<circle cx='54.70' cy='247.15' r='2.49' style='stroke-width: 0.71; stroke: #006400; stroke-opacity: 0.40; fill: #006400; fill-opacity: 0.40;' clip-path='url(#cpNDMuOTd8MjgwLjAzfDM4Ni42MnwyMjMuOTc=)' />
<circle cx='54.70' cy='231.36' r='2.49' style='stroke-width: 0.71; stroke: #006400; stroke-opacity: 0.40; fill: #006400; fill-opacity: 0.40;' clip-path='url(#cpNDMuOTd8MjgwLjAzfDM4Ni42MnwyMjMuOTc=)' />
<circle cx='54.70' cy='232.76' r='2.49' style='stroke-width: 0.71; stroke: #006400; stroke-opacity: 0.40; fill: #006400; fill-opacity: 0.40;' clip-path='url(#cpNDMuOTd8MjgwLjAzfDM4Ni42MnwyMjMuOTc=)' />
<circle cx='54.70' cy='256.35' r='2.49' style='stroke-width: 0.71; stroke: #006400; stroke-opacity: 0.40; fill: #006400; fill-opacity: 0.40;' clip-path='url(#cpNDMuOTd8MjgwLjAzfDM4Ni42MnwyMjMuOTc=)' />
<circle cx='54.70' cy='303.15' r='2.49' style='stroke-width: 0.71; stroke: #006400; stroke-opacity: 0.40; fill: #006400; fill-opacity: 0.40;' clip-path='url(#cpNDMuOTd8MjgwLjAzfDM4Ni42MnwyMjMuOTc=)' />
<circle cx='54.70' cy='379.23' r='2.49' style='stroke-width: 0.71; stroke: #006400; stroke-opacity: 0.40; fill: #006400; fill-opacity: 0.40;' clip-path='url(#cpNDMuOTd8MjgwLjAzfDM4Ni42MnwyMjMuOTc=)' />
<circle cx='54.70' cy='300.56' r='2.49' style='stroke-width: 0.71; stroke: #006400; stroke-opacity: 0.40; fill: #006400; fill-opacity: 0.40;' clip-path='url(#cpNDMuOTd8MjgwLjAzfDM4Ni42MnwyMjMuOTc=)' />
<circle cx='54.70' cy='307.31' r='2.49' style='stroke-width: 0.71; stroke: #006400; stroke-opacity: 0.40; fill: #006400; fill-opacity: 0.40;' clip-path='url(#cpNDMuOTd8MjgwLjAzfDM4Ni42MnwyMjMuOTc=)' />
<circle cx='54.70' cy='304.93' r='2.49' style='stroke-width: 0.71; stroke: #006400; stroke-opacity: 0.40; fill: #006400; fill-opacity: 0.40;' clip-path='url(#cpNDMuOTd8MjgwLjAzfDM4Ni42MnwyMjMuOTc=)' />
<circle cx='54.70' cy='331.74' r='2.49' style='stroke-width: 0.71; stroke: #006400; stroke-opacity: 0.40; fill: #006400; fill-opacity: 0.40;' clip-path='url(#cpNDMuOTd8MjgwLjAzfDM4Ni42MnwyMjMuOTc=)' />
<circle cx='162.00' cy='342.19' r='2.49' style='stroke-width: 0.71; stroke: #006400; stroke-opacity: 0.40; fill: #006400; fill-opacity: 0.40;' clip-path='url(#cpNDMuOTd8MjgwLjAzfDM4Ni42MnwyMjMuOTc=)' />
<circle cx='162.00' cy='262.80' r='2.49' style='stroke-width: 0.71; stroke: #006400; stroke-opacity: 0.40; fill: #006400; fill-opacity: 0.40;' clip-path='url(#cpNDMuOTd8MjgwLjAzfDM4Ni42MnwyMjMuOTc=)' />
<circle cx='162.00' cy='295.29' r='2.49' style='stroke-width: 0.71; stroke: #006400; stroke-opacity: 0.40; fill: #006400; fill-opacity: 0.40;' clip-path='url(#cpNDMuOTd8MjgwLjAzfDM4Ni42MnwyMjMuOTc=)' />
<circle cx='162.00' cy='329.85' r='2.49' style='stroke-width: 0.71; stroke: #006400; stroke-opacity: 0.40; fill: #006400; fill-opacity: 0.40;' clip-path='url(#cpNDMuOTd8MjgwLjAzfDM4Ni42MnwyMjMuOTc=)' />
<circle cx='162.00' cy='332.66' r='2.49' style='stroke-width: 0.71; stroke: #006400; stroke-opacity: 0.40; fill: #006400; fill-opacity: 0.40;' clip-path='url(#cpNDMuOTd8MjgwLjAzfDM4Ni42MnwyMjMuOTc=)' />
<circle cx='162.00' cy='281.71' r='2.49' style='stroke-width: 0.71; stroke: #006400; stroke-opacity: 0.40; fill: #006400; fill-opacity: 0.40;' clip-path='url(#cpNDMuOTd8MjgwLjAzfDM4Ni42MnwyMjMuOTc=)' />
<circle cx='162.00' cy='302.35' r='2.49' style='stroke-width: 0.71; stroke: #006400; stroke-opacity: 0.40; fill: #006400; fill-opacity: 0.40;' clip-path='url(#cpNDMuOTd8MjgwLjAzfDM4Ni42MnwyMjMuOTc=)' />
<circle cx='162.00' cy='283.13' r='2.49' style='stroke-width: 0.71; stroke: #006400; stroke-opacity: 0.40; fill: #006400; fill-opacity: 0.40;' clip-path='url(#cpNDMuOTd8MjgwLjAzfDM4Ni42MnwyMjMuOTc=)' />
<circle cx='162.00' cy='297.61' r='2.49' style='stroke-width: 0.71; stroke: #006400; stroke-opacity: 0.40; fill: #006400; fill-opacity: 0.40;' clip-path='url(#cpNDMuOTd8MjgwLjAzfDM4Ni42MnwyMjMuOTc=)' />
<circle cx='162.00' cy='300.66' r='2.49' style='stroke-width: 0.71; stroke: #006400; stroke-opacity: 0.40; fill: #006400; fill-opacity: 0.40;' clip-path='url(#cpNDMuOTd8MjgwLjAzfDM4Ni42MnwyMjMuOTc=)' />
<circle cx='162.00' cy='277.24' r='2.49' style='stroke-width: 0.71; stroke: #006400; stroke-opacity: 0.40; fill: #006400; fill-opacity: 0.40;' clip-path='url(#cpNDMuOTd8MjgwLjAzfDM4Ni42MnwyMjMuOTc=)' />
<circle cx='162.00' cy='324.63' r='2.49' style='stroke-width: 0.71; stroke: #006400; stroke-opacity: 0.40; fill: #006400; fill-opacity: 0.40;' clip-path='url(#cpNDMuOTd8MjgwLjAzfDM4Ni42MnwyMjMuOTc=)' />
<circle cx='162.00' cy='317.19' r='2.49' style='stroke-width: 0.71; stroke: #006400; stroke-opacity: 0.40; fill: #006400; fill-opacity: 0.40;' clip-path='url(#cpNDMuOTd8MjgwLjAzfDM4Ni42MnwyMjMuOTc=)' />
<circle cx='162.00' cy='334.43' r='2.49' style='stroke-width: 0.71; stroke: #006400; stroke-opacity: 0.40; fill: #006400; fill-opacity: 0.40;' clip-path='url(#cpNDMuOTd8MjgwLjAzfDM4Ni42MnwyMjMuOTc=)' />
<circle cx='162.00' cy='351.59' r='2.49' style='stroke-width: 0.71; stroke: #006400; stroke-opacity: 0.40; fill: #006400; fill-opacity: 0.40;' clip-path='url(#cpNDMuOTd8MjgwLjAzfDM4Ni42MnwyMjMuOTc=)' />
<circle cx='162.00' cy='322.14' r='2.49' style='stroke-width: 0.71; stroke: #006400; stroke-opacity: 0.40; fill: #006400; fill-opacity: 0.40;' clip-path='url(#cpNDMuOTd8MjgwLjAzfDM4Ni42MnwyMjMuOTc=)' />
<circle cx='162.00' cy='344.23' r='2.49' style='stroke-width: 0.71; stroke: #006400; stroke-opacity: 0.40; fill: #006400; fill-opacity: 0.40;' clip-path='url(#cpNDMuOTd8MjgwLjAzfDM4Ni42MnwyMjMuOTc=)' />
<circle cx='162.00' cy='365.21' r='2.49' style='stroke-width: 0.71; stroke: #006400; stroke-opacity: 0.40; fill: #006400; fill-opacity: 0.40;' clip-path='url(#cpNDMuOTd8MjgwLjAzfDM4Ni42MnwyMjMuOTc=)' />
<circle cx='162.00' cy='316.56' r='2.49' style='stroke-width: 0.71; stroke: #006400; stroke-opacity: 0.40; fill: #006400; fill-opacity: 0.40;' clip-path='url(#cpNDMuOTd8MjgwLjAzfDM4Ni42MnwyMjMuOTc=)' />
<circle cx='269.30' cy='294.54' r='2.49' style='stroke-width: 0.71; stroke: #006400; stroke-opacity: 0.40; fill: #006400; fill-opacity: 0.40;' clip-path='url(#cpNDMuOTd8MjgwLjAzfDM4Ni42MnwyMjMuOTc=)' />
<circle cx='269.30' cy='280.84' r='2.49' style='stroke-width: 0.71; stroke: #006400; stroke-opacity: 0.40; fill: #006400; fill-opacity: 0.40;' clip-path='url(#cpNDMuOTd8MjgwLjAzfDM4Ni42MnwyMjMuOTc=)' />
<circle cx='269.30' cy='302.56' r='2.49' style='stroke-width: 0.71; stroke: #006400; stroke-opacity: 0.40; fill: #006400; fill-opacity: 0.40;' clip-path='url(#cpNDMuOTd8MjgwLjAzfDM4Ni42MnwyMjMuOTc=)' />
<circle cx='269.30' cy='301.47' r='2.49' style='stroke-width: 0.71; stroke: #006400; stroke-opacity: 0.40; fill: #006400; fill-opacity: 0.40;' clip-path='url(#cpNDMuOTd8MjgwLjAzfDM4Ni42MnwyMjMuOTc=)' />
<circle cx='269.30' cy='281.40' r='2.49' style='stroke-width: 0.71; stroke: #006400; stroke-opacity: 0.40; fill: #006400; fill-opacity: 0.40;' clip-path='url(#cpNDMuOTd8MjgwLjAzfDM4Ni42MnwyMjMuOTc=)' />
<circle cx='269.30' cy='330.37' r='2.49' style='stroke-width: 0.71; stroke: #006400; stroke-opacity: 0.40; fill: #006400; fill-opacity: 0.40;' clip-path='url(#cpNDMuOTd8MjgwLjAzfDM4Ni42MnwyMjMuOTc=)' />
<circle cx='269.30' cy='315.77' r='2.49' style='stroke-width: 0.71; stroke: #006400; stroke-opacity: 0.40; fill: #006400; fill-opacity: 0.40;' clip-path='url(#cpNDMuOTd8MjgwLjAzfDM4Ni42MnwyMjMuOTc=)' />
<circle cx='269.30' cy='310.69' r='2.49' style='stroke-width: 0.71; stroke: #006400; stroke-opacity: 0.40; fill: #006400; fill-opacity: 0.40;' clip-path='url(#cpNDMuOTd8MjgwLjAzfDM4Ni42MnwyMjMuOTc=)' />
<circle cx='269.30' cy='287.90' r='2.49' style='stroke-width: 0.71; stroke: #006400; stroke-opacity: 0.40; fill: #006400; fill-opacity: 0.40;' clip-path='url(#cpNDMuOTd8MjgwLjAzfDM4Ni42MnwyMjMuOTc=)' />
<circle cx='269.30' cy='362.15' r='2.49' style='stroke-width: 0.71; stroke: #006400; stroke-opacity: 0.40; fill: #006400; fill-opacity: 0.40;' clip-path='url(#cpNDMuOTd8MjgwLjAzfDM4Ni42MnwyMjMuOTc=)' />
<circle cx='269.30' cy='368.49' r='2.49' style='stroke-width: 0.71; stroke: #006400; stroke-opacity: 0.40; fill: #006400; fill-opacity: 0.40;' clip-path='url(#cpNDMuOTd8MjgwLjAzfDM4Ni42MnwyMjMuOTc=)' />
<circle cx='269.30' cy='296.95' r='2.49' style='stroke-width: 0.71; stroke: #006400; stroke-opacity: 0.40; fill: #006400; fill-opacity: 0.40;' clip-path='url(#cpNDMuOTd8MjgwLjAzfDM4Ni42MnwyMjMuOTc=)' />
<circle cx='269.30' cy='316.01' r='2.49' style='stroke-width: 0.71; stroke: #006400; stroke-opacity: 0.40; fill: #006400; fill-opacity: 0.40;' clip-path='url(#cpNDMuOTd8MjgwLjAzfDM4Ni42MnwyMjMuOTc=)' />
<circle cx='269.30' cy='269.15' r='2.49' style='stroke-width: 0.71; stroke: #006400; stroke-opacity: 0.40; fill: #006400; fill-opacity: 0.40;' clip-path='url(#cpNDMuOTd8MjgwLjAzfDM4Ni42MnwyMjMuOTc=)' />
<circle cx='269.30' cy='244.16' r='2.49' style='stroke-width: 0.71; stroke: #006400; stroke-opacity: 0.40; fill: #006400; fill-opacity: 0.40;' clip-path='url(#cpNDMuOTd8MjgwLjAzfDM4Ni42MnwyMjMuOTc=)' />
<circle cx='269.30' cy='280.51' r='2.49' style='stroke-width: 0.71; stroke: #006400; stroke-opacity: 0.40; fill: #006400; fill-opacity: 0.40;' clip-path='url(#cpNDMuOTd8MjgwLjAzfDM4Ni42MnwyMjMuOTc=)' />
<circle cx='269.30' cy='258.69' r='2.49' style='stroke-width: 0.71; stroke: #006400; stroke-opacity: 0.40; fill: #006400; fill-opacity: 0.40;' clip-path='url(#cpNDMuOTd8MjgwLjAzfDM4Ni42MnwyMjMuOTc=)' />
<circle cx='269.30' cy='246.39' r='2.49' style='stroke-width: 0.71; stroke: #006400; stroke-opacity: 0.40; fill: #006400; fill-opacity: 0.40;' clip-path='url(#cpNDMuOTd8MjgwLjAzfDM4Ni42MnwyMjMuOTc=)' />
<circle cx='269.30' cy='252.04' r='2.49' style='stroke-width: 0.71; stroke: #006400; stroke-opacity: 0.40; fill: #006400; fill-opacity: 0.40;' clip-path='url(#cpNDMuOTd8MjgwLjAzfDM4Ni42MnwyMjMuOTc=)' />
<rect x='43.97' y='223.97' width='236.06' height='162.65' style='stroke-width: 1.55;' clip-path='url(#cpNDMuOTd8MjgwLjAzfDM4Ni42MnwyMjMuOTc=)' />
<defs>
  <clipPath id='cpMC4wMHw1NzYuMDB8NDMyLjAwfDAuMDA='>
    <rect x='0.00' y='0.00' width='576.00' height='432.00' />
  </clipPath>
</defs>
<g clip-path='url(#cpMC4wMHw1NzYuMDB8NDMyLjAwfDAuMDA=)'><text x='26.51' y='352.62' style='font-size: 12.80px; font-family: Georgia;' textLength='10.29px' lengthAdjust='spacingAndGlyphs'>-1</text></g>
<g clip-path='url(#cpMC4wMHw1NzYuMDB8NDMyLjAwfDAuMDA=)'><text x='28.94' y='305.87' style='font-size: 12.80px; font-family: Georgia;' textLength='7.86px' lengthAdjust='spacingAndGlyphs'>0</text></g>
<g clip-path='url(#cpMC4wMHw1NzYuMDB8NDMyLjAwfDAuMDA=)'><text x='31.30' y='259.11' style='font-size: 12.80px; font-family: Georgia;' textLength='5.50px' lengthAdjust='spacingAndGlyphs'>1</text></g>
<polyline points='39.99,348.19 43.97,348.19 ' style='stroke-width: 0.78; stroke-linecap: butt;' clip-path='url(#cpMC4wMHw1NzYuMDB8NDMyLjAwfDAuMDA=)' />
<polyline points='39.99,301.43 43.97,301.43 ' style='stroke-width: 0.78; stroke-linecap: butt;' clip-path='url(#cpMC4wMHw1NzYuMDB8NDMyLjAwfDAuMDA=)' />
<polyline points='39.99,254.68 43.97,254.68 ' style='stroke-width: 0.78; stroke-linecap: butt;' clip-path='url(#cpMC4wMHw1NzYuMDB8NDMyLjAwfDAuMDA=)' />
<polyline points='54.70,390.61 54.70,386.62 ' style='stroke-width: 0.78; stroke-linecap: butt;' clip-path='url(#cpMC4wMHw1NzYuMDB8NDMyLjAwfDAuMDA=)' />
<polyline points='108.35,390.61 108.35,386.62 ' style='stroke-width: 0.78; stroke-linecap: butt;' clip-path='url(#cpMC4wMHw1NzYuMDB8NDMyLjAwfDAuMDA=)' />
<polyline points='162.00,390.61 162.00,386.62 ' style='stroke-width: 0.78; stroke-linecap: butt;' clip-path='url(#cpMC4wMHw1NzYuMDB8NDMyLjAwfDAuMDA=)' />
<polyline points='215.65,390.61 215.65,386.62 ' style='stroke-width: 0.78; stroke-linecap: butt;' clip-path='url(#cpMC4wMHw1NzYuMDB8NDMyLjAwfDAuMDA=)' />
<polyline points='269.30,390.61 269.30,386.62 ' style='stroke-width: 0.78; stroke-linecap: butt;' clip-path='url(#cpMC4wMHw1NzYuMDB8NDMyLjAwfDAuMDA=)' />
<g clip-path='url(#cpMC4wMHw1NzYuMDB8NDMyLjAwfDAuMDA=)'><text x='45.67' y='402.67' style='font-size: 12.80px; font-family: Georgia;' textLength='18.07px' lengthAdjust='spacingAndGlyphs'>5.0</text></g>
<g clip-path='url(#cpMC4wMHw1NzYuMDB8NDMyLjAwfDAuMDA=)'><text x='100.03' y='402.67' style='font-size: 12.80px; font-family: Georgia;' textLength='16.64px' lengthAdjust='spacingAndGlyphs'>7.5</text></g>
<g clip-path='url(#cpMC4wMHw1NzYuMDB8NDMyLjAwfDAuMDA=)'><text x='149.67' y='402.67' style='font-size: 12.80px; font-family: Georgia;' textLength='24.66px' lengthAdjust='spacingAndGlyphs'>10.0</text></g>
<g clip-path='url(#cpMC4wMHw1NzYuMDB8NDMyLjAwfDAuMDA=)'><text x='204.22' y='402.67' style='font-size: 12.80px; font-family: Georgia;' textLength='22.86px' lengthAdjust='spacingAndGlyphs'>12.5</text></g>
<g clip-path='url(#cpMC4wMHw1NzYuMDB8NDMyLjAwfDAuMDA=)'><text x='257.52' y='402.67' style='font-size: 12.80px; font-family: Georgia;' textLength='23.57px' lengthAdjust='spacingAndGlyphs'>15.0</text></g>
<g clip-path='url(#cpMC4wMHw1NzYuMDB8NDMyLjAwfDAuMDA=)'><text x='145.70' y='420.56' style='font-size: 16.00px; font-family: Georgia;' textLength='32.61px' lengthAdjust='spacingAndGlyphs'>conc</text></g>
<g clip-path='url(#cpMC4wMHw1NzYuMDB8NDMyLjAwfDAuMDA=)'><text transform='translate(19.06,332.08) rotate(-90)' style='font-size: 16.00px; font-family: Georgia;' textLength='53.57px' lengthAdjust='spacingAndGlyphs'>.scresid</text></g>
<defs>
  <clipPath id='cpMjg4LjAwfDU3Ni4wMHw0MzIuMDB8MjE2LjAw'>
    <rect x='288.00' y='216.00' width='288.00' height='216.00' />
  </clipPath>
</defs>
<rect x='288.00' y='216.00' width='288.00' height='216.00' style='stroke-width: 1.55; stroke: #BFC4BB; fill: #BFC4BB;' clip-path='url(#cpMjg4LjAwfDU3Ni4wMHw0MzIuMDB8MjE2LjAw)' />
<defs>
  <clipPath id='cpMC4wMHw1NzYuMDB8NDMyLjAwfDAuMDA='>
    <rect x='0.00' y='0.00' width='576.00' height='432.00' />
  </clipPath>
</defs>
<defs>
  <clipPath id='cpMzMxLjk3fDU2OC4wM3wzODYuNjJ8MjIzLjk3'>
    <rect x='331.97' y='223.97' width='236.06' height='162.65' />
  </clipPath>
</defs>
<rect x='331.97' y='223.97' width='236.06' height='162.65' style='stroke-width: 1.55; stroke: none; fill: #BFC4BB;' clip-path='url(#cpMzMxLjk3fDU2OC4wM3wzODYuNjJ8MjIzLjk3)' />
<polyline points='331.97,371.56 568.03,371.56 ' style='stroke-width: 0.078; stroke-linecap: butt;' clip-path='url(#cpMzMxLjk3fDU2OC4wM3wzODYuNjJ8MjIzLjk3)' />
<polyline points='331.97,324.81 568.03,324.81 ' style='stroke-width: 0.078; stroke-linecap: butt;' clip-path='url(#cpMzMxLjk3fDU2OC4wM3wzODYuNjJ8MjIzLjk3)' />
<polyline points='331.97,278.06 568.03,278.06 ' style='stroke-width: 0.078; stroke-linecap: butt;' clip-path='url(#cpMzMxLjk3fDU2OC4wM3wzODYuNjJ8MjIzLjk3)' />
<polyline points='331.97,231.30 568.03,231.30 ' style='stroke-width: 0.078; stroke-linecap: butt;' clip-path='url(#cpMzMxLjk3fDU2OC4wM3wzODYuNjJ8MjIzLjk3)' />
<polyline points='331.97,348.19 568.03,348.19 ' style='stroke-width: 0.16; stroke-linecap: butt;' clip-path='url(#cpMzMxLjk3fDU2OC4wM3wzODYuNjJ8MjIzLjk3)' />
<polyline points='331.97,301.43 568.03,301.43 ' style='stroke-width: 0.16; stroke-linecap: butt;' clip-path='url(#cpMzMxLjk3fDU2OC4wM3wzODYuNjJ8MjIzLjk3)' />
<polyline points='331.97,254.68 568.03,254.68 ' style='stroke-width: 0.16; stroke-linecap: butt;' clip-path='url(#cpMzMxLjk3fDU2OC4wM3wzODYuNjJ8MjIzLjk3)' />
<polyline points='396.35,386.62 396.35,223.97 ' style='stroke-width: 0.16; stroke-linecap: butt;' clip-path='url(#cpMzMxLjk3fDU2OC4wM3wzODYuNjJ8MjIzLjk3)' />
<polyline points='503.65,386.62 503.65,223.97 ' style='stroke-width: 0.16; stroke-linecap: butt;' clip-path='url(#cpMzMxLjk3fDU2OC4wM3wzODYuNjJ8MjIzLjk3)' />
<line x1='396.35' y1='281.55' x2='396.35' y2='240.67' style='stroke-width: 1.07; stroke: #333333; stroke-linecap: butt;' clip-path='url(#cpMzMxLjk3fDU2OC4wM3wzODYuNjJ8MjIzLjk3)' />
<line x1='396.35' y1='326.64' x2='396.35' y2='371.01' style='stroke-width: 1.07; stroke: #333333; stroke-linecap: butt;' clip-path='url(#cpMzMxLjk3fDU2OC4wM3wzODYuNjJ8MjIzLjk3)' />
<polygon points='356.12,281.55 356.12,326.64 436.59,326.64 436.59,281.55 356.12,281.55 ' style='stroke-width: 1.07; stroke: #333333; fill: #FFFFFF;' clip-path='url(#cpMzMxLjk3fDU2OC4wM3wzODYuNjJ8MjIzLjk3)' />
<line x1='356.12' y1='297.61' x2='436.59' y2='297.61' style='stroke-width: 2.13; stroke: #333333; stroke-linecap: butt;' clip-path='url(#cpMzMxLjk3fDU2OC4wM3wzODYuNjJ8MjIzLjk3)' />
<line x1='503.65' y1='261.30' x2='503.65' y2='231.36' style='stroke-width: 1.07; stroke: #333333; stroke-linecap: butt;' clip-path='url(#cpMzMxLjk3fDU2OC4wM3wzODYuNjJ8MjIzLjk3)' />
<line x1='503.65' y1='329.96' x2='503.65' y2='379.23' style='stroke-width: 1.07; stroke: #333333; stroke-linecap: butt;' clip-path='url(#cpMzMxLjk3fDU2OC4wM3wzODYuNjJ8MjIzLjk3)' />
<polygon points='463.41,261.30 463.41,329.96 543.89,329.96 543.89,261.30 463.41,261.30 ' style='stroke-width: 1.07; stroke: #333333; fill: #FFFFFF;' clip-path='url(#cpMzMxLjk3fDU2OC4wM3wzODYuNjJ8MjIzLjk3)' />
<line x1='463.41' y1='304.04' x2='543.89' y2='304.04' style='stroke-width: 2.13; stroke: #333333; stroke-linecap: butt;' clip-path='url(#cpMzMxLjk3fDU2OC4wM3wzODYuNjJ8MjIzLjk3)' />
<rect x='331.97' y='223.97' width='236.06' height='162.65' style='stroke-width: 1.55;' clip-path='url(#cpMzMxLjk3fDU2OC4wM3wzODYuNjJ8MjIzLjk3)' />
<defs>
  <clipPath id='cpMC4wMHw1NzYuMDB8NDMyLjAwfDAuMDA='>
    <rect x='0.00' y='0.00' width='576.00' height='432.00' />
  </clipPath>
</defs>
<g clip-path='url(#cpMC4wMHw1NzYuMDB8NDMyLjAwfDAuMDA=)'><text x='314.51' y='352.62' style='font-size: 12.80px; font-family: Georgia;' textLength='10.29px' lengthAdjust='spacingAndGlyphs'>-1</text></g>
<g clip-path='url(#cpMC4wMHw1NzYuMDB8NDMyLjAwfDAuMDA=)'><text x='316.94' y='305.87' style='font-size: 12.80px; font-family: Georgia;' textLength='7.86px' lengthAdjust='spacingAndGlyphs'>0</text></g>
<g clip-path='url(#cpMC4wMHw1NzYuMDB8NDMyLjAwfDAuMDA=)'><text x='319.30' y='259.11' style='font-size: 12.80px; font-family: Georgia;' textLength='5.50px' lengthAdjust='spacingAndGlyphs'>1</text></g>
<polyline points='327.99,348.19 331.97,348.19 ' style='stroke-width: 0.78; stroke-linecap: butt;' clip-path='url(#cpMC4wMHw1NzYuMDB8NDMyLjAwfDAuMDA=)' />
<polyline points='327.99,301.43 331.97,301.43 ' style='stroke-width: 0.78; stroke-linecap: butt;' clip-path='url(#cpMC4wMHw1NzYuMDB8NDMyLjAwfDAuMDA=)' />
<polyline points='327.99,254.68 331.97,254.68 ' style='stroke-width: 0.78; stroke-linecap: butt;' clip-path='url(#cpMC4wMHw1NzYuMDB8NDMyLjAwfDAuMDA=)' />
<polyline points='396.35,390.61 396.35,386.62 ' style='stroke-width: 0.78; stroke-linecap: butt;' clip-path='url(#cpMC4wMHw1NzYuMDB8NDMyLjAwfDAuMDA=)' />
<polyline points='503.65,390.61 503.65,386.62 ' style='stroke-width: 0.78; stroke-linecap: butt;' clip-path='url(#cpMC4wMHw1NzYuMDB8NDMyLjAwfDAuMDA=)' />
<g clip-path='url(#cpMC4wMHw1NzYuMDB8NDMyLjAwfDAuMDA=)'><text x='386.73' y='402.67' style='font-size: 12.80px; font-family: Georgia;' textLength='19.24px' lengthAdjust='spacingAndGlyphs'>Gly</text></g>
<g clip-path='url(#cpMC4wMHw1NzYuMDB8NDMyLjAwfDAuMDA=)'><text x='493.70' y='402.67' style='font-size: 12.80px; font-family: Georgia;' textLength='19.89px' lengthAdjust='spacingAndGlyphs'>Buf</text></g>
<g clip-path='url(#cpMC4wMHw1NzYuMDB8NDMyLjAwfDAuMDA=)'><text x='416.60' y='420.56' style='font-size: 16.00px; font-family: Georgia;' textLength='66.81px' lengthAdjust='spacingAndGlyphs'>extragent</text></g>
<g clip-path='url(#cpMC4wMHw1NzYuMDB8NDMyLjAwfDAuMDA=)'><text transform='translate(307.06,332.08) rotate(-90)' style='font-size: 16.00px; font-family: Georgia;' textLength='53.57px' lengthAdjust='spacingAndGlyphs'>.scresid</text></g>
</svg>
