<?xml version='1.0' encoding='UTF-8' ?>
<svg xmlns='http://www.w3.org/2000/svg' xmlns:xlink='http://www.w3.org/1999/xlink' viewBox='0 0 792.00 432.00'>
<defs>
  <style type='text/css'><![CDATA[
    line, polyline, polygon, path, rect, circle {
      fill: none;
      stroke: #000000;
      stroke-linecap: round;
      stroke-linejoin: round;
      stroke-miterlimit: 10.00;
    }
  ]]></style>
</defs>
<rect width='100%' height='100%' style='stroke: none; fill: #FFFFFF;'/>
<defs>
  <clipPath id='cpMC4wMHw3OTIuMDB8MjE2LjAwfDAuMDA='>
    <rect x='0.00' y='0.00' width='792.00' height='216.00' />
  </clipPath>
</defs>
<rect x='0.00' y='-0.000000000000057' width='792.00' height='216.00' style='stroke-width: 0.97; stroke: #FFFFFF; fill: #FFFFFF;' clip-path='url(#cpMC4wMHw3OTIuMDB8MjE2LjAwfDAuMDA=)' />
<defs>
  <clipPath id='cpMC4wMHw3OTIuMDB8NDMyLjAwfDAuMDA='>
    <rect x='0.00' y='0.00' width='792.00' height='432.00' />
  </clipPath>
</defs>
<defs>
  <clipPath id='cpNDcuMjN8Nzg3LjAyfDE4Mi40OXwzMi45Mw=='>
    <rect x='47.23' y='32.93' width='739.79' height='149.56' />
  </clipPath>
</defs>
<rect x='47.23' y='32.93' width='739.79' height='149.56' style='stroke-width: 0.97; stroke: none; fill: #FFFFFF;' clip-path='url(#cpNDcuMjN8Nzg3LjAyfDE4Mi40OXwzMi45Mw==)' />
<polyline points='47.23,167.85 787.02,167.85 ' style='stroke-width: 0.97; stroke: #EBEBEB; stroke-linecap: butt;' clip-path='url(#cpNDcuMjN8Nzg3LjAyfDE4Mi40OXwzMi45Mw==)' />
<polyline points='47.23,129.56 787.02,129.56 ' style='stroke-width: 0.97; stroke: #EBEBEB; stroke-linecap: butt;' clip-path='url(#cpNDcuMjN8Nzg3LjAyfDE4Mi40OXwzMi45Mw==)' />
<polyline points='47.23,91.26 787.02,91.26 ' style='stroke-width: 0.97; stroke: #EBEBEB; stroke-linecap: butt;' clip-path='url(#cpNDcuMjN8Nzg3LjAyfDE4Mi40OXwzMi45Mw==)' />
<polyline points='47.23,52.97 787.02,52.97 ' style='stroke-width: 0.97; stroke: #EBEBEB; stroke-linecap: butt;' clip-path='url(#cpNDcuMjN8Nzg3LjAyfDE4Mi40OXwzMi45Mw==)' />
<polyline points='107.95,182.49 107.95,32.93 ' style='stroke-width: 0.97; stroke: #EBEBEB; stroke-linecap: butt;' clip-path='url(#cpNDcuMjN8Nzg3LjAyfDE4Mi40OXwzMi45Mw==)' />
<polyline points='276.72,182.49 276.72,32.93 ' style='stroke-width: 0.97; stroke: #EBEBEB; stroke-linecap: butt;' clip-path='url(#cpNDcuMjN8Nzg3LjAyfDE4Mi40OXwzMi45Mw==)' />
<polyline points='445.49,182.49 445.49,32.93 ' style='stroke-width: 0.97; stroke: #EBEBEB; stroke-linecap: butt;' clip-path='url(#cpNDcuMjN8Nzg3LjAyfDE4Mi40OXwzMi45Mw==)' />
<polyline points='614.26,182.49 614.26,32.93 ' style='stroke-width: 0.97; stroke: #EBEBEB; stroke-linecap: butt;' clip-path='url(#cpNDcuMjN8Nzg3LjAyfDE4Mi40OXwzMi45Mw==)' />
<polyline points='783.03,182.49 783.03,32.93 ' style='stroke-width: 0.97; stroke: #EBEBEB; stroke-linecap: butt;' clip-path='url(#cpNDcuMjN8Nzg3LjAyfDE4Mi40OXwzMi45Mw==)' />
<polyline points='47.23,148.70 787.02,148.70 ' style='stroke-width: 0.97; stroke: #E5E5E5; stroke-linecap: butt;' clip-path='url(#cpNDcuMjN8Nzg3LjAyfDE4Mi40OXwzMi45Mw==)' />
<polyline points='47.23,110.41 787.02,110.41 ' style='stroke-width: 0.97; stroke: #E5E5E5; stroke-linecap: butt;' clip-path='url(#cpNDcuMjN8Nzg3LjAyfDE4Mi40OXwzMi45Mw==)' />
<polyline points='47.23,72.11 787.02,72.11 ' style='stroke-width: 0.97; stroke: #E5E5E5; stroke-linecap: butt;' clip-path='url(#cpNDcuMjN8Nzg3LjAyfDE4Mi40OXwzMi45Mw==)' />
<polyline points='47.23,33.82 787.02,33.82 ' style='stroke-width: 0.97; stroke: #E5E5E5; stroke-linecap: butt;' clip-path='url(#cpNDcuMjN8Nzg3LjAyfDE4Mi40OXwzMi45Mw==)' />
<polyline points='192.33,182.49 192.33,32.93 ' style='stroke-width: 0.97; stroke: #E5E5E5; stroke-linecap: butt;' clip-path='url(#cpNDcuMjN8Nzg3LjAyfDE4Mi40OXwzMi45Mw==)' />
<polyline points='361.10,182.49 361.10,32.93 ' style='stroke-width: 0.97; stroke: #E5E5E5; stroke-linecap: butt;' clip-path='url(#cpNDcuMjN8Nzg3LjAyfDE4Mi40OXwzMi45Mw==)' />
<polyline points='529.87,182.49 529.87,32.93 ' style='stroke-width: 0.97; stroke: #E5E5E5; stroke-linecap: butt;' clip-path='url(#cpNDcuMjN8Nzg3LjAyfDE4Mi40OXwzMi45Mw==)' />
<polyline points='698.64,182.49 698.64,32.93 ' style='stroke-width: 0.97; stroke: #E5E5E5; stroke-linecap: butt;' clip-path='url(#cpNDcuMjN8Nzg3LjAyfDE4Mi40OXwzMi45Mw==)' />
<polygon points='80.85,149.63 89.37,148.33 97.88,147.02 106.39,145.71 114.91,144.40 123.42,143.09 131.93,141.78 140.45,140.47 148.96,139.16 157.47,137.85 165.98,136.53 174.50,135.22 183.01,133.90 191.52,132.58 200.04,131.26 208.55,129.94 217.06,128.61 225.58,127.28 234.09,125.96 242.60,124.62 251.12,123.29 259.63,121.95 268.14,120.61 276.66,119.27 285.17,117.92 293.68,116.57 302.20,115.22 310.71,113.86 319.22,112.50 327.73,111.13 336.25,109.76 344.76,108.39 353.27,107.01 361.79,105.63 370.30,104.24 378.81,102.85 387.33,101.46 395.84,100.06 404.35,98.66 412.87,97.26 421.38,95.85 429.89,94.44 438.41,93.02 446.92,91.61 455.43,90.19 463.94,88.77 472.46,87.34 480.97,85.92 489.48,84.49 498.00,83.06 506.51,81.63 515.02,80.19 523.54,78.76 532.05,77.32 540.56,75.89 549.08,74.45 557.59,73.01 566.10,71.57 574.62,70.13 583.13,68.69 591.64,67.24 600.16,65.80 608.67,64.36 617.18,62.91 625.69,61.46 634.21,60.02 642.72,58.57 651.23,57.12 659.75,55.68 668.26,54.23 676.77,52.78 685.29,51.33 693.80,49.88 702.31,48.43 710.83,46.98 719.34,45.53 727.85,44.08 736.37,42.63 744.88,41.18 753.39,39.73 753.39,48.47 744.88,49.77 736.37,51.07 727.85,52.36 719.34,53.66 710.83,54.96 702.31,56.26 693.80,57.56 685.29,58.86 676.77,60.16 668.26,61.46 659.75,62.76 651.23,64.07 642.72,65.37 634.21,66.67 625.69,67.98 617.18,69.28 608.67,70.58 600.16,71.89 591.64,73.20 583.13,74.50 574.62,75.81 566.10,77.12 557.59,78.43 549.08,79.74 540.56,81.05 532.05,82.36 523.54,83.68 515.02,84.99 506.51,86.31 498.00,87.63 489.48,88.95 480.97,90.27 472.46,91.59 463.94,92.92 455.43,94.25 446.92,95.58 438.41,96.91 429.89,98.25 421.38,99.59 412.87,100.93 404.35,102.27 395.84,103.62 387.33,104.98 378.81,106.33 370.30,107.69 361.79,109.06 353.27,110.42 344.76,111.80 336.25,113.17 327.73,114.55 319.22,115.94 310.71,117.32 302.20,118.72 293.68,120.11 285.17,121.51 276.66,122.91 268.14,124.32 259.63,125.73 251.12,127.14 242.60,128.56 234.09,129.97 225.58,131.39 217.06,132.82 208.55,134.24 200.04,135.67 191.52,137.10 183.01,138.53 174.50,139.96 165.98,141.39 157.47,142.83 148.96,144.27 140.45,145.70 131.93,147.14 123.42,148.58 114.91,150.02 106.39,151.46 97.88,152.91 89.37,154.35 80.85,155.79 ' style='stroke-width: 0.00; stroke: none; fill: #999999; fill-opacity: 0.40;' clip-path='url(#cpNDcuMjN8Nzg3LjAyfDE4Mi40OXwzMi45Mw==)' />
<polyline points='80.85,149.63 89.37,148.33 97.88,147.02 106.39,145.71 114.91,144.40 123.42,143.09 131.93,141.78 140.45,140.47 148.96,139.16 157.47,137.85 165.98,136.53 174.50,135.22 183.01,133.90 191.52,132.58 200.04,131.26 208.55,129.94 217.06,128.61 225.58,127.28 234.09,125.96 242.60,124.62 251.12,123.29 259.63,121.95 268.14,120.61 276.66,119.27 285.17,117.92 293.68,116.57 302.20,115.22 310.71,113.86 319.22,112.50 327.73,111.13 336.25,109.76 344.76,108.39 353.27,107.01 361.79,105.63 370.30,104.24 378.81,102.85 387.33,101.46 395.84,100.06 404.35,98.66 412.87,97.26 421.38,95.85 429.89,94.44 438.41,93.02 446.92,91.61 455.43,90.19 463.94,88.77 472.46,87.34 480.97,85.92 489.48,84.49 498.00,83.06 506.51,81.63 515.02,80.19 523.54,78.76 532.05,77.32 540.56,75.89 549.08,74.45 557.59,73.01 566.10,71.57 574.62,70.13 583.13,68.69 591.64,67.24 600.16,65.80 608.67,64.36 617.18,62.91 625.69,61.46 634.21,60.02 642.72,58.57 651.23,57.12 659.75,55.68 668.26,54.23 676.77,52.78 685.29,51.33 693.80,49.88 702.31,48.43 710.83,46.98 719.34,45.53 727.85,44.08 736.37,42.63 744.88,41.18 753.39,39.73 ' style='stroke-width: 1.71; stroke: none;' clip-path='url(#cpNDcuMjN8Nzg3LjAyfDE4Mi40OXwzMi45Mw==)' />
<polyline points='753.39,48.47 744.88,49.77 736.37,51.07 727.85,52.36 719.34,53.66 710.83,54.96 702.31,56.26 693.80,57.56 685.29,58.86 676.77,60.16 668.26,61.46 659.75,62.76 651.23,64.07 642.72,65.37 634.21,66.67 625.69,67.98 617.18,69.28 608.67,70.58 600.16,71.89 591.64,73.20 583.13,74.50 574.62,75.81 566.10,77.12 557.59,78.43 549.08,79.74 540.56,81.05 532.05,82.36 523.54,83.68 515.02,84.99 506.51,86.31 498.00,87.63 489.48,88.95 480.97,90.27 472.46,91.59 463.94,92.92 455.43,94.25 446.92,95.58 438.41,96.91 429.89,98.25 421.38,99.59 412.87,100.93 404.35,102.27 395.84,103.62 387.33,104.98 378.81,106.33 370.30,107.69 361.79,109.06 353.27,110.42 344.76,111.80 336.25,113.17 327.73,114.55 319.22,115.94 310.71,117.32 302.20,118.72 293.68,120.11 285.17,121.51 276.66,122.91 268.14,124.32 259.63,125.73 251.12,127.14 242.60,128.56 234.09,129.97 225.58,131.39 217.06,132.82 208.55,134.24 200.04,135.67 191.52,137.10 183.01,138.53 174.50,139.96 165.98,141.39 157.47,142.83 148.96,144.27 140.45,145.70 131.93,147.14 123.42,148.58 114.91,150.02 106.39,151.46 97.88,152.91 89.37,154.35 80.85,155.79 ' style='stroke-width: 1.71; stroke: none;' clip-path='url(#cpNDcuMjN8Nzg3LjAyfDE4Mi40OXwzMi45Mw==)' />
<polyline points='80.85,152.71 89.37,151.34 97.88,149.96 106.39,148.59 114.91,147.21 123.42,145.84 131.93,144.46 140.45,143.09 148.96,141.71 157.47,140.34 165.98,138.96 174.50,137.59 183.01,136.21 191.52,134.84 200.04,133.46 208.55,132.09 217.06,130.71 225.58,129.34 234.09,127.96 242.60,126.59 251.12,125.22 259.63,123.84 268.14,122.47 276.66,121.09 285.17,119.72 293.68,118.34 302.20,116.97 310.71,115.59 319.22,114.22 327.73,112.84 336.25,111.47 344.76,110.09 353.27,108.72 361.79,107.34 370.30,105.97 378.81,104.59 387.33,103.22 395.84,101.84 404.35,100.47 412.87,99.09 421.38,97.72 429.89,96.34 438.41,94.97 446.92,93.59 455.43,92.22 463.94,90.84 472.46,89.47 480.97,88.09 489.48,86.72 498.00,85.34 506.51,83.97 515.02,82.59 523.54,81.22 532.05,79.84 540.56,78.47 549.08,77.09 557.59,75.72 566.10,74.34 574.62,72.97 583.13,71.59 591.64,70.22 600.16,68.84 608.67,67.47 617.18,66.10 625.69,64.72 634.21,63.35 642.72,61.97 651.23,60.60 659.75,59.22 668.26,57.85 676.77,56.47 685.29,55.10 693.80,53.72 702.31,52.35 710.83,50.97 719.34,49.60 727.85,48.22 736.37,46.85 744.88,45.47 753.39,44.10 ' style='stroke-width: 1.71; stroke: #16A085; stroke-linecap: butt;' clip-path='url(#cpNDcuMjN8Nzg3LjAyfDE4Mi40OXwzMi45Mw==)' />
<circle cx='80.85' cy='175.69' r='2.13' style='stroke-width: 0.00; stroke: none; fill: #2C3E50;' clip-path='url(#cpNDcuMjN8Nzg3LjAyfDE4Mi40OXwzMi45Mw==)' />
<circle cx='93.30' cy='163.15' r='2.13' style='stroke-width: 0.00; stroke: none; fill: #2C3E50;' clip-path='url(#cpNDcuMjN8Nzg3LjAyfDE4Mi40OXwzMi45Mw==)' />
<circle cx='130.98' cy='156.64' r='2.13' style='stroke-width: 0.00; stroke: none; fill: #2C3E50;' clip-path='url(#cpNDcuMjN8Nzg3LjAyfDE4Mi40OXwzMi45Mw==)' />
<circle cx='140.17' cy='154.69' r='2.13' style='stroke-width: 0.00; stroke: none; fill: #2C3E50;' clip-path='url(#cpNDcuMjN8Nzg3LjAyfDE4Mi40OXwzMi45Mw==)' />
<circle cx='142.52' cy='153.74' r='2.13' style='stroke-width: 0.00; stroke: none; fill: #2C3E50;' clip-path='url(#cpNDcuMjN8Nzg3LjAyfDE4Mi40OXwzMi45Mw==)' />
<circle cx='145.43' cy='152.44' r='2.13' style='stroke-width: 0.00; stroke: none; fill: #2C3E50;' clip-path='url(#cpNDcuMjN8Nzg3LjAyfDE4Mi40OXwzMi45Mw==)' />
<circle cx='146.38' cy='146.43' r='2.13' style='stroke-width: 0.00; stroke: none; fill: #2C3E50;' clip-path='url(#cpNDcuMjN8Nzg3LjAyfDE4Mi40OXwzMi45Mw==)' />
<circle cx='148.98' cy='145.48' r='2.13' style='stroke-width: 0.00; stroke: none; fill: #2C3E50;' clip-path='url(#cpNDcuMjN8Nzg3LjAyfDE4Mi40OXwzMi45Mw==)' />
<circle cx='151.64' cy='141.64' r='2.13' style='stroke-width: 0.00; stroke: none; fill: #2C3E50;' clip-path='url(#cpNDcuMjN8Nzg3LjAyfDE4Mi40OXwzMi45Mw==)' />
<circle cx='159.57' cy='139.96' r='2.13' style='stroke-width: 0.00; stroke: none; fill: #2C3E50;' clip-path='url(#cpNDcuMjN8Nzg3LjAyfDE4Mi40OXwzMi45Mw==)' />
<circle cx='160.65' cy='136.79' r='2.13' style='stroke-width: 0.00; stroke: none; fill: #2C3E50;' clip-path='url(#cpNDcuMjN8Nzg3LjAyfDE4Mi40OXwzMi45Mw==)' />
<circle cx='166.33' cy='136.43' r='2.13' style='stroke-width: 0.00; stroke: none; fill: #2C3E50;' clip-path='url(#cpNDcuMjN8Nzg3LjAyfDE4Mi40OXwzMi45Mw==)' />
<circle cx='177.91' cy='133.66' r='2.13' style='stroke-width: 0.00; stroke: none; fill: #2C3E50;' clip-path='url(#cpNDcuMjN8Nzg3LjAyfDE4Mi40OXwzMi45Mw==)' />
<circle cx='179.08' cy='133.52' r='2.13' style='stroke-width: 0.00; stroke: none; fill: #2C3E50;' clip-path='url(#cpNDcuMjN8Nzg3LjAyfDE4Mi40OXwzMi45Mw==)' />
<circle cx='180.80' cy='133.44' r='2.13' style='stroke-width: 0.00; stroke: none; fill: #2C3E50;' clip-path='url(#cpNDcuMjN8Nzg3LjAyfDE4Mi40OXwzMi45Mw==)' />
<circle cx='190.38' cy='132.13' r='2.13' style='stroke-width: 0.00; stroke: none; fill: #2C3E50;' clip-path='url(#cpNDcuMjN8Nzg3LjAyfDE4Mi40OXwzMi45Mw==)' />
<circle cx='199.29' cy='131.57' r='2.13' style='stroke-width: 0.00; stroke: none; fill: #2C3E50;' clip-path='url(#cpNDcuMjN8Nzg3LjAyfDE4Mi40OXwzMi45Mw==)' />
<circle cx='204.73' cy='130.87' r='2.13' style='stroke-width: 0.00; stroke: none; fill: #2C3E50;' clip-path='url(#cpNDcuMjN8Nzg3LjAyfDE4Mi40OXwzMi45Mw==)' />
<circle cx='207.05' cy='124.35' r='2.13' style='stroke-width: 0.00; stroke: none; fill: #2C3E50;' clip-path='url(#cpNDcuMjN8Nzg3LjAyfDE4Mi40OXwzMi45Mw==)' />
<circle cx='223.47' cy='120.94' r='2.13' style='stroke-width: 0.00; stroke: none; fill: #2C3E50;' clip-path='url(#cpNDcuMjN8Nzg3LjAyfDE4Mi40OXwzMi45Mw==)' />
<circle cx='237.94' cy='120.38' r='2.13' style='stroke-width: 0.00; stroke: none; fill: #2C3E50;' clip-path='url(#cpNDcuMjN8Nzg3LjAyfDE4Mi40OXwzMi45Mw==)' />
<circle cx='249.78' cy='119.57' r='2.13' style='stroke-width: 0.00; stroke: none; fill: #2C3E50;' clip-path='url(#cpNDcuMjN8Nzg3LjAyfDE4Mi40OXwzMi45Mw==)' />
<circle cx='249.93' cy='118.29' r='2.13' style='stroke-width: 0.00; stroke: none; fill: #2C3E50;' clip-path='url(#cpNDcuMjN8Nzg3LjAyfDE4Mi40OXwzMi45Mw==)' />
<circle cx='264.86' cy='115.24' r='2.13' style='stroke-width: 0.00; stroke: none; fill: #2C3E50;' clip-path='url(#cpNDcuMjN8Nzg3LjAyfDE4Mi40OXwzMi45Mw==)' />
<circle cx='287.48' cy='111.92' r='2.13' style='stroke-width: 0.00; stroke: none; fill: #2C3E50;' clip-path='url(#cpNDcuMjN8Nzg3LjAyfDE4Mi40OXwzMi45Mw==)' />
<circle cx='301.44' cy='111.61' r='2.13' style='stroke-width: 0.00; stroke: none; fill: #2C3E50;' clip-path='url(#cpNDcuMjN8Nzg3LjAyfDE4Mi40OXwzMi45Mw==)' />
<circle cx='306.45' cy='109.98' r='2.13' style='stroke-width: 0.00; stroke: none; fill: #2C3E50;' clip-path='url(#cpNDcuMjN8Nzg3LjAyfDE4Mi40OXwzMi45Mw==)' />
<circle cx='312.96' cy='109.12' r='2.13' style='stroke-width: 0.00; stroke: none; fill: #2C3E50;' clip-path='url(#cpNDcuMjN8Nzg3LjAyfDE4Mi40OXwzMi45Mw==)' />
<circle cx='328.15' cy='107.66' r='2.13' style='stroke-width: 0.00; stroke: none; fill: #2C3E50;' clip-path='url(#cpNDcuMjN8Nzg3LjAyfDE4Mi40OXwzMi45Mw==)' />
<circle cx='333.52' cy='107.34' r='2.13' style='stroke-width: 0.00; stroke: none; fill: #2C3E50;' clip-path='url(#cpNDcuMjN8Nzg3LjAyfDE4Mi40OXwzMi45Mw==)' />
<circle cx='341.59' cy='104.76' r='2.13' style='stroke-width: 0.00; stroke: none; fill: #2C3E50;' clip-path='url(#cpNDcuMjN8Nzg3LjAyfDE4Mi40OXwzMi45Mw==)' />
<circle cx='343.04' cy='104.49' r='2.13' style='stroke-width: 0.00; stroke: none; fill: #2C3E50;' clip-path='url(#cpNDcuMjN8Nzg3LjAyfDE4Mi40OXwzMi45Mw==)' />
<circle cx='375.54' cy='103.96' r='2.13' style='stroke-width: 0.00; stroke: none; fill: #2C3E50;' clip-path='url(#cpNDcuMjN8Nzg3LjAyfDE4Mi40OXwzMi45Mw==)' />
<circle cx='383.54' cy='103.23' r='2.13' style='stroke-width: 0.00; stroke: none; fill: #2C3E50;' clip-path='url(#cpNDcuMjN8Nzg3LjAyfDE4Mi40OXwzMi45Mw==)' />
<circle cx='388.01' cy='103.11' r='2.13' style='stroke-width: 0.00; stroke: none; fill: #2C3E50;' clip-path='url(#cpNDcuMjN8Nzg3LjAyfDE4Mi40OXwzMi45Mw==)' />
<circle cx='392.36' cy='102.96' r='2.13' style='stroke-width: 0.00; stroke: none; fill: #2C3E50;' clip-path='url(#cpNDcuMjN8Nzg3LjAyfDE4Mi40OXwzMi45Mw==)' />
<circle cx='400.49' cy='102.59' r='2.13' style='stroke-width: 0.00; stroke: none; fill: #2C3E50;' clip-path='url(#cpNDcuMjN8Nzg3LjAyfDE4Mi40OXwzMi45Mw==)' />
<circle cx='401.08' cy='101.82' r='2.13' style='stroke-width: 0.00; stroke: none; fill: #2C3E50;' clip-path='url(#cpNDcuMjN8Nzg3LjAyfDE4Mi40OXwzMi45Mw==)' />
<circle cx='423.95' cy='98.42' r='2.13' style='stroke-width: 0.00; stroke: none; fill: #2C3E50;' clip-path='url(#cpNDcuMjN8Nzg3LjAyfDE4Mi40OXwzMi45Mw==)' />
<circle cx='432.11' cy='96.97' r='2.13' style='stroke-width: 0.00; stroke: none; fill: #2C3E50;' clip-path='url(#cpNDcuMjN8Nzg3LjAyfDE4Mi40OXwzMi45Mw==)' />
<circle cx='432.44' cy='96.28' r='2.13' style='stroke-width: 0.00; stroke: none; fill: #2C3E50;' clip-path='url(#cpNDcuMjN8Nzg3LjAyfDE4Mi40OXwzMi45Mw==)' />
<circle cx='450.55' cy='91.83' r='2.13' style='stroke-width: 0.00; stroke: none; fill: #2C3E50;' clip-path='url(#cpNDcuMjN8Nzg3LjAyfDE4Mi40OXwzMi45Mw==)' />
<circle cx='457.02' cy='90.22' r='2.13' style='stroke-width: 0.00; stroke: none; fill: #2C3E50;' clip-path='url(#cpNDcuMjN8Nzg3LjAyfDE4Mi40OXwzMi45Mw==)' />
<circle cx='457.46' cy='88.68' r='2.13' style='stroke-width: 0.00; stroke: none; fill: #2C3E50;' clip-path='url(#cpNDcuMjN8Nzg3LjAyfDE4Mi40OXwzMi45Mw==)' />
<circle cx='466.34' cy='85.75' r='2.13' style='stroke-width: 0.00; stroke: none; fill: #2C3E50;' clip-path='url(#cpNDcuMjN8Nzg3LjAyfDE4Mi40OXwzMi45Mw==)' />
<circle cx='478.46' cy='83.63' r='2.13' style='stroke-width: 0.00; stroke: none; fill: #2C3E50;' clip-path='url(#cpNDcuMjN8Nzg3LjAyfDE4Mi40OXwzMi45Mw==)' />
<circle cx='479.03' cy='82.24' r='2.13' style='stroke-width: 0.00; stroke: none; fill: #2C3E50;' clip-path='url(#cpNDcuMjN8Nzg3LjAyfDE4Mi40OXwzMi45Mw==)' />
<circle cx='575.45' cy='79.51' r='2.13' style='stroke-width: 0.00; stroke: none; fill: #2C3E50;' clip-path='url(#cpNDcuMjN8Nzg3LjAyfDE4Mi40OXwzMi45Mw==)' />
<circle cx='578.69' cy='77.22' r='2.13' style='stroke-width: 0.00; stroke: none; fill: #2C3E50;' clip-path='url(#cpNDcuMjN8Nzg3LjAyfDE4Mi40OXwzMi45Mw==)' />
<circle cx='599.43' cy='75.40' r='2.13' style='stroke-width: 0.00; stroke: none; fill: #2C3E50;' clip-path='url(#cpNDcuMjN8Nzg3LjAyfDE4Mi40OXwzMi45Mw==)' />
<circle cx='601.69' cy='71.27' r='2.13' style='stroke-width: 0.00; stroke: none; fill: #2C3E50;' clip-path='url(#cpNDcuMjN8Nzg3LjAyfDE4Mi40OXwzMi45Mw==)' />
<circle cx='618.10' cy='70.51' r='2.13' style='stroke-width: 0.00; stroke: none; fill: #2C3E50;' clip-path='url(#cpNDcuMjN8Nzg3LjAyfDE4Mi40OXwzMi45Mw==)' />
<circle cx='635.85' cy='64.80' r='2.13' style='stroke-width: 0.00; stroke: none; fill: #2C3E50;' clip-path='url(#cpNDcuMjN8Nzg3LjAyfDE4Mi40OXwzMi45Mw==)' />
<circle cx='638.34' cy='63.33' r='2.13' style='stroke-width: 0.00; stroke: none; fill: #2C3E50;' clip-path='url(#cpNDcuMjN8Nzg3LjAyfDE4Mi40OXwzMi45Mw==)' />
<circle cx='663.15' cy='61.75' r='2.13' style='stroke-width: 0.00; stroke: none; fill: #2C3E50;' clip-path='url(#cpNDcuMjN8Nzg3LjAyfDE4Mi40OXwzMi45Mw==)' />
<circle cx='670.00' cy='59.22' r='2.13' style='stroke-width: 0.00; stroke: none; fill: #2C3E50;' clip-path='url(#cpNDcuMjN8Nzg3LjAyfDE4Mi40OXwzMi45Mw==)' />
<circle cx='753.39' cy='54.73' r='2.13' style='stroke-width: 0.00; stroke: none; fill: #2C3E50;' clip-path='url(#cpNDcuMjN8Nzg3LjAyfDE4Mi40OXwzMi45Mw==)' />
<defs>
  <clipPath id='cpMC4wMHw3OTIuMDB8NDMyLjAwfDAuMDA='>
    <rect x='0.00' y='0.00' width='792.00' height='432.00' />
  </clipPath>
</defs>
<polyline points='47.23,182.49 47.23,32.93 ' style='stroke-width: 0.97; stroke: #CCCCCC; stroke-linecap: butt;' clip-path='url(#cpMC4wMHw3OTIuMDB8NDMyLjAwfDAuMDA=)' />
<g clip-path='url(#cpMC4wMHw3OTIuMDB8NDMyLjAwfDAuMDA=)'><text x='19.95' y='152.14' style='font-size: 10.00px; fill: #7F7F7F; font-family: Liberation Sans;' textLength='22.79px' lengthAdjust='spacingAndGlyphs'>-0.03</text></g>
<g clip-path='url(#cpMC4wMHw3OTIuMDB8NDMyLjAwfDAuMDA=)'><text x='23.28' y='113.85' style='font-size: 10.00px; fill: #7F7F7F; font-family: Liberation Sans;' textLength='19.46px' lengthAdjust='spacingAndGlyphs'>0.00</text></g>
<g clip-path='url(#cpMC4wMHw3OTIuMDB8NDMyLjAwfDAuMDA=)'><text x='23.28' y='75.55' style='font-size: 10.00px; fill: #7F7F7F; font-family: Liberation Sans;' textLength='19.46px' lengthAdjust='spacingAndGlyphs'>0.03</text></g>
<g clip-path='url(#cpMC4wMHw3OTIuMDB8NDMyLjAwfDAuMDA=)'><text x='23.28' y='37.26' style='font-size: 10.00px; fill: #7F7F7F; font-family: Liberation Sans;' textLength='19.46px' lengthAdjust='spacingAndGlyphs'>0.06</text></g>
<polyline points='47.23,182.49 787.02,182.49 ' style='stroke-width: 0.97; stroke: #CCCCCC; stroke-linecap: butt;' clip-path='url(#cpMC4wMHw3OTIuMDB8NDMyLjAwfDAuMDA=)' />
<g clip-path='url(#cpMC4wMHw3OTIuMDB8NDMyLjAwfDAuMDA=)'><text x='185.38' y='193.85' style='font-size: 10.00px; fill: #7F7F7F; font-family: Liberation Sans;' textLength='13.90px' lengthAdjust='spacingAndGlyphs'>0.1</text></g>
<g clip-path='url(#cpMC4wMHw3OTIuMDB8NDMyLjAwfDAuMDA=)'><text x='354.15' y='193.85' style='font-size: 10.00px; fill: #7F7F7F; font-family: Liberation Sans;' textLength='13.90px' lengthAdjust='spacingAndGlyphs'>0.2</text></g>
<g clip-path='url(#cpMC4wMHw3OTIuMDB8NDMyLjAwfDAuMDA=)'><text x='522.92' y='193.85' style='font-size: 10.00px; fill: #7F7F7F; font-family: Liberation Sans;' textLength='13.90px' lengthAdjust='spacingAndGlyphs'>0.3</text></g>
<g clip-path='url(#cpMC4wMHw3OTIuMDB8NDMyLjAwfDAuMDA=)'><text x='691.69' y='193.85' style='font-size: 10.00px; fill: #7F7F7F; font-family: Liberation Sans;' textLength='13.90px' lengthAdjust='spacingAndGlyphs'>0.4</text></g>
<g clip-path='url(#cpMC4wMHw3OTIuMDB8NDMyLjAwfDAuMDA=)'><text x='365.15' y='208.60' style='font-size: 11.00px; fill: #4D4D4D; font-family: Liberation Sans;' textLength='103.94px' lengthAdjust='spacingAndGlyphs'>Theoretical Quantiles</text></g>
<g clip-path='url(#cpMC4wMHw3OTIuMDB8NDMyLjAwfDAuMDA=)'><text transform='translate(12.55,166.10) rotate(-90)' style='font-size: 11.00px; fill: #4D4D4D; font-family: Liberation Sans;' textLength='116.78px' lengthAdjust='spacingAndGlyphs'>(Studentized) Residuals</text></g>
<g clip-path='url(#cpMC4wMHw3OTIuMDB8NDMyLjAwfDAuMDA=)'><text x='47.23' y='25.75' style='font-size: 10.00px; font-family: Liberation Sans;' textLength='161.78px' lengthAdjust='spacingAndGlyphs'>Dots should be plotted along the line</text></g>
<g clip-path='url(#cpMC4wMHw3OTIuMDB8NDMyLjAwfDAuMDA=)'><text x='47.23' y='13.24' style='font-size: 12.00px; font-family: Liberation Sans;' textLength='212.09px' lengthAdjust='spacingAndGlyphs'>Non-normality of Residuals and Outliers</text></g>
<defs>
  <clipPath id='cpMC4wMHw3OTIuMDB8NDMyLjAwfDIxNi4wMA=='>
    <rect x='0.000000000000050' y='216.00' width='792.00' height='216.00' />
  </clipPath>
</defs>
<rect x='0.000000000000064' y='216.00' width='792.00' height='216.00' style='stroke-width: 0.97; stroke: #FFFFFF; fill: #FFFFFF;' clip-path='url(#cpMC4wMHw3OTIuMDB8NDMyLjAwfDIxNi4wMA==)' />
<defs>
  <clipPath id='cpMC4wMHw3OTIuMDB8NDMyLjAwfDAuMDA='>
    <rect x='0.00' y='0.00' width='792.00' height='432.00' />
  </clipPath>
</defs>
<defs>
  <clipPath id='cpNDQuMTd8Mzk4LjIxfDM5OC4xOXwyNjQuNDA='>
    <rect x='44.17' y='264.40' width='354.04' height='133.79' />
  </clipPath>
</defs>
<rect x='44.17' y='264.40' width='354.04' height='133.79' style='stroke-width: 0.97; stroke: none; fill: #FFFFFF;' clip-path='url(#cpNDQuMTd8Mzk4LjIxfDM5OC4xOXwyNjQuNDA=)' />
<polyline points='44.17,388.59 398.21,388.59 ' style='stroke-width: 0.97; stroke: #EBEBEB; stroke-linecap: butt;' clip-path='url(#cpNDQuMTd8Mzk4LjIxfDM5OC4xOXwyNjQuNDA=)' />
<polyline points='44.17,346.18 398.21,346.18 ' style='stroke-width: 0.97; stroke: #EBEBEB; stroke-linecap: butt;' clip-path='url(#cpNDQuMTd8Mzk4LjIxfDM5OC4xOXwyNjQuNDA=)' />
<polyline points='44.17,303.76 398.21,303.76 ' style='stroke-width: 0.97; stroke: #EBEBEB; stroke-linecap: butt;' clip-path='url(#cpNDQuMTd8Mzk4LjIxfDM5OC4xOXwyNjQuNDA=)' />
<polyline points='96.63,398.19 96.63,264.40 ' style='stroke-width: 0.97; stroke: #EBEBEB; stroke-linecap: butt;' clip-path='url(#cpNDQuMTd8Mzk4LjIxfDM5OC4xOXwyNjQuNDA=)' />
<polyline points='179.67,398.19 179.67,264.40 ' style='stroke-width: 0.97; stroke: #EBEBEB; stroke-linecap: butt;' clip-path='url(#cpNDQuMTd8Mzk4LjIxfDM5OC4xOXwyNjQuNDA=)' />
<polyline points='262.71,398.19 262.71,264.40 ' style='stroke-width: 0.97; stroke: #EBEBEB; stroke-linecap: butt;' clip-path='url(#cpNDQuMTd8Mzk4LjIxfDM5OC4xOXwyNjQuNDA=)' />
<polyline points='345.76,398.19 345.76,264.40 ' style='stroke-width: 0.97; stroke: #EBEBEB; stroke-linecap: butt;' clip-path='url(#cpNDQuMTd8Mzk4LjIxfDM5OC4xOXwyNjQuNDA=)' />
<polyline points='44.17,367.38 398.21,367.38 ' style='stroke-width: 0.97; stroke: #E5E5E5; stroke-linecap: butt;' clip-path='url(#cpNDQuMTd8Mzk4LjIxfDM5OC4xOXwyNjQuNDA=)' />
<polyline points='44.17,324.97 398.21,324.97 ' style='stroke-width: 0.97; stroke: #E5E5E5; stroke-linecap: butt;' clip-path='url(#cpNDQuMTd8Mzk4LjIxfDM5OC4xOXwyNjQuNDA=)' />
<polyline points='44.17,282.55 398.21,282.55 ' style='stroke-width: 0.97; stroke: #E5E5E5; stroke-linecap: butt;' clip-path='url(#cpNDQuMTd8Mzk4LjIxfDM5OC4xOXwyNjQuNDA=)' />
<polyline points='55.11,398.19 55.11,264.40 ' style='stroke-width: 0.97; stroke: #E5E5E5; stroke-linecap: butt;' clip-path='url(#cpNDQuMTd8Mzk4LjIxfDM5OC4xOXwyNjQuNDA=)' />
<polyline points='138.15,398.19 138.15,264.40 ' style='stroke-width: 0.97; stroke: #E5E5E5; stroke-linecap: butt;' clip-path='url(#cpNDQuMTd8Mzk4LjIxfDM5OC4xOXwyNjQuNDA=)' />
<polyline points='221.19,398.19 221.19,264.40 ' style='stroke-width: 0.97; stroke: #E5E5E5; stroke-linecap: butt;' clip-path='url(#cpNDQuMTd8Mzk4LjIxfDM5OC4xOXwyNjQuNDA=)' />
<polyline points='304.23,398.19 304.23,264.40 ' style='stroke-width: 0.97; stroke: #E5E5E5; stroke-linecap: butt;' clip-path='url(#cpNDQuMTd8Mzk4LjIxfDM5OC4xOXwyNjQuNDA=)' />
<polyline points='387.28,398.19 387.28,264.40 ' style='stroke-width: 0.97; stroke: #E5E5E5; stroke-linecap: butt;' clip-path='url(#cpNDQuMTd8Mzk4LjIxfDM5OC4xOXwyNjQuNDA=)' />
<polygon points='60.27,356.21 64.34,355.40 68.41,354.58 72.49,353.76 76.56,352.94 80.64,352.12 84.71,351.29 88.79,350.47 92.86,349.65 96.93,348.82 101.01,348.00 105.08,347.17 109.16,346.34 113.23,345.51 117.30,344.68 121.38,343.85 125.45,343.02 129.53,342.19 133.60,341.35 137.67,340.51 141.75,339.67 145.82,338.83 149.90,337.98 153.97,337.13 158.05,336.28 162.12,335.43 166.19,334.57 170.27,333.71 174.34,332.85 178.42,331.98 182.49,331.11 186.56,330.23 190.64,329.35 194.71,328.47 198.79,327.57 202.86,326.68 206.93,325.77 211.01,324.86 215.08,323.95 219.16,323.03 223.23,322.10 227.30,321.17 231.38,320.23 235.45,319.28 239.53,318.33 243.60,317.37 247.68,316.41 251.75,315.44 255.82,314.47 259.90,313.49 263.97,312.51 268.05,311.52 272.12,310.53 276.19,309.54 280.27,308.54 284.34,307.54 288.42,306.53 292.49,305.53 296.56,304.52 300.64,303.51 304.71,302.49 308.79,301.48 312.86,300.46 316.94,299.44 321.01,298.42 325.08,297.39 329.16,296.37 333.23,295.34 337.31,294.32 341.38,293.29 345.45,292.26 349.53,291.23 353.60,290.20 357.68,289.17 361.75,288.13 365.82,287.10 369.90,286.07 373.97,285.03 378.05,283.99 382.12,282.96 382.12,293.72 378.05,294.54 373.97,295.36 369.90,296.18 365.82,297.00 361.75,297.82 357.68,298.64 353.60,299.47 349.53,300.29 345.45,301.12 341.38,301.94 337.31,302.77 333.23,303.59 329.16,304.42 325.08,305.25 321.01,306.08 316.94,306.92 312.86,307.75 308.79,308.59 304.71,309.43 300.64,310.27 296.56,311.11 292.49,311.96 288.42,312.80 284.34,313.65 280.27,314.51 276.19,315.36 272.12,316.22 268.05,317.09 263.97,317.96 259.90,318.83 255.82,319.70 251.75,320.59 247.68,321.47 243.60,322.36 239.53,323.26 235.45,324.16 231.38,325.07 227.30,325.99 223.23,326.91 219.16,327.84 215.08,328.77 211.01,329.71 206.93,330.66 202.86,331.61 198.79,332.56 194.71,333.53 190.64,334.50 186.56,335.47 182.49,336.45 178.42,337.43 174.34,338.42 170.27,339.41 166.19,340.40 162.12,341.40 158.05,342.40 153.97,343.40 149.90,344.41 145.82,345.42 141.75,346.43 137.67,347.45 133.60,348.46 129.53,349.48 125.45,350.50 121.38,351.52 117.30,352.54 113.23,353.57 109.16,354.59 105.08,355.62 101.01,356.65 96.93,357.68 92.86,358.71 88.79,359.74 84.71,360.77 80.64,361.80 76.56,362.84 72.49,363.87 68.41,364.91 64.34,365.94 60.27,366.98 ' style='stroke-width: 0.00; stroke: none; fill: #999999; fill-opacity: 0.20;' clip-path='url(#cpNDQuMTd8Mzk4LjIxfDM5OC4xOXwyNjQuNDA=)' />
<polyline points='60.27,356.21 64.34,355.40 68.41,354.58 72.49,353.76 76.56,352.94 80.64,352.12 84.71,351.29 88.79,350.47 92.86,349.65 96.93,348.82 101.01,348.00 105.08,347.17 109.16,346.34 113.23,345.51 117.30,344.68 121.38,343.85 125.45,343.02 129.53,342.19 133.60,341.35 137.67,340.51 141.75,339.67 145.82,338.83 149.90,337.98 153.97,337.13 158.05,336.28 162.12,335.43 166.19,334.57 170.27,333.71 174.34,332.85 178.42,331.98 182.49,331.11 186.56,330.23 190.64,329.35 194.71,328.47 198.79,327.57 202.86,326.68 206.93,325.77 211.01,324.86 215.08,323.95 219.16,323.03 223.23,322.10 227.30,321.17 231.38,320.23 235.45,319.28 239.53,318.33 243.60,317.37 247.68,316.41 251.75,315.44 255.82,314.47 259.90,313.49 263.97,312.51 268.05,311.52 272.12,310.53 276.19,309.54 280.27,308.54 284.34,307.54 288.42,306.53 292.49,305.53 296.56,304.52 300.64,303.51 304.71,302.49 308.79,301.48 312.86,300.46 316.94,299.44 321.01,298.42 325.08,297.39 329.16,296.37 333.23,295.34 337.31,294.32 341.38,293.29 345.45,292.26 349.53,291.23 353.60,290.20 357.68,289.17 361.75,288.13 365.82,287.10 369.90,286.07 373.97,285.03 378.05,283.99 382.12,282.96 ' style='stroke-width: 1.71; stroke: none;' clip-path='url(#cpNDQuMTd8Mzk4LjIxfDM5OC4xOXwyNjQuNDA=)' />
<polyline points='382.12,293.72 378.05,294.54 373.97,295.36 369.90,296.18 365.82,297.00 361.75,297.82 357.68,298.64 353.60,299.47 349.53,300.29 345.45,301.12 341.38,301.94 337.31,302.77 333.23,303.59 329.16,304.42 325.08,305.25 321.01,306.08 316.94,306.92 312.86,307.75 308.79,308.59 304.71,309.43 300.64,310.27 296.56,311.11 292.49,311.96 288.42,312.80 284.34,313.65 280.27,314.51 276.19,315.36 272.12,316.22 268.05,317.09 263.97,317.96 259.90,318.83 255.82,319.70 251.75,320.59 247.68,321.47 243.60,322.36 239.53,323.26 235.45,324.16 231.38,325.07 227.30,325.99 223.23,326.91 219.16,327.84 215.08,328.77 211.01,329.71 206.93,330.66 202.86,331.61 198.79,332.56 194.71,333.53 190.64,334.50 186.56,335.47 182.49,336.45 178.42,337.43 174.34,338.42 170.27,339.41 166.19,340.40 162.12,341.40 158.05,342.40 153.97,343.40 149.90,344.41 145.82,345.42 141.75,346.43 137.67,347.45 133.60,348.46 129.53,349.48 125.45,350.50 121.38,351.52 117.30,352.54 113.23,353.57 109.16,354.59 105.08,355.62 101.01,356.65 96.93,357.68 92.86,358.71 88.79,359.74 84.71,360.77 80.64,361.80 76.56,362.84 72.49,363.87 68.41,364.91 64.34,365.94 60.27,366.98 ' style='stroke-width: 1.71; stroke: none;' clip-path='url(#cpNDQuMTd8Mzk4LjIxfDM5OC4xOXwyNjQuNDA=)' />
<polyline points='60.27,361.60 64.34,360.67 68.41,359.74 72.49,358.81 76.56,357.89 80.64,356.96 84.71,356.03 88.79,355.11 92.86,354.18 96.93,353.25 101.01,352.32 105.08,351.40 109.16,350.47 113.23,349.54 117.30,348.61 121.38,347.69 125.45,346.76 129.53,345.83 133.60,344.91 137.67,343.98 141.75,343.05 145.82,342.12 149.90,341.20 153.97,340.27 158.05,339.34 162.12,338.41 166.19,337.49 170.27,336.56 174.34,335.63 178.42,334.71 182.49,333.78 186.56,332.85 190.64,331.92 194.71,331.00 198.79,330.07 202.86,329.14 206.93,328.21 211.01,327.29 215.08,326.36 219.16,325.43 223.23,324.51 227.30,323.58 231.38,322.65 235.45,321.72 239.53,320.80 243.60,319.87 247.68,318.94 251.75,318.01 255.82,317.09 259.90,316.16 263.97,315.23 268.05,314.31 272.12,313.38 276.19,312.45 280.27,311.52 284.34,310.60 288.42,309.67 292.49,308.74 296.56,307.81 300.64,306.89 304.71,305.96 308.79,305.03 312.86,304.11 316.94,303.18 321.01,302.25 325.08,301.32 329.16,300.40 333.23,299.47 337.31,298.54 341.38,297.61 345.45,296.69 349.53,295.76 353.60,294.83 357.68,293.91 361.75,292.98 365.82,292.05 369.90,291.12 373.97,290.20 378.05,289.27 382.12,288.34 ' style='stroke-width: 1.71; stroke: #16A085; stroke-linecap: butt;' clip-path='url(#cpNDQuMTd8Mzk4LjIxfDM5OC4xOXwyNjQuNDA=)' />
<polyline points='60.27,333.10 60.27,333.10 ' style='stroke-width: 1.07; stroke: #2C3E50; stroke-linecap: butt;' clip-path='url(#cpNDQuMTd8Mzk4LjIxfDM5OC4xOXwyNjQuNDA=)' />
<polyline points='60.27,333.10 60.27,392.11 ' style='stroke-width: 1.07; stroke: #2C3E50; stroke-linecap: butt;' clip-path='url(#cpNDQuMTd8Mzk4LjIxfDM5OC4xOXwyNjQuNDA=)' />
<polyline points='60.27,392.11 60.27,392.11 ' style='stroke-width: 1.07; stroke: #2C3E50; stroke-linecap: butt;' clip-path='url(#cpNDQuMTd8Mzk4LjIxfDM5OC4xOXwyNjQuNDA=)' />
<polyline points='103.92,325.39 103.92,325.39 ' style='stroke-width: 1.07; stroke: #2C3E50; stroke-linecap: butt;' clip-path='url(#cpNDQuMTd8Mzk4LjIxfDM5OC4xOXwyNjQuNDA=)' />
<polyline points='103.92,325.39 103.92,384.39 ' style='stroke-width: 1.07; stroke: #2C3E50; stroke-linecap: butt;' clip-path='url(#cpNDQuMTd8Mzk4LjIxfDM5OC4xOXwyNjQuNDA=)' />
<polyline points='103.92,384.39 103.92,384.39 ' style='stroke-width: 1.07; stroke: #2C3E50; stroke-linecap: butt;' clip-path='url(#cpNDQuMTd8Mzk4LjIxfDM5OC4xOXwyNjQuNDA=)' />
<polyline points='128.27,318.34 128.27,318.34 ' style='stroke-width: 1.07; stroke: #2C3E50; stroke-linecap: butt;' clip-path='url(#cpNDQuMTd8Mzk4LjIxfDM5OC4xOXwyNjQuNDA=)' />
<polyline points='128.27,318.34 128.27,377.34 ' style='stroke-width: 1.07; stroke: #2C3E50; stroke-linecap: butt;' clip-path='url(#cpNDQuMTd8Mzk4LjIxfDM5OC4xOXwyNjQuNDA=)' />
<polyline points='128.27,377.34 128.27,377.34 ' style='stroke-width: 1.07; stroke: #2C3E50; stroke-linecap: butt;' clip-path='url(#cpNDQuMTd8Mzk4LjIxfDM5OC4xOXwyNjQuNDA=)' />
<polyline points='146.50,316.30 146.50,316.30 ' style='stroke-width: 1.07; stroke: #2C3E50; stroke-linecap: butt;' clip-path='url(#cpNDQuMTd8Mzk4LjIxfDM5OC4xOXwyNjQuNDA=)' />
<polyline points='146.50,316.30 146.50,375.31 ' style='stroke-width: 1.07; stroke: #2C3E50; stroke-linecap: butt;' clip-path='url(#cpNDQuMTd8Mzk4LjIxfDM5OC4xOXwyNjQuNDA=)' />
<polyline points='146.50,375.31 146.50,375.31 ' style='stroke-width: 1.07; stroke: #2C3E50; stroke-linecap: butt;' clip-path='url(#cpNDQuMTd8Mzk4LjIxfDM5OC4xOXwyNjQuNDA=)' />
<polyline points='161.70,312.78 161.70,312.78 ' style='stroke-width: 1.07; stroke: #2C3E50; stroke-linecap: butt;' clip-path='url(#cpNDQuMTd8Mzk4LjIxfDM5OC4xOXwyNjQuNDA=)' />
<polyline points='161.70,312.78 161.70,371.78 ' style='stroke-width: 1.07; stroke: #2C3E50; stroke-linecap: butt;' clip-path='url(#cpNDQuMTd8Mzk4LjIxfDM5OC4xOXwyNjQuNDA=)' />
<polyline points='161.70,371.78 161.70,371.78 ' style='stroke-width: 1.07; stroke: #2C3E50; stroke-linecap: butt;' clip-path='url(#cpNDQuMTd8Mzk4LjIxfDM5OC4xOXwyNjQuNDA=)' />
<polyline points='175.11,309.43 175.11,309.43 ' style='stroke-width: 1.07; stroke: #2C3E50; stroke-linecap: butt;' clip-path='url(#cpNDQuMTd8Mzk4LjIxfDM5OC4xOXwyNjQuNDA=)' />
<polyline points='175.11,309.43 175.11,368.43 ' style='stroke-width: 1.07; stroke: #2C3E50; stroke-linecap: butt;' clip-path='url(#cpNDQuMTd8Mzk4LjIxfDM5OC4xOXwyNjQuNDA=)' />
<polyline points='175.11,368.43 175.11,368.43 ' style='stroke-width: 1.07; stroke: #2C3E50; stroke-linecap: butt;' clip-path='url(#cpNDQuMTd8Mzk4LjIxfDM5OC4xOXwyNjQuNDA=)' />
<polyline points='187.42,308.40 187.42,308.40 ' style='stroke-width: 1.07; stroke: #2C3E50; stroke-linecap: butt;' clip-path='url(#cpNDQuMTd8Mzk4LjIxfDM5OC4xOXwyNjQuNDA=)' />
<polyline points='187.42,308.40 187.42,367.40 ' style='stroke-width: 1.07; stroke: #2C3E50; stroke-linecap: butt;' clip-path='url(#cpNDQuMTd8Mzk4LjIxfDM5OC4xOXwyNjQuNDA=)' />
<polyline points='187.42,367.40 187.42,367.40 ' style='stroke-width: 1.07; stroke: #2C3E50; stroke-linecap: butt;' clip-path='url(#cpNDQuMTd8Mzk4LjIxfDM5OC4xOXwyNjQuNDA=)' />
<polyline points='199.02,293.94 199.02,293.94 ' style='stroke-width: 1.07; stroke: #2C3E50; stroke-linecap: butt;' clip-path='url(#cpNDQuMTd8Mzk4LjIxfDM5OC4xOXwyNjQuNDA=)' />
<polyline points='199.02,293.94 199.02,352.94 ' style='stroke-width: 1.07; stroke: #2C3E50; stroke-linecap: butt;' clip-path='url(#cpNDQuMTd8Mzk4LjIxfDM5OC4xOXwyNjQuNDA=)' />
<polyline points='199.02,352.94 199.02,352.94 ' style='stroke-width: 1.07; stroke: #2C3E50; stroke-linecap: butt;' clip-path='url(#cpNDQuMTd8Mzk4LjIxfDM5OC4xOXwyNjQuNDA=)' />
<polyline points='210.21,291.89 210.21,291.89 ' style='stroke-width: 1.07; stroke: #2C3E50; stroke-linecap: butt;' clip-path='url(#cpNDQuMTd8Mzk4LjIxfDM5OC4xOXwyNjQuNDA=)' />
<polyline points='210.21,291.89 210.21,350.89 ' style='stroke-width: 1.07; stroke: #2C3E50; stroke-linecap: butt;' clip-path='url(#cpNDQuMTd8Mzk4LjIxfDM5OC4xOXwyNjQuNDA=)' />
<polyline points='210.21,350.89 210.21,350.89 ' style='stroke-width: 1.07; stroke: #2C3E50; stroke-linecap: butt;' clip-path='url(#cpNDQuMTd8Mzk4LjIxfDM5OC4xOXwyNjQuNDA=)' />
<polyline points='221.19,291.76 221.19,291.76 ' style='stroke-width: 1.07; stroke: #2C3E50; stroke-linecap: butt;' clip-path='url(#cpNDQuMTd8Mzk4LjIxfDM5OC4xOXwyNjQuNDA=)' />
<polyline points='221.19,291.76 221.19,350.76 ' style='stroke-width: 1.07; stroke: #2C3E50; stroke-linecap: butt;' clip-path='url(#cpNDQuMTd8Mzk4LjIxfDM5OC4xOXwyNjQuNDA=)' />
<polyline points='221.19,350.76 221.19,350.76 ' style='stroke-width: 1.07; stroke: #2C3E50; stroke-linecap: butt;' clip-path='url(#cpNDQuMTd8Mzk4LjIxfDM5OC4xOXwyNjQuNDA=)' />
<polyline points='232.18,289.72 232.18,289.72 ' style='stroke-width: 1.07; stroke: #2C3E50; stroke-linecap: butt;' clip-path='url(#cpNDQuMTd8Mzk4LjIxfDM5OC4xOXwyNjQuNDA=)' />
<polyline points='232.18,289.72 232.18,348.72 ' style='stroke-width: 1.07; stroke: #2C3E50; stroke-linecap: butt;' clip-path='url(#cpNDQuMTd8Mzk4LjIxfDM5OC4xOXwyNjQuNDA=)' />
<polyline points='232.18,348.72 232.18,348.72 ' style='stroke-width: 1.07; stroke: #2C3E50; stroke-linecap: butt;' clip-path='url(#cpNDQuMTd8Mzk4LjIxfDM5OC4xOXwyNjQuNDA=)' />
<polyline points='243.37,289.39 243.37,289.39 ' style='stroke-width: 1.07; stroke: #2C3E50; stroke-linecap: butt;' clip-path='url(#cpNDQuMTd8Mzk4LjIxfDM5OC4xOXwyNjQuNDA=)' />
<polyline points='243.37,289.39 243.37,348.39 ' style='stroke-width: 1.07; stroke: #2C3E50; stroke-linecap: butt;' clip-path='url(#cpNDQuMTd8Mzk4LjIxfDM5OC4xOXwyNjQuNDA=)' />
<polyline points='243.37,348.39 243.37,348.39 ' style='stroke-width: 1.07; stroke: #2C3E50; stroke-linecap: butt;' clip-path='url(#cpNDQuMTd8Mzk4LjIxfDM5OC4xOXwyNjQuNDA=)' />
<polyline points='254.97,284.91 254.97,284.91 ' style='stroke-width: 1.07; stroke: #2C3E50; stroke-linecap: butt;' clip-path='url(#cpNDQuMTd8Mzk4LjIxfDM5OC4xOXwyNjQuNDA=)' />
<polyline points='254.97,284.91 254.97,343.91 ' style='stroke-width: 1.07; stroke: #2C3E50; stroke-linecap: butt;' clip-path='url(#cpNDQuMTd8Mzk4LjIxfDM5OC4xOXwyNjQuNDA=)' />
<polyline points='254.97,343.91 254.97,343.91 ' style='stroke-width: 1.07; stroke: #2C3E50; stroke-linecap: butt;' clip-path='url(#cpNDQuMTd8Mzk4LjIxfDM5OC4xOXwyNjQuNDA=)' />
<polyline points='267.28,279.75 267.28,279.75 ' style='stroke-width: 1.07; stroke: #2C3E50; stroke-linecap: butt;' clip-path='url(#cpNDQuMTd8Mzk4LjIxfDM5OC4xOXwyNjQuNDA=)' />
<polyline points='267.28,279.75 267.28,338.75 ' style='stroke-width: 1.07; stroke: #2C3E50; stroke-linecap: butt;' clip-path='url(#cpNDQuMTd8Mzk4LjIxfDM5OC4xOXwyNjQuNDA=)' />
<polyline points='267.28,338.75 267.28,338.75 ' style='stroke-width: 1.07; stroke: #2C3E50; stroke-linecap: butt;' clip-path='url(#cpNDQuMTd8Mzk4LjIxfDM5OC4xOXwyNjQuNDA=)' />
<polyline points='280.69,277.42 280.69,277.42 ' style='stroke-width: 1.07; stroke: #2C3E50; stroke-linecap: butt;' clip-path='url(#cpNDQuMTd8Mzk4LjIxfDM5OC4xOXwyNjQuNDA=)' />
<polyline points='280.69,277.42 280.69,336.42 ' style='stroke-width: 1.07; stroke: #2C3E50; stroke-linecap: butt;' clip-path='url(#cpNDQuMTd8Mzk4LjIxfDM5OC4xOXwyNjQuNDA=)' />
<polyline points='280.69,336.42 280.69,336.42 ' style='stroke-width: 1.07; stroke: #2C3E50; stroke-linecap: butt;' clip-path='url(#cpNDQuMTd8Mzk4LjIxfDM5OC4xOXwyNjQuNDA=)' />
<polyline points='295.88,274.22 295.88,274.22 ' style='stroke-width: 1.07; stroke: #2C3E50; stroke-linecap: butt;' clip-path='url(#cpNDQuMTd8Mzk4LjIxfDM5OC4xOXwyNjQuNDA=)' />
<polyline points='295.88,274.22 295.88,333.22 ' style='stroke-width: 1.07; stroke: #2C3E50; stroke-linecap: butt;' clip-path='url(#cpNDQuMTd8Mzk4LjIxfDM5OC4xOXwyNjQuNDA=)' />
<polyline points='295.88,333.22 295.88,333.22 ' style='stroke-width: 1.07; stroke: #2C3E50; stroke-linecap: butt;' clip-path='url(#cpNDQuMTd8Mzk4LjIxfDM5OC4xOXwyNjQuNDA=)' />
<polyline points='314.11,273.42 314.11,273.42 ' style='stroke-width: 1.07; stroke: #2C3E50; stroke-linecap: butt;' clip-path='url(#cpNDQuMTd8Mzk4LjIxfDM5OC4xOXwyNjQuNDA=)' />
<polyline points='314.11,273.42 314.11,332.42 ' style='stroke-width: 1.07; stroke: #2C3E50; stroke-linecap: butt;' clip-path='url(#cpNDQuMTd8Mzk4LjIxfDM5OC4xOXwyNjQuNDA=)' />
<polyline points='314.11,332.42 314.11,332.42 ' style='stroke-width: 1.07; stroke: #2C3E50; stroke-linecap: butt;' clip-path='url(#cpNDQuMTd8Mzk4LjIxfDM5OC4xOXwyNjQuNDA=)' />
<polyline points='338.46,273.29 338.46,273.29 ' style='stroke-width: 1.07; stroke: #2C3E50; stroke-linecap: butt;' clip-path='url(#cpNDQuMTd8Mzk4LjIxfDM5OC4xOXwyNjQuNDA=)' />
<polyline points='338.46,273.29 338.46,332.29 ' style='stroke-width: 1.07; stroke: #2C3E50; stroke-linecap: butt;' clip-path='url(#cpNDQuMTd8Mzk4LjIxfDM5OC4xOXwyNjQuNDA=)' />
<polyline points='338.46,332.29 338.46,332.29 ' style='stroke-width: 1.07; stroke: #2C3E50; stroke-linecap: butt;' clip-path='url(#cpNDQuMTd8Mzk4LjIxfDM5OC4xOXwyNjQuNDA=)' />
<polyline points='382.12,270.48 382.12,270.48 ' style='stroke-width: 1.07; stroke: #2C3E50; stroke-linecap: butt;' clip-path='url(#cpNDQuMTd8Mzk4LjIxfDM5OC4xOXwyNjQuNDA=)' />
<polyline points='382.12,270.48 382.12,329.48 ' style='stroke-width: 1.07; stroke: #2C3E50; stroke-linecap: butt;' clip-path='url(#cpNDQuMTd8Mzk4LjIxfDM5OC4xOXwyNjQuNDA=)' />
<polyline points='382.12,329.48 382.12,329.48 ' style='stroke-width: 1.07; stroke: #2C3E50; stroke-linecap: butt;' clip-path='url(#cpNDQuMTd8Mzk4LjIxfDM5OC4xOXwyNjQuNDA=)' />
<circle cx='60.27' cy='362.60' r='2.13' style='stroke-width: 0.00; stroke: none; fill: #2C3E50;' clip-path='url(#cpNDQuMTd8Mzk4LjIxfDM5OC4xOXwyNjQuNDA=)' />
<circle cx='103.92' cy='354.89' r='2.13' style='stroke-width: 0.00; stroke: none; fill: #2C3E50;' clip-path='url(#cpNDQuMTd8Mzk4LjIxfDM5OC4xOXwyNjQuNDA=)' />
<circle cx='128.27' cy='347.84' r='2.13' style='stroke-width: 0.00; stroke: none; fill: #2C3E50;' clip-path='url(#cpNDQuMTd8Mzk4LjIxfDM5OC4xOXwyNjQuNDA=)' />
<circle cx='146.50' cy='345.80' r='2.13' style='stroke-width: 0.00; stroke: none; fill: #2C3E50;' clip-path='url(#cpNDQuMTd8Mzk4LjIxfDM5OC4xOXwyNjQuNDA=)' />
<circle cx='161.70' cy='342.28' r='2.13' style='stroke-width: 0.00; stroke: none; fill: #2C3E50;' clip-path='url(#cpNDQuMTd8Mzk4LjIxfDM5OC4xOXwyNjQuNDA=)' />
<circle cx='175.11' cy='338.93' r='2.13' style='stroke-width: 0.00; stroke: none; fill: #2C3E50;' clip-path='url(#cpNDQuMTd8Mzk4LjIxfDM5OC4xOXwyNjQuNDA=)' />
<circle cx='187.42' cy='337.90' r='2.13' style='stroke-width: 0.00; stroke: none; fill: #2C3E50;' clip-path='url(#cpNDQuMTd8Mzk4LjIxfDM5OC4xOXwyNjQuNDA=)' />
<circle cx='199.02' cy='323.44' r='2.13' style='stroke-width: 0.00; stroke: none; fill: #2C3E50;' clip-path='url(#cpNDQuMTd8Mzk4LjIxfDM5OC4xOXwyNjQuNDA=)' />
<circle cx='210.21' cy='321.39' r='2.13' style='stroke-width: 0.00; stroke: none; fill: #2C3E50;' clip-path='url(#cpNDQuMTd8Mzk4LjIxfDM5OC4xOXwyNjQuNDA=)' />
<circle cx='221.19' cy='321.26' r='2.13' style='stroke-width: 0.00; stroke: none; fill: #2C3E50;' clip-path='url(#cpNDQuMTd8Mzk4LjIxfDM5OC4xOXwyNjQuNDA=)' />
<circle cx='232.18' cy='319.22' r='2.13' style='stroke-width: 0.00; stroke: none; fill: #2C3E50;' clip-path='url(#cpNDQuMTd8Mzk4LjIxfDM5OC4xOXwyNjQuNDA=)' />
<circle cx='243.37' cy='318.89' r='2.13' style='stroke-width: 0.00; stroke: none; fill: #2C3E50;' clip-path='url(#cpNDQuMTd8Mzk4LjIxfDM5OC4xOXwyNjQuNDA=)' />
<circle cx='254.97' cy='314.41' r='2.13' style='stroke-width: 0.00; stroke: none; fill: #2C3E50;' clip-path='url(#cpNDQuMTd8Mzk4LjIxfDM5OC4xOXwyNjQuNDA=)' />
<circle cx='267.28' cy='309.25' r='2.13' style='stroke-width: 0.00; stroke: none; fill: #2C3E50;' clip-path='url(#cpNDQuMTd8Mzk4LjIxfDM5OC4xOXwyNjQuNDA=)' />
<circle cx='280.69' cy='306.92' r='2.13' style='stroke-width: 0.00; stroke: none; fill: #2C3E50;' clip-path='url(#cpNDQuMTd8Mzk4LjIxfDM5OC4xOXwyNjQuNDA=)' />
<circle cx='295.88' cy='303.72' r='2.13' style='stroke-width: 0.00; stroke: none; fill: #2C3E50;' clip-path='url(#cpNDQuMTd8Mzk4LjIxfDM5OC4xOXwyNjQuNDA=)' />
<circle cx='314.11' cy='302.92' r='2.13' style='stroke-width: 0.00; stroke: none; fill: #2C3E50;' clip-path='url(#cpNDQuMTd8Mzk4LjIxfDM5OC4xOXwyNjQuNDA=)' />
<circle cx='338.46' cy='302.79' r='2.13' style='stroke-width: 0.00; stroke: none; fill: #2C3E50;' clip-path='url(#cpNDQuMTd8Mzk4LjIxfDM5OC4xOXwyNjQuNDA=)' />
<circle cx='382.12' cy='299.98' r='2.13' style='stroke-width: 0.00; stroke: none; fill: #2C3E50;' clip-path='url(#cpNDQuMTd8Mzk4LjIxfDM5OC4xOXwyNjQuNDA=)' />
<defs>
  <clipPath id='cpMC4wMHw3OTIuMDB8NDMyLjAwfDAuMDA='>
    <rect x='0.00' y='0.00' width='792.00' height='432.00' />
  </clipPath>
</defs>
<defs>
  <clipPath id='cpNDMyLjk4fDc4Ny4wMnwzOTguMTl8MjY0LjQw'>
    <rect x='432.98' y='264.40' width='354.04' height='133.79' />
  </clipPath>
</defs>
<rect x='432.98' y='264.40' width='354.04' height='133.79' style='stroke-width: 0.97; stroke: none; fill: #FFFFFF;' clip-path='url(#cpNDMyLjk4fDc4Ny4wMnwzOTguMTl8MjY0LjQw)' />
<polyline points='432.98,374.00 787.02,374.00 ' style='stroke-width: 0.97; stroke: #EBEBEB; stroke-linecap: butt;' clip-path='url(#cpNDMyLjk4fDc4Ny4wMnwzOTguMTl8MjY0LjQw)' />
<polyline points='432.98,345.11 787.02,345.11 ' style='stroke-width: 0.97; stroke: #EBEBEB; stroke-linecap: butt;' clip-path='url(#cpNDMyLjk4fDc4Ny4wMnwzOTguMTl8MjY0LjQw)' />
<polyline points='432.98,316.21 787.02,316.21 ' style='stroke-width: 0.97; stroke: #EBEBEB; stroke-linecap: butt;' clip-path='url(#cpNDMyLjk4fDc4Ny4wMnwzOTguMTl8MjY0LjQw)' />
<polyline points='432.98,287.32 787.02,287.32 ' style='stroke-width: 0.97; stroke: #EBEBEB; stroke-linecap: butt;' clip-path='url(#cpNDMyLjk4fDc4Ny4wMnwzOTguMTl8MjY0LjQw)' />
<polyline points='485.44,398.19 485.44,264.40 ' style='stroke-width: 0.97; stroke: #EBEBEB; stroke-linecap: butt;' clip-path='url(#cpNDMyLjk4fDc4Ny4wMnwzOTguMTl8MjY0LjQw)' />
<polyline points='568.48,398.19 568.48,264.40 ' style='stroke-width: 0.97; stroke: #EBEBEB; stroke-linecap: butt;' clip-path='url(#cpNDMyLjk4fDc4Ny4wMnwzOTguMTl8MjY0LjQw)' />
<polyline points='651.52,398.19 651.52,264.40 ' style='stroke-width: 0.97; stroke: #EBEBEB; stroke-linecap: butt;' clip-path='url(#cpNDMyLjk4fDc4Ny4wMnwzOTguMTl8MjY0LjQw)' />
<polyline points='734.56,398.19 734.56,264.40 ' style='stroke-width: 0.97; stroke: #EBEBEB; stroke-linecap: butt;' clip-path='url(#cpNDMyLjk4fDc4Ny4wMnwzOTguMTl8MjY0LjQw)' />
<polyline points='432.98,388.44 787.02,388.44 ' style='stroke-width: 0.97; stroke: #E5E5E5; stroke-linecap: butt;' clip-path='url(#cpNDMyLjk4fDc4Ny4wMnwzOTguMTl8MjY0LjQw)' />
<polyline points='432.98,359.55 787.02,359.55 ' style='stroke-width: 0.97; stroke: #E5E5E5; stroke-linecap: butt;' clip-path='url(#cpNDMyLjk4fDc4Ny4wMnwzOTguMTl8MjY0LjQw)' />
<polyline points='432.98,330.66 787.02,330.66 ' style='stroke-width: 0.97; stroke: #E5E5E5; stroke-linecap: butt;' clip-path='url(#cpNDMyLjk4fDc4Ny4wMnwzOTguMTl8MjY0LjQw)' />
<polyline points='432.98,301.77 787.02,301.77 ' style='stroke-width: 0.97; stroke: #E5E5E5; stroke-linecap: butt;' clip-path='url(#cpNDMyLjk4fDc4Ny4wMnwzOTguMTl8MjY0LjQw)' />
<polyline points='432.98,272.87 787.02,272.87 ' style='stroke-width: 0.97; stroke: #E5E5E5; stroke-linecap: butt;' clip-path='url(#cpNDMyLjk4fDc4Ny4wMnwzOTguMTl8MjY0LjQw)' />
<polyline points='443.92,398.19 443.92,264.40 ' style='stroke-width: 0.97; stroke: #E5E5E5; stroke-linecap: butt;' clip-path='url(#cpNDMyLjk4fDc4Ny4wMnwzOTguMTl8MjY0LjQw)' />
<polyline points='526.96,398.19 526.96,264.40 ' style='stroke-width: 0.97; stroke: #E5E5E5; stroke-linecap: butt;' clip-path='url(#cpNDMyLjk4fDc4Ny4wMnwzOTguMTl8MjY0LjQw)' />
<polyline points='610.00,398.19 610.00,264.40 ' style='stroke-width: 0.97; stroke: #E5E5E5; stroke-linecap: butt;' clip-path='url(#cpNDMyLjk4fDc4Ny4wMnwzOTguMTl8MjY0LjQw)' />
<polyline points='693.04,398.19 693.04,264.40 ' style='stroke-width: 0.97; stroke: #E5E5E5; stroke-linecap: butt;' clip-path='url(#cpNDMyLjk4fDc4Ny4wMnwzOTguMTl8MjY0LjQw)' />
<polyline points='776.08,398.19 776.08,264.40 ' style='stroke-width: 0.97; stroke: #E5E5E5; stroke-linecap: butt;' clip-path='url(#cpNDMyLjk4fDc4Ny4wMnwzOTguMTl8MjY0LjQw)' />
<polygon points='449.07,369.18 453.15,368.18 457.22,367.18 461.29,366.18 465.37,365.18 469.44,364.17 473.52,363.17 477.59,362.16 481.66,361.16 485.74,360.15 489.81,359.14 493.89,358.14 497.96,357.13 502.03,356.11 506.11,355.10 510.18,354.09 514.26,353.07 518.33,352.06 522.41,351.04 526.48,350.02 530.55,349.00 534.63,347.98 538.70,346.95 542.78,345.92 546.85,344.89 550.92,343.86 555.00,342.82 559.07,341.78 563.15,340.74 567.22,339.69 571.29,338.64 575.37,337.58 579.44,336.52 583.52,335.46 587.59,334.39 591.67,333.31 595.74,332.23 599.81,331.14 603.89,330.05 607.96,328.96 612.04,327.85 616.11,326.74 620.18,325.63 624.26,324.51 628.33,323.38 632.41,322.25 636.48,321.12 640.55,319.97 644.63,318.83 648.70,317.68 652.78,316.52 656.85,315.36 660.92,314.20 665.00,313.04 669.07,311.87 673.15,310.69 677.22,309.52 681.30,308.34 685.37,307.16 689.44,305.98 693.52,304.79 697.59,303.61 701.67,302.42 705.74,301.23 709.81,300.04 713.89,298.84 717.96,297.65 722.04,296.46 726.11,295.26 730.18,294.06 734.26,292.86 738.33,291.66 742.41,290.46 746.48,289.26 750.56,288.06 754.63,286.86 758.70,285.65 762.78,284.45 766.85,283.24 770.93,282.04 770.93,292.14 766.85,293.14 762.78,294.14 758.70,295.14 754.63,296.14 750.56,297.15 746.48,298.15 742.41,299.16 738.33,300.16 734.26,301.17 730.18,302.18 726.11,303.18 722.04,304.19 717.96,305.20 713.89,306.22 709.81,307.23 705.74,308.24 701.67,309.26 697.59,310.28 693.52,311.30 689.44,312.32 685.37,313.34 681.30,314.37 677.22,315.40 673.15,316.43 669.07,317.46 665.00,318.50 660.92,319.54 656.85,320.58 652.78,321.63 648.70,322.68 644.63,323.74 640.55,324.80 636.48,325.86 632.41,326.93 628.33,328.01 624.26,329.09 620.18,330.17 616.11,331.27 612.04,332.36 607.96,333.47 603.89,334.57 599.81,335.69 595.74,336.81 591.67,337.94 587.59,339.07 583.52,340.20 579.44,341.34 575.37,342.49 571.29,343.64 567.22,344.80 563.15,345.95 559.07,347.12 555.00,348.28 550.92,349.45 546.85,350.62 542.78,351.80 538.70,352.98 534.63,354.16 530.55,355.34 526.48,356.52 522.41,357.71 518.33,358.90 514.26,360.09 510.18,361.28 506.11,362.47 502.03,363.67 497.96,364.86 493.89,366.06 489.81,367.26 485.74,368.46 481.66,369.66 477.59,370.86 473.52,372.06 469.44,373.26 465.37,374.46 461.29,375.67 457.22,376.87 453.15,378.07 449.07,379.28 ' style='stroke-width: 0.00; stroke: none; fill: #999999; fill-opacity: 0.20;' clip-path='url(#cpNDMyLjk4fDc4Ny4wMnwzOTguMTl8MjY0LjQw)' />
<polyline points='449.07,369.18 453.15,368.18 457.22,367.18 461.29,366.18 465.37,365.18 469.44,364.17 473.52,363.17 477.59,362.16 481.66,361.16 485.74,360.15 489.81,359.14 493.89,358.14 497.96,357.13 502.03,356.11 506.11,355.10 510.18,354.09 514.26,353.07 518.33,352.06 522.41,351.04 526.48,350.02 530.55,349.00 534.63,347.98 538.70,346.95 542.78,345.92 546.85,344.89 550.92,343.86 555.00,342.82 559.07,341.78 563.15,340.74 567.22,339.69 571.29,338.64 575.37,337.58 579.44,336.52 583.52,335.46 587.59,334.39 591.67,333.31 595.74,332.23 599.81,331.14 603.89,330.05 607.96,328.96 612.04,327.85 616.11,326.74 620.18,325.63 624.26,324.51 628.33,323.38 632.41,322.25 636.48,321.12 640.55,319.97 644.63,318.83 648.70,317.68 652.78,316.52 656.85,315.36 660.92,314.20 665.00,313.04 669.07,311.87 673.15,310.69 677.22,309.52 681.30,308.34 685.37,307.16 689.44,305.98 693.52,304.79 697.59,303.61 701.67,302.42 705.74,301.23 709.81,300.04 713.89,298.84 717.96,297.65 722.04,296.46 726.11,295.26 730.18,294.06 734.26,292.86 738.33,291.66 742.41,290.46 746.48,289.26 750.56,288.06 754.63,286.86 758.70,285.65 762.78,284.45 766.85,283.24 770.93,282.04 ' style='stroke-width: 1.71; stroke: none;' clip-path='url(#cpNDMyLjk4fDc4Ny4wMnwzOTguMTl8MjY0LjQw)' />
<polyline points='770.93,292.14 766.85,293.14 762.78,294.14 758.70,295.14 754.63,296.14 750.56,297.15 746.48,298.15 742.41,299.16 738.33,300.16 734.26,301.17 730.18,302.18 726.11,303.18 722.04,304.19 717.96,305.20 713.89,306.22 709.81,307.23 705.74,308.24 701.67,309.26 697.59,310.28 693.52,311.30 689.44,312.32 685.37,313.34 681.30,314.37 677.22,315.40 673.15,316.43 669.07,317.46 665.00,318.50 660.92,319.54 656.85,320.58 652.78,321.63 648.70,322.68 644.63,323.74 640.55,324.80 636.48,325.86 632.41,326.93 628.33,328.01 624.26,329.09 620.18,330.17 616.11,331.27 612.04,332.36 607.96,333.47 603.89,334.57 599.81,335.69 595.74,336.81 591.67,337.94 587.59,339.07 583.52,340.20 579.44,341.34 575.37,342.49 571.29,343.64 567.22,344.80 563.15,345.95 559.07,347.12 555.00,348.28 550.92,349.45 546.85,350.62 542.78,351.80 538.70,352.98 534.63,354.16 530.55,355.34 526.48,356.52 522.41,357.71 518.33,358.90 514.26,360.09 510.18,361.28 506.11,362.47 502.03,363.67 497.96,364.86 493.89,366.06 489.81,367.26 485.74,368.46 481.66,369.66 477.59,370.86 473.52,372.06 469.44,373.26 465.37,374.46 461.29,375.67 457.22,376.87 453.15,378.07 449.07,379.28 ' style='stroke-width: 1.71; stroke: none;' clip-path='url(#cpNDMyLjk4fDc4Ny4wMnwzOTguMTl8MjY0LjQw)' />
<polyline points='449.07,374.23 453.15,373.13 457.22,372.03 461.29,370.92 465.37,369.82 469.44,368.72 473.52,367.61 477.59,366.51 481.66,365.41 485.74,364.30 489.81,363.20 493.89,362.10 497.96,360.99 502.03,359.89 506.11,358.79 510.18,357.69 514.26,356.58 518.33,355.48 522.41,354.38 526.48,353.27 530.55,352.17 534.63,351.07 538.70,349.96 542.78,348.86 546.85,347.76 550.92,346.65 555.00,345.55 559.07,344.45 563.15,343.34 567.22,342.24 571.29,341.14 575.37,340.04 579.44,338.93 583.52,337.83 587.59,336.73 591.67,335.62 595.74,334.52 599.81,333.42 603.89,332.31 607.96,331.21 612.04,330.11 616.11,329.00 620.18,327.90 624.26,326.80 628.33,325.70 632.41,324.59 636.48,323.49 640.55,322.39 644.63,321.28 648.70,320.18 652.78,319.08 656.85,317.97 660.92,316.87 665.00,315.77 669.07,314.66 673.15,313.56 677.22,312.46 681.30,311.36 685.37,310.25 689.44,309.15 693.52,308.05 697.59,306.94 701.67,305.84 705.74,304.74 709.81,303.63 713.89,302.53 717.96,301.43 722.04,300.32 726.11,299.22 730.18,298.12 734.26,297.01 738.33,295.91 742.41,294.81 746.48,293.71 750.56,292.60 754.63,291.50 758.70,290.40 762.78,289.29 766.85,288.19 770.93,287.09 ' style='stroke-width: 1.71; stroke: #16A085; stroke-linecap: butt;' clip-path='url(#cpNDMyLjk4fDc4Ny4wMnwzOTguMTl8MjY0LjQw)' />
<polyline points='449.07,351.62 449.07,351.62 ' style='stroke-width: 1.07; stroke: #2C3E50; stroke-linecap: butt;' clip-path='url(#cpNDMyLjk4fDc4Ny4wMnwzOTguMTl8MjY0LjQw)' />
<polyline points='449.07,351.62 449.07,392.11 ' style='stroke-width: 1.07; stroke: #2C3E50; stroke-linecap: butt;' clip-path='url(#cpNDMyLjk4fDc4Ny4wMnwzOTguMTl8MjY0LjQw)' />
<polyline points='449.07,392.11 449.07,392.11 ' style='stroke-width: 1.07; stroke: #2C3E50; stroke-linecap: butt;' clip-path='url(#cpNDMyLjk4fDc4Ny4wMnwzOTguMTl8MjY0LjQw)' />
<polyline points='492.73,343.33 492.73,343.33 ' style='stroke-width: 1.07; stroke: #2C3E50; stroke-linecap: butt;' clip-path='url(#cpNDMyLjk4fDc4Ny4wMnwzOTguMTl8MjY0LjQw)' />
<polyline points='492.73,343.33 492.73,383.82 ' style='stroke-width: 1.07; stroke: #2C3E50; stroke-linecap: butt;' clip-path='url(#cpNDMyLjk4fDc4Ny4wMnwzOTguMTl8MjY0LjQw)' />
<polyline points='492.73,383.82 492.73,383.82 ' style='stroke-width: 1.07; stroke: #2C3E50; stroke-linecap: butt;' clip-path='url(#cpNDMyLjk4fDc4Ny4wMnwzOTguMTl8MjY0LjQw)' />
<polyline points='517.08,342.59 517.08,342.59 ' style='stroke-width: 1.07; stroke: #2C3E50; stroke-linecap: butt;' clip-path='url(#cpNDMyLjk4fDc4Ny4wMnwzOTguMTl8MjY0LjQw)' />
<polyline points='517.08,342.59 517.08,383.07 ' style='stroke-width: 1.07; stroke: #2C3E50; stroke-linecap: butt;' clip-path='url(#cpNDMyLjk4fDc4Ny4wMnwzOTguMTl8MjY0LjQw)' />
<polyline points='517.08,383.07 517.08,383.07 ' style='stroke-width: 1.07; stroke: #2C3E50; stroke-linecap: butt;' clip-path='url(#cpNDMyLjk4fDc4Ny4wMnwzOTguMTl8MjY0LjQw)' />
<polyline points='535.31,328.93 535.31,328.93 ' style='stroke-width: 1.07; stroke: #2C3E50; stroke-linecap: butt;' clip-path='url(#cpNDMyLjk4fDc4Ny4wMnwzOTguMTl8MjY0LjQw)' />
<polyline points='535.31,328.93 535.31,369.42 ' style='stroke-width: 1.07; stroke: #2C3E50; stroke-linecap: butt;' clip-path='url(#cpNDMyLjk4fDc4Ny4wMnwzOTguMTl8MjY0LjQw)' />
<polyline points='535.31,369.42 535.31,369.42 ' style='stroke-width: 1.07; stroke: #2C3E50; stroke-linecap: butt;' clip-path='url(#cpNDMyLjk4fDc4Ny4wMnwzOTguMTl8MjY0LjQw)' />
<polyline points='550.50,325.39 550.50,325.39 ' style='stroke-width: 1.07; stroke: #2C3E50; stroke-linecap: butt;' clip-path='url(#cpNDMyLjk4fDc4Ny4wMnwzOTguMTl8MjY0LjQw)' />
<polyline points='550.50,325.39 550.50,365.88 ' style='stroke-width: 1.07; stroke: #2C3E50; stroke-linecap: butt;' clip-path='url(#cpNDMyLjk4fDc4Ny4wMnwzOTguMTl8MjY0LjQw)' />
<polyline points='550.50,365.88 550.50,365.88 ' style='stroke-width: 1.07; stroke: #2C3E50; stroke-linecap: butt;' clip-path='url(#cpNDMyLjk4fDc4Ny4wMnwzOTguMTl8MjY0LjQw)' />
<polyline points='563.92,325.10 563.92,325.10 ' style='stroke-width: 1.07; stroke: #2C3E50; stroke-linecap: butt;' clip-path='url(#cpNDMyLjk4fDc4Ny4wMnwzOTguMTl8MjY0LjQw)' />
<polyline points='563.92,325.10 563.92,365.58 ' style='stroke-width: 1.07; stroke: #2C3E50; stroke-linecap: butt;' clip-path='url(#cpNDMyLjk4fDc4Ny4wMnwzOTguMTl8MjY0LjQw)' />
<polyline points='563.92,365.58 563.92,365.58 ' style='stroke-width: 1.07; stroke: #2C3E50; stroke-linecap: butt;' clip-path='url(#cpNDMyLjk4fDc4Ny4wMnwzOTguMTl8MjY0LjQw)' />
<polyline points='576.22,322.33 576.22,322.33 ' style='stroke-width: 1.07; stroke: #2C3E50; stroke-linecap: butt;' clip-path='url(#cpNDMyLjk4fDc4Ny4wMnwzOTguMTl8MjY0LjQw)' />
<polyline points='576.22,322.33 576.22,362.81 ' style='stroke-width: 1.07; stroke: #2C3E50; stroke-linecap: butt;' clip-path='url(#cpNDMyLjk4fDc4Ny4wMnwzOTguMTl8MjY0LjQw)' />
<polyline points='576.22,362.81 576.22,362.81 ' style='stroke-width: 1.07; stroke: #2C3E50; stroke-linecap: butt;' clip-path='url(#cpNDMyLjk4fDc4Ny4wMnwzOTguMTl8MjY0LjQw)' />
<polyline points='587.83,319.44 587.83,319.44 ' style='stroke-width: 1.07; stroke: #2C3E50; stroke-linecap: butt;' clip-path='url(#cpNDMyLjk4fDc4Ny4wMnwzOTguMTl8MjY0LjQw)' />
<polyline points='587.83,319.44 587.83,359.93 ' style='stroke-width: 1.07; stroke: #2C3E50; stroke-linecap: butt;' clip-path='url(#cpNDMyLjk4fDc4Ny4wMnwzOTguMTl8MjY0LjQw)' />
<polyline points='587.83,359.93 587.83,359.93 ' style='stroke-width: 1.07; stroke: #2C3E50; stroke-linecap: butt;' clip-path='url(#cpNDMyLjk4fDc4Ny4wMnwzOTguMTl8MjY0LjQw)' />
<polyline points='599.01,318.54 599.01,318.54 ' style='stroke-width: 1.07; stroke: #2C3E50; stroke-linecap: butt;' clip-path='url(#cpNDMyLjk4fDc4Ny4wMnwzOTguMTl8MjY0LjQw)' />
<polyline points='599.01,318.54 599.01,359.02 ' style='stroke-width: 1.07; stroke: #2C3E50; stroke-linecap: butt;' clip-path='url(#cpNDMyLjk4fDc4Ny4wMnwzOTguMTl8MjY0LjQw)' />
<polyline points='599.01,359.02 599.01,359.02 ' style='stroke-width: 1.07; stroke: #2C3E50; stroke-linecap: butt;' clip-path='url(#cpNDMyLjk4fDc4Ny4wMnwzOTguMTl8MjY0LjQw)' />
<polyline points='610.00,311.15 610.00,311.15 ' style='stroke-width: 1.07; stroke: #2C3E50; stroke-linecap: butt;' clip-path='url(#cpNDMyLjk4fDc4Ny4wMnwzOTguMTl8MjY0LjQw)' />
<polyline points='610.00,311.15 610.00,351.63 ' style='stroke-width: 1.07; stroke: #2C3E50; stroke-linecap: butt;' clip-path='url(#cpNDMyLjk4fDc4Ny4wMnwzOTguMTl8MjY0LjQw)' />
<polyline points='610.00,351.63 610.00,351.63 ' style='stroke-width: 1.07; stroke: #2C3E50; stroke-linecap: butt;' clip-path='url(#cpNDMyLjk4fDc4Ny4wMnwzOTguMTl8MjY0LjQw)' />
<polyline points='620.99,303.07 620.99,303.07 ' style='stroke-width: 1.07; stroke: #2C3E50; stroke-linecap: butt;' clip-path='url(#cpNDMyLjk4fDc4Ny4wMnwzOTguMTl8MjY0LjQw)' />
<polyline points='620.99,303.07 620.99,343.55 ' style='stroke-width: 1.07; stroke: #2C3E50; stroke-linecap: butt;' clip-path='url(#cpNDMyLjk4fDc4Ny4wMnwzOTguMTl8MjY0LjQw)' />
<polyline points='620.99,343.55 620.99,343.55 ' style='stroke-width: 1.07; stroke: #2C3E50; stroke-linecap: butt;' clip-path='url(#cpNDMyLjk4fDc4Ny4wMnwzOTguMTl8MjY0LjQw)' />
<polyline points='632.17,299.16 632.17,299.16 ' style='stroke-width: 1.07; stroke: #2C3E50; stroke-linecap: butt;' clip-path='url(#cpNDMyLjk4fDc4Ny4wMnwzOTguMTl8MjY0LjQw)' />
<polyline points='632.17,299.16 632.17,339.65 ' style='stroke-width: 1.07; stroke: #2C3E50; stroke-linecap: butt;' clip-path='url(#cpNDMyLjk4fDc4Ny4wMnwzOTguMTl8MjY0LjQw)' />
<polyline points='632.17,339.65 632.17,339.65 ' style='stroke-width: 1.07; stroke: #2C3E50; stroke-linecap: butt;' clip-path='url(#cpNDMyLjk4fDc4Ny4wMnwzOTguMTl8MjY0LjQw)' />
<polyline points='643.77,295.30 643.77,295.30 ' style='stroke-width: 1.07; stroke: #2C3E50; stroke-linecap: butt;' clip-path='url(#cpNDMyLjk4fDc4Ny4wMnwzOTguMTl8MjY0LjQw)' />
<polyline points='643.77,295.30 643.77,335.78 ' style='stroke-width: 1.07; stroke: #2C3E50; stroke-linecap: butt;' clip-path='url(#cpNDMyLjk4fDc4Ny4wMnwzOTguMTl8MjY0LjQw)' />
<polyline points='643.77,335.78 643.77,335.78 ' style='stroke-width: 1.07; stroke: #2C3E50; stroke-linecap: butt;' clip-path='url(#cpNDMyLjk4fDc4Ny4wMnwzOTguMTl8MjY0LjQw)' />
<polyline points='656.08,291.65 656.08,291.65 ' style='stroke-width: 1.07; stroke: #2C3E50; stroke-linecap: butt;' clip-path='url(#cpNDMyLjk4fDc4Ny4wMnwzOTguMTl8MjY0LjQw)' />
<polyline points='656.08,291.65 656.08,332.13 ' style='stroke-width: 1.07; stroke: #2C3E50; stroke-linecap: butt;' clip-path='url(#cpNDMyLjk4fDc4Ny4wMnwzOTguMTl8MjY0LjQw)' />
<polyline points='656.08,332.13 656.08,332.13 ' style='stroke-width: 1.07; stroke: #2C3E50; stroke-linecap: butt;' clip-path='url(#cpNDMyLjk4fDc4Ny4wMnwzOTguMTl8MjY0LjQw)' />
<polyline points='669.50,287.74 669.50,287.74 ' style='stroke-width: 1.07; stroke: #2C3E50; stroke-linecap: butt;' clip-path='url(#cpNDMyLjk4fDc4Ny4wMnwzOTguMTl8MjY0LjQw)' />
<polyline points='669.50,287.74 669.50,328.22 ' style='stroke-width: 1.07; stroke: #2C3E50; stroke-linecap: butt;' clip-path='url(#cpNDMyLjk4fDc4Ny4wMnwzOTguMTl8MjY0LjQw)' />
<polyline points='669.50,328.22 669.50,328.22 ' style='stroke-width: 1.07; stroke: #2C3E50; stroke-linecap: butt;' clip-path='url(#cpNDMyLjk4fDc4Ny4wMnwzOTguMTl8MjY0LjQw)' />
<polyline points='684.69,287.72 684.69,287.72 ' style='stroke-width: 1.07; stroke: #2C3E50; stroke-linecap: butt;' clip-path='url(#cpNDMyLjk4fDc4Ny4wMnwzOTguMTl8MjY0LjQw)' />
<polyline points='684.69,287.72 684.69,328.20 ' style='stroke-width: 1.07; stroke: #2C3E50; stroke-linecap: butt;' clip-path='url(#cpNDMyLjk4fDc4Ny4wMnwzOTguMTl8MjY0LjQw)' />
<polyline points='684.69,328.20 684.69,328.20 ' style='stroke-width: 1.07; stroke: #2C3E50; stroke-linecap: butt;' clip-path='url(#cpNDMyLjk4fDc4Ny4wMnwzOTguMTl8MjY0LjQw)' />
<polyline points='702.92,287.29 702.92,287.29 ' style='stroke-width: 1.07; stroke: #2C3E50; stroke-linecap: butt;' clip-path='url(#cpNDMyLjk4fDc4Ny4wMnwzOTguMTl8MjY0LjQw)' />
<polyline points='702.92,287.29 702.92,327.77 ' style='stroke-width: 1.07; stroke: #2C3E50; stroke-linecap: butt;' clip-path='url(#cpNDMyLjk4fDc4Ny4wMnwzOTguMTl8MjY0LjQw)' />
<polyline points='702.92,327.77 702.92,327.77 ' style='stroke-width: 1.07; stroke: #2C3E50; stroke-linecap: butt;' clip-path='url(#cpNDMyLjk4fDc4Ny4wMnwzOTguMTl8MjY0LjQw)' />
<polyline points='727.27,287.10 727.27,287.10 ' style='stroke-width: 1.07; stroke: #2C3E50; stroke-linecap: butt;' clip-path='url(#cpNDMyLjk4fDc4Ny4wMnwzOTguMTl8MjY0LjQw)' />
<polyline points='727.27,287.10 727.27,327.58 ' style='stroke-width: 1.07; stroke: #2C3E50; stroke-linecap: butt;' clip-path='url(#cpNDMyLjk4fDc4Ny4wMnwzOTguMTl8MjY0LjQw)' />
<polyline points='727.27,327.58 727.27,327.58 ' style='stroke-width: 1.07; stroke: #2C3E50; stroke-linecap: butt;' clip-path='url(#cpNDMyLjk4fDc4Ny4wMnwzOTguMTl8MjY0LjQw)' />
<polyline points='770.93,270.48 770.93,270.48 ' style='stroke-width: 1.07; stroke: #2C3E50; stroke-linecap: butt;' clip-path='url(#cpNDMyLjk4fDc4Ny4wMnwzOTguMTl8MjY0LjQw)' />
<polyline points='770.93,270.48 770.93,310.97 ' style='stroke-width: 1.07; stroke: #2C3E50; stroke-linecap: butt;' clip-path='url(#cpNDMyLjk4fDc4Ny4wMnwzOTguMTl8MjY0LjQw)' />
<polyline points='770.93,310.97 770.93,310.97 ' style='stroke-width: 1.07; stroke: #2C3E50; stroke-linecap: butt;' clip-path='url(#cpNDMyLjk4fDc4Ny4wMnwzOTguMTl8MjY0LjQw)' />
<circle cx='449.07' cy='371.86' r='2.13' style='stroke-width: 0.00; stroke: none; fill: #2C3E50;' clip-path='url(#cpNDMyLjk4fDc4Ny4wMnwzOTguMTl8MjY0LjQw)' />
<circle cx='492.73' cy='363.58' r='2.13' style='stroke-width: 0.00; stroke: none; fill: #2C3E50;' clip-path='url(#cpNDMyLjk4fDc4Ny4wMnwzOTguMTl8MjY0LjQw)' />
<circle cx='517.08' cy='362.83' r='2.13' style='stroke-width: 0.00; stroke: none; fill: #2C3E50;' clip-path='url(#cpNDMyLjk4fDc4Ny4wMnwzOTguMTl8MjY0LjQw)' />
<circle cx='535.31' cy='349.18' r='2.13' style='stroke-width: 0.00; stroke: none; fill: #2C3E50;' clip-path='url(#cpNDMyLjk4fDc4Ny4wMnwzOTguMTl8MjY0LjQw)' />
<circle cx='550.50' cy='345.64' r='2.13' style='stroke-width: 0.00; stroke: none; fill: #2C3E50;' clip-path='url(#cpNDMyLjk4fDc4Ny4wMnwzOTguMTl8MjY0LjQw)' />
<circle cx='563.92' cy='345.34' r='2.13' style='stroke-width: 0.00; stroke: none; fill: #2C3E50;' clip-path='url(#cpNDMyLjk4fDc4Ny4wMnwzOTguMTl8MjY0LjQw)' />
<circle cx='576.22' cy='342.57' r='2.13' style='stroke-width: 0.00; stroke: none; fill: #2C3E50;' clip-path='url(#cpNDMyLjk4fDc4Ny4wMnwzOTguMTl8MjY0LjQw)' />
<circle cx='587.83' cy='339.68' r='2.13' style='stroke-width: 0.00; stroke: none; fill: #2C3E50;' clip-path='url(#cpNDMyLjk4fDc4Ny4wMnwzOTguMTl8MjY0LjQw)' />
<circle cx='599.01' cy='338.78' r='2.13' style='stroke-width: 0.00; stroke: none; fill: #2C3E50;' clip-path='url(#cpNDMyLjk4fDc4Ny4wMnwzOTguMTl8MjY0LjQw)' />
<circle cx='610.00' cy='331.39' r='2.13' style='stroke-width: 0.00; stroke: none; fill: #2C3E50;' clip-path='url(#cpNDMyLjk4fDc4Ny4wMnwzOTguMTl8MjY0LjQw)' />
<circle cx='620.99' cy='323.31' r='2.13' style='stroke-width: 0.00; stroke: none; fill: #2C3E50;' clip-path='url(#cpNDMyLjk4fDc4Ny4wMnwzOTguMTl8MjY0LjQw)' />
<circle cx='632.17' cy='319.41' r='2.13' style='stroke-width: 0.00; stroke: none; fill: #2C3E50;' clip-path='url(#cpNDMyLjk4fDc4Ny4wMnwzOTguMTl8MjY0LjQw)' />
<circle cx='643.77' cy='315.54' r='2.13' style='stroke-width: 0.00; stroke: none; fill: #2C3E50;' clip-path='url(#cpNDMyLjk4fDc4Ny4wMnwzOTguMTl8MjY0LjQw)' />
<circle cx='656.08' cy='311.89' r='2.13' style='stroke-width: 0.00; stroke: none; fill: #2C3E50;' clip-path='url(#cpNDMyLjk4fDc4Ny4wMnwzOTguMTl8MjY0LjQw)' />
<circle cx='669.50' cy='307.98' r='2.13' style='stroke-width: 0.00; stroke: none; fill: #2C3E50;' clip-path='url(#cpNDMyLjk4fDc4Ny4wMnwzOTguMTl8MjY0LjQw)' />
<circle cx='684.69' cy='307.96' r='2.13' style='stroke-width: 0.00; stroke: none; fill: #2C3E50;' clip-path='url(#cpNDMyLjk4fDc4Ny4wMnwzOTguMTl8MjY0LjQw)' />
<circle cx='702.92' cy='307.53' r='2.13' style='stroke-width: 0.00; stroke: none; fill: #2C3E50;' clip-path='url(#cpNDMyLjk4fDc4Ny4wMnwzOTguMTl8MjY0LjQw)' />
<circle cx='727.27' cy='307.34' r='2.13' style='stroke-width: 0.00; stroke: none; fill: #2C3E50;' clip-path='url(#cpNDMyLjk4fDc4Ny4wMnwzOTguMTl8MjY0LjQw)' />
<circle cx='770.93' cy='290.73' r='2.13' style='stroke-width: 0.00; stroke: none; fill: #2C3E50;' clip-path='url(#cpNDMyLjk4fDc4Ny4wMnwzOTguMTl8MjY0LjQw)' />
<defs>
  <clipPath id='cpMC4wMHw3OTIuMDB8NDMyLjAwfDAuMDA='>
    <rect x='0.00' y='0.00' width='792.00' height='432.00' />
  </clipPath>
</defs>
<defs>
  <clipPath id='cpNDQuMTd8Mzk4LjIxfDI2NC40MHwyNDguOTM='>
    <rect x='44.17' y='248.93' width='354.04' height='15.47' />
  </clipPath>
</defs>
<rect x='44.17' y='248.93' width='354.04' height='15.47' style='stroke-width: 0.97; stroke: #B3B3B3; fill: #E5E5E5;' clip-path='url(#cpNDQuMTd8Mzk4LjIxfDI2NC40MHwyNDguOTM=)' />
<g clip-path='url(#cpNDQuMTd8Mzk4LjIxfDI2NC40MHwyNDguOTM=)'><text x='201.64' y='259.42' style='font-size: 8.00px; font-weight: bold; fill: #4D4D4D; font-family: Liberation Sans;' textLength='39.11px' lengthAdjust='spacingAndGlyphs'>(Intercept)</text></g>
<defs>
  <clipPath id='cpMC4wMHw3OTIuMDB8NDMyLjAwfDAuMDA='>
    <rect x='0.00' y='0.00' width='792.00' height='432.00' />
  </clipPath>
</defs>
<defs>
  <clipPath id='cpNDMyLjk4fDc4Ny4wMnwyNjQuNDB8MjQ4Ljkz'>
    <rect x='432.98' y='248.93' width='354.04' height='15.47' />
  </clipPath>
</defs>
<rect x='432.98' y='248.93' width='354.04' height='15.47' style='stroke-width: 0.97; stroke: #B3B3B3; fill: #E5E5E5;' clip-path='url(#cpNDMyLjk4fDc4Ny4wMnwyNjQuNDB8MjQ4Ljkz)' />
<g clip-path='url(#cpNDMyLjk4fDc4Ny4wMnwyNjQuNDB8MjQ4Ljkz)'><text x='600.66' y='259.42' style='font-size: 8.00px; font-weight: bold; fill: #4D4D4D; font-family: Liberation Sans;' textLength='18.67px' lengthAdjust='spacingAndGlyphs'>conc</text></g>
<defs>
  <clipPath id='cpMC4wMHw3OTIuMDB8NDMyLjAwfDAuMDA='>
    <rect x='0.00' y='0.00' width='792.00' height='432.00' />
  </clipPath>
</defs>
<polyline points='44.17,398.19 398.21,398.19 ' style='stroke-width: 0.97; stroke: #CCCCCC; stroke-linecap: butt;' clip-path='url(#cpMC4wMHw3OTIuMDB8NDMyLjAwfDAuMDA=)' />
<g clip-path='url(#cpMC4wMHw3OTIuMDB8NDMyLjAwfDAuMDA=)'><text x='50.67' y='409.55' style='font-size: 10.00px; fill: #7F7F7F; font-family: Liberation Sans;' textLength='8.89px' lengthAdjust='spacingAndGlyphs'>-2</text></g>
<g clip-path='url(#cpMC4wMHw3OTIuMDB8NDMyLjAwfDAuMDA=)'><text x='133.71' y='409.55' style='font-size: 10.00px; fill: #7F7F7F; font-family: Liberation Sans;' textLength='8.89px' lengthAdjust='spacingAndGlyphs'>-1</text></g>
<g clip-path='url(#cpMC4wMHw3OTIuMDB8NDMyLjAwfDAuMDA=)'><text x='218.41' y='409.55' style='font-size: 10.00px; fill: #7F7F7F; font-family: Liberation Sans;' textLength='5.56px' lengthAdjust='spacingAndGlyphs'>0</text></g>
<g clip-path='url(#cpMC4wMHw3OTIuMDB8NDMyLjAwfDAuMDA=)'><text x='301.45' y='409.55' style='font-size: 10.00px; fill: #7F7F7F; font-family: Liberation Sans;' textLength='5.56px' lengthAdjust='spacingAndGlyphs'>1</text></g>
<g clip-path='url(#cpMC4wMHw3OTIuMDB8NDMyLjAwfDAuMDA=)'><text x='384.49' y='409.55' style='font-size: 10.00px; fill: #7F7F7F; font-family: Liberation Sans;' textLength='5.56px' lengthAdjust='spacingAndGlyphs'>2</text></g>
<polyline points='432.98,398.19 787.02,398.19 ' style='stroke-width: 0.97; stroke: #CCCCCC; stroke-linecap: butt;' clip-path='url(#cpMC4wMHw3OTIuMDB8NDMyLjAwfDAuMDA=)' />
<g clip-path='url(#cpMC4wMHw3OTIuMDB8NDMyLjAwfDAuMDA=)'><text x='439.47' y='409.55' style='font-size: 10.00px; fill: #7F7F7F; font-family: Liberation Sans;' textLength='8.89px' lengthAdjust='spacingAndGlyphs'>-2</text></g>
<g clip-path='url(#cpMC4wMHw3OTIuMDB8NDMyLjAwfDAuMDA=)'><text x='522.51' y='409.55' style='font-size: 10.00px; fill: #7F7F7F; font-family: Liberation Sans;' textLength='8.89px' lengthAdjust='spacingAndGlyphs'>-1</text></g>
<g clip-path='url(#cpMC4wMHw3OTIuMDB8NDMyLjAwfDAuMDA=)'><text x='607.22' y='409.55' style='font-size: 10.00px; fill: #7F7F7F; font-family: Liberation Sans;' textLength='5.56px' lengthAdjust='spacingAndGlyphs'>0</text></g>
<g clip-path='url(#cpMC4wMHw3OTIuMDB8NDMyLjAwfDAuMDA=)'><text x='690.26' y='409.55' style='font-size: 10.00px; fill: #7F7F7F; font-family: Liberation Sans;' textLength='5.56px' lengthAdjust='spacingAndGlyphs'>1</text></g>
<g clip-path='url(#cpMC4wMHw3OTIuMDB8NDMyLjAwfDAuMDA=)'><text x='773.30' y='409.55' style='font-size: 10.00px; fill: #7F7F7F; font-family: Liberation Sans;' textLength='5.56px' lengthAdjust='spacingAndGlyphs'>2</text></g>
<polyline points='432.98,398.19 432.98,264.40 ' style='stroke-width: 0.97; stroke: #CCCCCC; stroke-linecap: butt;' clip-path='url(#cpMC4wMHw3OTIuMDB8NDMyLjAwfDAuMDA=)' />
<g clip-path='url(#cpMC4wMHw3OTIuMDB8NDMyLjAwfDAuMDA=)'><text x='405.70' y='391.88' style='font-size: 10.00px; fill: #7F7F7F; font-family: Liberation Sans;' textLength='22.79px' lengthAdjust='spacingAndGlyphs'>-0.02</text></g>
<g clip-path='url(#cpMC4wMHw3OTIuMDB8NDMyLjAwfDAuMDA=)'><text x='405.70' y='362.99' style='font-size: 10.00px; fill: #7F7F7F; font-family: Liberation Sans;' textLength='22.79px' lengthAdjust='spacingAndGlyphs'>-0.01</text></g>
<g clip-path='url(#cpMC4wMHw3OTIuMDB8NDMyLjAwfDAuMDA=)'><text x='409.03' y='334.10' style='font-size: 10.00px; fill: #7F7F7F; font-family: Liberation Sans;' textLength='19.46px' lengthAdjust='spacingAndGlyphs'>0.00</text></g>
<g clip-path='url(#cpMC4wMHw3OTIuMDB8NDMyLjAwfDAuMDA=)'><text x='409.03' y='305.21' style='font-size: 10.00px; fill: #7F7F7F; font-family: Liberation Sans;' textLength='19.46px' lengthAdjust='spacingAndGlyphs'>0.01</text></g>
<g clip-path='url(#cpMC4wMHw3OTIuMDB8NDMyLjAwfDAuMDA=)'><text x='409.03' y='276.31' style='font-size: 10.00px; fill: #7F7F7F; font-family: Liberation Sans;' textLength='19.46px' lengthAdjust='spacingAndGlyphs'>0.02</text></g>
<polyline points='44.17,398.19 44.17,264.40 ' style='stroke-width: 0.97; stroke: #CCCCCC; stroke-linecap: butt;' clip-path='url(#cpMC4wMHw3OTIuMDB8NDMyLjAwfDAuMDA=)' />
<g clip-path='url(#cpMC4wMHw3OTIuMDB8NDMyLjAwfDAuMDA=)'><text x='22.46' y='370.82' style='font-size: 10.00px; fill: #7F7F7F; font-family: Liberation Sans;' textLength='17.23px' lengthAdjust='spacingAndGlyphs'>-0.1</text></g>
<g clip-path='url(#cpMC4wMHw3OTIuMDB8NDMyLjAwfDAuMDA=)'><text x='25.79' y='328.41' style='font-size: 10.00px; fill: #7F7F7F; font-family: Liberation Sans;' textLength='13.90px' lengthAdjust='spacingAndGlyphs'>0.0</text></g>
<g clip-path='url(#cpMC4wMHw3OTIuMDB8NDMyLjAwfDAuMDA=)'><text x='25.79' y='285.99' style='font-size: 10.00px; fill: #7F7F7F; font-family: Liberation Sans;' textLength='13.90px' lengthAdjust='spacingAndGlyphs'>0.1</text></g>
<g clip-path='url(#cpMC4wMHw3OTIuMDB8NDMyLjAwfDAuMDA=)'><text x='363.63' y='424.60' style='font-size: 11.00px; fill: #4D4D4D; font-family: Liberation Sans;' textLength='103.94px' lengthAdjust='spacingAndGlyphs'>Theoretical Quantiles</text></g>
<g clip-path='url(#cpMC4wMHw3OTIuMDB8NDMyLjAwfDAuMDA=)'><text transform='translate(12.55,363.70) rotate(-90)' style='font-size: 11.00px; fill: #4D4D4D; font-family: Liberation Sans;' textLength='64.81px' lengthAdjust='spacingAndGlyphs'>RE Quantiles</text></g>
<g clip-path='url(#cpMC4wMHw3OTIuMDB8NDMyLjAwfDAuMDA=)'><text x='44.17' y='241.75' style='font-size: 10.00px; font-family: Liberation Sans;' textLength='161.78px' lengthAdjust='spacingAndGlyphs'>Dots should be plotted along the line</text></g>
<g clip-path='url(#cpMC4wMHw3OTIuMDB8NDMyLjAwfDAuMDA=)'><text x='44.17' y='229.24' style='font-size: 12.00px; font-family: Liberation Sans;' textLength='202.73px' lengthAdjust='spacingAndGlyphs'>Normality of Random Effects (sample)</text></g>
</svg>
