<?xml version='1.0' encoding='UTF-8' ?>
<svg xmlns='http://www.w3.org/2000/svg' xmlns:xlink='http://www.w3.org/1999/xlink' viewBox='0 0 792.00 432.00'>
<defs>
  <style type='text/css'><![CDATA[
    line, polyline, polygon, path, rect, circle {
      fill: none;
      stroke: #000000;
      stroke-linecap: round;
      stroke-linejoin: round;
      stroke-miterlimit: 10.00;
    }
  ]]></style>
</defs>
<rect width='100%' height='100%' style='stroke: none; fill: #FFFFFF;'/>
<rect x='0.00' y='0.00' width='792.00' height='432.00' style='stroke-width: 1.55; stroke: #BFC4BB; fill: #BFC4BB;' />
<defs>
  <clipPath id='cpNDkuMDF8NDEyLjU0fDM4Ni40OHwzMi41NQ=='>
    <rect x='49.01' y='32.55' width='363.52' height='353.93' />
  </clipPath>
</defs>
<rect x='49.01' y='32.55' width='363.52' height='353.93' style='stroke-width: 1.55; stroke: none; fill: #BFC4BB;' clip-path='url(#cpNDkuMDF8NDEyLjU0fDM4Ni40OHwzMi41NQ==)' />
<polyline points='53.22,386.48 53.22,32.55 ' style='stroke-width: 0.078; stroke-linecap: butt;' clip-path='url(#cpNDkuMDF8NDEyLjU0fDM4Ni40OHwzMi41NQ==)' />
<polyline points='120.79,386.48 120.79,32.55 ' style='stroke-width: 0.078; stroke-linecap: butt;' clip-path='url(#cpNDkuMDF8NDEyLjU0fDM4Ni40OHwzMi41NQ==)' />
<polyline points='188.36,386.48 188.36,32.55 ' style='stroke-width: 0.078; stroke-linecap: butt;' clip-path='url(#cpNDkuMDF8NDEyLjU0fDM4Ni40OHwzMi41NQ==)' />
<polyline points='255.92,386.48 255.92,32.55 ' style='stroke-width: 0.078; stroke-linecap: butt;' clip-path='url(#cpNDkuMDF8NDEyLjU0fDM4Ni40OHwzMi41NQ==)' />
<polyline points='323.49,386.48 323.49,32.55 ' style='stroke-width: 0.078; stroke-linecap: butt;' clip-path='url(#cpNDkuMDF8NDEyLjU0fDM4Ni40OHwzMi41NQ==)' />
<polyline points='391.06,386.48 391.06,32.55 ' style='stroke-width: 0.078; stroke-linecap: butt;' clip-path='url(#cpNDkuMDF8NDEyLjU0fDM4Ni40OHwzMi41NQ==)' />
<polyline points='49.01,375.42 412.54,375.42 ' style='stroke-width: 0.16; stroke-linecap: butt;' clip-path='url(#cpNDkuMDF8NDEyLjU0fDM4Ni40OHwzMi41NQ==)' />
<polyline points='49.01,356.99 412.54,356.99 ' style='stroke-width: 0.16; stroke-linecap: butt;' clip-path='url(#cpNDkuMDF8NDEyLjU0fDM4Ni40OHwzMi41NQ==)' />
<polyline points='49.01,338.56 412.54,338.56 ' style='stroke-width: 0.16; stroke-linecap: butt;' clip-path='url(#cpNDkuMDF8NDEyLjU0fDM4Ni40OHwzMi41NQ==)' />
<polyline points='49.01,320.12 412.54,320.12 ' style='stroke-width: 0.16; stroke-linecap: butt;' clip-path='url(#cpNDkuMDF8NDEyLjU0fDM4Ni40OHwzMi41NQ==)' />
<polyline points='49.01,301.69 412.54,301.69 ' style='stroke-width: 0.16; stroke-linecap: butt;' clip-path='url(#cpNDkuMDF8NDEyLjU0fDM4Ni40OHwzMi41NQ==)' />
<polyline points='49.01,283.25 412.54,283.25 ' style='stroke-width: 0.16; stroke-linecap: butt;' clip-path='url(#cpNDkuMDF8NDEyLjU0fDM4Ni40OHwzMi41NQ==)' />
<polyline points='49.01,264.82 412.54,264.82 ' style='stroke-width: 0.16; stroke-linecap: butt;' clip-path='url(#cpNDkuMDF8NDEyLjU0fDM4Ni40OHwzMi41NQ==)' />
<polyline points='49.01,246.39 412.54,246.39 ' style='stroke-width: 0.16; stroke-linecap: butt;' clip-path='url(#cpNDkuMDF8NDEyLjU0fDM4Ni40OHwzMi41NQ==)' />
<polyline points='49.01,227.95 412.54,227.95 ' style='stroke-width: 0.16; stroke-linecap: butt;' clip-path='url(#cpNDkuMDF8NDEyLjU0fDM4Ni40OHwzMi41NQ==)' />
<polyline points='49.01,209.52 412.54,209.52 ' style='stroke-width: 0.16; stroke-linecap: butt;' clip-path='url(#cpNDkuMDF8NDEyLjU0fDM4Ni40OHwzMi41NQ==)' />
<polyline points='49.01,191.08 412.54,191.08 ' style='stroke-width: 0.16; stroke-linecap: butt;' clip-path='url(#cpNDkuMDF8NDEyLjU0fDM4Ni40OHwzMi41NQ==)' />
<polyline points='49.01,172.65 412.54,172.65 ' style='stroke-width: 0.16; stroke-linecap: butt;' clip-path='url(#cpNDkuMDF8NDEyLjU0fDM4Ni40OHwzMi41NQ==)' />
<polyline points='49.01,154.22 412.54,154.22 ' style='stroke-width: 0.16; stroke-linecap: butt;' clip-path='url(#cpNDkuMDF8NDEyLjU0fDM4Ni40OHwzMi41NQ==)' />
<polyline points='49.01,135.78 412.54,135.78 ' style='stroke-width: 0.16; stroke-linecap: butt;' clip-path='url(#cpNDkuMDF8NDEyLjU0fDM4Ni40OHwzMi41NQ==)' />
<polyline points='49.01,117.35 412.54,117.35 ' style='stroke-width: 0.16; stroke-linecap: butt;' clip-path='url(#cpNDkuMDF8NDEyLjU0fDM4Ni40OHwzMi41NQ==)' />
<polyline points='49.01,98.91 412.54,98.91 ' style='stroke-width: 0.16; stroke-linecap: butt;' clip-path='url(#cpNDkuMDF8NDEyLjU0fDM4Ni40OHwzMi41NQ==)' />
<polyline points='49.01,80.48 412.54,80.48 ' style='stroke-width: 0.16; stroke-linecap: butt;' clip-path='url(#cpNDkuMDF8NDEyLjU0fDM4Ni40OHwzMi41NQ==)' />
<polyline points='49.01,62.05 412.54,62.05 ' style='stroke-width: 0.16; stroke-linecap: butt;' clip-path='url(#cpNDkuMDF8NDEyLjU0fDM4Ni40OHwzMi41NQ==)' />
<polyline points='49.01,43.61 412.54,43.61 ' style='stroke-width: 0.16; stroke-linecap: butt;' clip-path='url(#cpNDkuMDF8NDEyLjU0fDM4Ni40OHwzMi41NQ==)' />
<polyline points='87.00,386.48 87.00,32.55 ' style='stroke-width: 0.16; stroke-linecap: butt;' clip-path='url(#cpNDkuMDF8NDEyLjU0fDM4Ni40OHwzMi41NQ==)' />
<polyline points='154.57,386.48 154.57,32.55 ' style='stroke-width: 0.16; stroke-linecap: butt;' clip-path='url(#cpNDkuMDF8NDEyLjU0fDM4Ni40OHwzMi41NQ==)' />
<polyline points='222.14,386.48 222.14,32.55 ' style='stroke-width: 0.16; stroke-linecap: butt;' clip-path='url(#cpNDkuMDF8NDEyLjU0fDM4Ni40OHwzMi41NQ==)' />
<polyline points='289.71,386.48 289.71,32.55 ' style='stroke-width: 0.16; stroke-linecap: butt;' clip-path='url(#cpNDkuMDF8NDEyLjU0fDM4Ni40OHwzMi41NQ==)' />
<polyline points='357.28,386.48 357.28,32.55 ' style='stroke-width: 0.16; stroke-linecap: butt;' clip-path='url(#cpNDkuMDF8NDEyLjU0fDM4Ni40OHwzMi41NQ==)' />
<line x1='222.14' y1='386.48' x2='222.14' y2='32.55' style='stroke-width: 0.85; stroke-dasharray: 7.97,3.41; stroke-linecap: butt;' clip-path='url(#cpNDkuMDF8NDEyLjU0fDM4Ni40OHwzMi41NQ==)' />
<circle cx='251.27' cy='117.35' r='1.95' style='stroke-width: 0.71; fill: #000000;' clip-path='url(#cpNDkuMDF8NDEyLjU0fDM4Ni40OHwzMi41NQ==)' />
<circle cx='161.43' cy='356.99' r='1.95' style='stroke-width: 0.71; fill: #000000;' clip-path='url(#cpNDkuMDF8NDEyLjU0fDM4Ni40OHwzMi41NQ==)' />
<circle cx='234.41' cy='172.65' r='1.95' style='stroke-width: 0.71; fill: #000000;' clip-path='url(#cpNDkuMDF8NDEyLjU0fDM4Ni40OHwzMi41NQ==)' />
<circle cx='253.21' cy='98.91' r='1.95' style='stroke-width: 0.71; fill: #000000;' clip-path='url(#cpNDkuMDF8NDEyLjU0fDM4Ni40OHwzMi41NQ==)' />
<circle cx='203.85' cy='264.82' r='1.95' style='stroke-width: 0.71; fill: #000000;' clip-path='url(#cpNDkuMDF8NDEyLjU0fDM4Ni40OHwzMi41NQ==)' />
<circle cx='221.40' cy='191.08' r='1.95' style='stroke-width: 0.71; fill: #000000;' clip-path='url(#cpNDkuMDF8NDEyLjU0fDM4Ni40OHwzMi41NQ==)' />
<circle cx='245.02' cy='154.22' r='1.95' style='stroke-width: 0.71; fill: #000000;' clip-path='url(#cpNDkuMDF8NDEyLjU0fDM4Ni40OHwzMi41NQ==)' />
<circle cx='209.68' cy='227.95' r='1.95' style='stroke-width: 0.71; fill: #000000;' clip-path='url(#cpNDkuMDF8NDEyLjU0fDM4Ni40OHwzMi41NQ==)' />
<circle cx='218.99' cy='209.52' r='1.95' style='stroke-width: 0.71; fill: #000000;' clip-path='url(#cpNDkuMDF8NDEyLjU0fDM4Ni40OHwzMi41NQ==)' />
<circle cx='307.22' cy='62.05' r='1.95' style='stroke-width: 0.71; fill: #000000;' clip-path='url(#cpNDkuMDF8NDEyLjU0fDM4Ni40OHwzMi41NQ==)' />
<circle cx='311.25' cy='43.61' r='1.95' style='stroke-width: 0.71; fill: #000000;' clip-path='url(#cpNDkuMDF8NDEyLjU0fDM4Ni40OHwzMi41NQ==)' />
<circle cx='250.34' cy='135.78' r='1.95' style='stroke-width: 0.71; fill: #000000;' clip-path='url(#cpNDkuMDF8NDEyLjU0fDM4Ni40OHwzMi41NQ==)' />
<circle cx='259.85' cy='80.48' r='1.95' style='stroke-width: 0.71; fill: #000000;' clip-path='url(#cpNDkuMDF8NDEyLjU0fDM4Ni40OHwzMi41NQ==)' />
<circle cx='198.47' cy='283.25' r='1.95' style='stroke-width: 0.71; fill: #000000;' clip-path='url(#cpNDkuMDF8NDEyLjU0fDM4Ni40OHwzMi41NQ==)' />
<circle cx='150.30' cy='375.42' r='1.95' style='stroke-width: 0.71; fill: #000000;' clip-path='url(#cpNDkuMDF8NDEyLjU0fDM4Ni40OHwzMi41NQ==)' />
<circle cx='207.27' cy='246.39' r='1.95' style='stroke-width: 0.71; fill: #000000;' clip-path='url(#cpNDkuMDF8NDEyLjU0fDM4Ni40OHwzMi41NQ==)' />
<circle cx='189.20' cy='301.69' r='1.95' style='stroke-width: 0.71; fill: #000000;' clip-path='url(#cpNDkuMDF8NDEyLjU0fDM4Ni40OHwzMi41NQ==)' />
<circle cx='184.32' cy='320.12' r='1.95' style='stroke-width: 0.71; fill: #000000;' clip-path='url(#cpNDkuMDF8NDEyLjU0fDM4Ni40OHwzMi41NQ==)' />
<circle cx='163.18' cy='338.56' r='1.95' style='stroke-width: 0.71; fill: #000000;' clip-path='url(#cpNDkuMDF8NDEyLjU0fDM4Ni40OHwzMi41NQ==)' />
<polyline points='336.02,117.35 336.02,117.35 ' style='stroke-width: 1.07; stroke-linecap: butt;' clip-path='url(#cpNDkuMDF8NDEyLjU0fDM4Ni40OHwzMi41NQ==)' />
<polyline points='336.02,117.35 166.51,117.35 ' style='stroke-width: 1.07; stroke-linecap: butt;' clip-path='url(#cpNDkuMDF8NDEyLjU0fDM4Ni40OHwzMi41NQ==)' />
<polyline points='166.51,117.35 166.51,117.35 ' style='stroke-width: 1.07; stroke-linecap: butt;' clip-path='url(#cpNDkuMDF8NDEyLjU0fDM4Ni40OHwzMi41NQ==)' />
<polyline points='246.19,356.99 246.19,356.99 ' style='stroke-width: 1.07; stroke-linecap: butt;' clip-path='url(#cpNDkuMDF8NDEyLjU0fDM4Ni40OHwzMi41NQ==)' />
<polyline points='246.19,356.99 76.67,356.99 ' style='stroke-width: 1.07; stroke-linecap: butt;' clip-path='url(#cpNDkuMDF8NDEyLjU0fDM4Ni40OHwzMi41NQ==)' />
<polyline points='76.67,356.99 76.67,356.99 ' style='stroke-width: 1.07; stroke-linecap: butt;' clip-path='url(#cpNDkuMDF8NDEyLjU0fDM4Ni40OHwzMi41NQ==)' />
<polyline points='319.17,172.65 319.17,172.65 ' style='stroke-width: 1.07; stroke-linecap: butt;' clip-path='url(#cpNDkuMDF8NDEyLjU0fDM4Ni40OHwzMi41NQ==)' />
<polyline points='319.17,172.65 149.66,172.65 ' style='stroke-width: 1.07; stroke-linecap: butt;' clip-path='url(#cpNDkuMDF8NDEyLjU0fDM4Ni40OHwzMi41NQ==)' />
<polyline points='149.66,172.65 149.66,172.65 ' style='stroke-width: 1.07; stroke-linecap: butt;' clip-path='url(#cpNDkuMDF8NDEyLjU0fDM4Ni40OHwzMi41NQ==)' />
<polyline points='337.97,98.91 337.97,98.91 ' style='stroke-width: 1.07; stroke-linecap: butt;' clip-path='url(#cpNDkuMDF8NDEyLjU0fDM4Ni40OHwzMi41NQ==)' />
<polyline points='337.97,98.91 168.45,98.91 ' style='stroke-width: 1.07; stroke-linecap: butt;' clip-path='url(#cpNDkuMDF8NDEyLjU0fDM4Ni40OHwzMi41NQ==)' />
<polyline points='168.45,98.91 168.45,98.91 ' style='stroke-width: 1.07; stroke-linecap: butt;' clip-path='url(#cpNDkuMDF8NDEyLjU0fDM4Ni40OHwzMi41NQ==)' />
<polyline points='288.60,264.82 288.60,264.82 ' style='stroke-width: 1.07; stroke-linecap: butt;' clip-path='url(#cpNDkuMDF8NDEyLjU0fDM4Ni40OHwzMi41NQ==)' />
<polyline points='288.60,264.82 119.09,264.82 ' style='stroke-width: 1.07; stroke-linecap: butt;' clip-path='url(#cpNDkuMDF8NDEyLjU0fDM4Ni40OHwzMi41NQ==)' />
<polyline points='119.09,264.82 119.09,264.82 ' style='stroke-width: 1.07; stroke-linecap: butt;' clip-path='url(#cpNDkuMDF8NDEyLjU0fDM4Ni40OHwzMi41NQ==)' />
<polyline points='306.16,191.08 306.16,191.08 ' style='stroke-width: 1.07; stroke-linecap: butt;' clip-path='url(#cpNDkuMDF8NDEyLjU0fDM4Ni40OHwzMi41NQ==)' />
<polyline points='306.16,191.08 136.65,191.08 ' style='stroke-width: 1.07; stroke-linecap: butt;' clip-path='url(#cpNDkuMDF8NDEyLjU0fDM4Ni40OHwzMi41NQ==)' />
<polyline points='136.65,191.08 136.65,191.08 ' style='stroke-width: 1.07; stroke-linecap: butt;' clip-path='url(#cpNDkuMDF8NDEyLjU0fDM4Ni40OHwzMi41NQ==)' />
<polyline points='329.78,154.22 329.78,154.22 ' style='stroke-width: 1.07; stroke-linecap: butt;' clip-path='url(#cpNDkuMDF8NDEyLjU0fDM4Ni40OHwzMi41NQ==)' />
<polyline points='329.78,154.22 160.26,154.22 ' style='stroke-width: 1.07; stroke-linecap: butt;' clip-path='url(#cpNDkuMDF8NDEyLjU0fDM4Ni40OHwzMi41NQ==)' />
<polyline points='160.26,154.22 160.26,154.22 ' style='stroke-width: 1.07; stroke-linecap: butt;' clip-path='url(#cpNDkuMDF8NDEyLjU0fDM4Ni40OHwzMi41NQ==)' />
<polyline points='294.44,227.95 294.44,227.95 ' style='stroke-width: 1.07; stroke-linecap: butt;' clip-path='url(#cpNDkuMDF8NDEyLjU0fDM4Ni40OHwzMi41NQ==)' />
<polyline points='294.44,227.95 124.93,227.95 ' style='stroke-width: 1.07; stroke-linecap: butt;' clip-path='url(#cpNDkuMDF8NDEyLjU0fDM4Ni40OHwzMi41NQ==)' />
<polyline points='124.93,227.95 124.93,227.95 ' style='stroke-width: 1.07; stroke-linecap: butt;' clip-path='url(#cpNDkuMDF8NDEyLjU0fDM4Ni40OHwzMi41NQ==)' />
<polyline points='303.75,209.52 303.75,209.52 ' style='stroke-width: 1.07; stroke-linecap: butt;' clip-path='url(#cpNDkuMDF8NDEyLjU0fDM4Ni40OHwzMi41NQ==)' />
<polyline points='303.75,209.52 134.23,209.52 ' style='stroke-width: 1.07; stroke-linecap: butt;' clip-path='url(#cpNDkuMDF8NDEyLjU0fDM4Ni40OHwzMi41NQ==)' />
<polyline points='134.23,209.52 134.23,209.52 ' style='stroke-width: 1.07; stroke-linecap: butt;' clip-path='url(#cpNDkuMDF8NDEyLjU0fDM4Ni40OHwzMi41NQ==)' />
<polyline points='391.98,62.05 391.98,62.05 ' style='stroke-width: 1.07; stroke-linecap: butt;' clip-path='url(#cpNDkuMDF8NDEyLjU0fDM4Ni40OHwzMi41NQ==)' />
<polyline points='391.98,62.05 222.46,62.05 ' style='stroke-width: 1.07; stroke-linecap: butt;' clip-path='url(#cpNDkuMDF8NDEyLjU0fDM4Ni40OHwzMi41NQ==)' />
<polyline points='222.46,62.05 222.46,62.05 ' style='stroke-width: 1.07; stroke-linecap: butt;' clip-path='url(#cpNDkuMDF8NDEyLjU0fDM4Ni40OHwzMi41NQ==)' />
<polyline points='396.01,43.61 396.01,43.61 ' style='stroke-width: 1.07; stroke-linecap: butt;' clip-path='url(#cpNDkuMDF8NDEyLjU0fDM4Ni40OHwzMi41NQ==)' />
<polyline points='396.01,43.61 226.49,43.61 ' style='stroke-width: 1.07; stroke-linecap: butt;' clip-path='url(#cpNDkuMDF8NDEyLjU0fDM4Ni40OHwzMi41NQ==)' />
<polyline points='226.49,43.61 226.49,43.61 ' style='stroke-width: 1.07; stroke-linecap: butt;' clip-path='url(#cpNDkuMDF8NDEyLjU0fDM4Ni40OHwzMi41NQ==)' />
<polyline points='335.10,135.78 335.10,135.78 ' style='stroke-width: 1.07; stroke-linecap: butt;' clip-path='url(#cpNDkuMDF8NDEyLjU0fDM4Ni40OHwzMi41NQ==)' />
<polyline points='335.10,135.78 165.58,135.78 ' style='stroke-width: 1.07; stroke-linecap: butt;' clip-path='url(#cpNDkuMDF8NDEyLjU0fDM4Ni40OHwzMi41NQ==)' />
<polyline points='165.58,135.78 165.58,135.78 ' style='stroke-width: 1.07; stroke-linecap: butt;' clip-path='url(#cpNDkuMDF8NDEyLjU0fDM4Ni40OHwzMi41NQ==)' />
<polyline points='344.61,80.48 344.61,80.48 ' style='stroke-width: 1.07; stroke-linecap: butt;' clip-path='url(#cpNDkuMDF8NDEyLjU0fDM4Ni40OHwzMi41NQ==)' />
<polyline points='344.61,80.48 175.09,80.48 ' style='stroke-width: 1.07; stroke-linecap: butt;' clip-path='url(#cpNDkuMDF8NDEyLjU0fDM4Ni40OHwzMi41NQ==)' />
<polyline points='175.09,80.48 175.09,80.48 ' style='stroke-width: 1.07; stroke-linecap: butt;' clip-path='url(#cpNDkuMDF8NDEyLjU0fDM4Ni40OHwzMi41NQ==)' />
<polyline points='283.23,283.25 283.23,283.25 ' style='stroke-width: 1.07; stroke-linecap: butt;' clip-path='url(#cpNDkuMDF8NDEyLjU0fDM4Ni40OHwzMi41NQ==)' />
<polyline points='283.23,283.25 113.71,283.25 ' style='stroke-width: 1.07; stroke-linecap: butt;' clip-path='url(#cpNDkuMDF8NDEyLjU0fDM4Ni40OHwzMi41NQ==)' />
<polyline points='113.71,283.25 113.71,283.25 ' style='stroke-width: 1.07; stroke-linecap: butt;' clip-path='url(#cpNDkuMDF8NDEyLjU0fDM4Ni40OHwzMi41NQ==)' />
<polyline points='235.06,375.42 235.06,375.42 ' style='stroke-width: 1.07; stroke-linecap: butt;' clip-path='url(#cpNDkuMDF8NDEyLjU0fDM4Ni40OHwzMi41NQ==)' />
<polyline points='235.06,375.42 65.54,375.42 ' style='stroke-width: 1.07; stroke-linecap: butt;' clip-path='url(#cpNDkuMDF8NDEyLjU0fDM4Ni40OHwzMi41NQ==)' />
<polyline points='65.54,375.42 65.54,375.42 ' style='stroke-width: 1.07; stroke-linecap: butt;' clip-path='url(#cpNDkuMDF8NDEyLjU0fDM4Ni40OHwzMi41NQ==)' />
<polyline points='292.03,246.39 292.03,246.39 ' style='stroke-width: 1.07; stroke-linecap: butt;' clip-path='url(#cpNDkuMDF8NDEyLjU0fDM4Ni40OHwzMi41NQ==)' />
<polyline points='292.03,246.39 122.51,246.39 ' style='stroke-width: 1.07; stroke-linecap: butt;' clip-path='url(#cpNDkuMDF8NDEyLjU0fDM4Ni40OHwzMi41NQ==)' />
<polyline points='122.51,246.39 122.51,246.39 ' style='stroke-width: 1.07; stroke-linecap: butt;' clip-path='url(#cpNDkuMDF8NDEyLjU0fDM4Ni40OHwzMi41NQ==)' />
<polyline points='273.95,301.69 273.95,301.69 ' style='stroke-width: 1.07; stroke-linecap: butt;' clip-path='url(#cpNDkuMDF8NDEyLjU0fDM4Ni40OHwzMi41NQ==)' />
<polyline points='273.95,301.69 104.44,301.69 ' style='stroke-width: 1.07; stroke-linecap: butt;' clip-path='url(#cpNDkuMDF8NDEyLjU0fDM4Ni40OHwzMi41NQ==)' />
<polyline points='104.44,301.69 104.44,301.69 ' style='stroke-width: 1.07; stroke-linecap: butt;' clip-path='url(#cpNDkuMDF8NDEyLjU0fDM4Ni40OHwzMi41NQ==)' />
<polyline points='269.08,320.12 269.08,320.12 ' style='stroke-width: 1.07; stroke-linecap: butt;' clip-path='url(#cpNDkuMDF8NDEyLjU0fDM4Ni40OHwzMi41NQ==)' />
<polyline points='269.08,320.12 99.56,320.12 ' style='stroke-width: 1.07; stroke-linecap: butt;' clip-path='url(#cpNDkuMDF8NDEyLjU0fDM4Ni40OHwzMi41NQ==)' />
<polyline points='99.56,320.12 99.56,320.12 ' style='stroke-width: 1.07; stroke-linecap: butt;' clip-path='url(#cpNDkuMDF8NDEyLjU0fDM4Ni40OHwzMi41NQ==)' />
<polyline points='247.94,338.56 247.94,338.56 ' style='stroke-width: 1.07; stroke-linecap: butt;' clip-path='url(#cpNDkuMDF8NDEyLjU0fDM4Ni40OHwzMi41NQ==)' />
<polyline points='247.94,338.56 78.42,338.56 ' style='stroke-width: 1.07; stroke-linecap: butt;' clip-path='url(#cpNDkuMDF8NDEyLjU0fDM4Ni40OHwzMi41NQ==)' />
<polyline points='78.42,338.56 78.42,338.56 ' style='stroke-width: 1.07; stroke-linecap: butt;' clip-path='url(#cpNDkuMDF8NDEyLjU0fDM4Ni40OHwzMi41NQ==)' />
<rect x='49.01' y='32.55' width='363.52' height='353.93' style='stroke-width: 1.55;' clip-path='url(#cpNDkuMDF8NDEyLjU0fDM4Ni40OHwzMi41NQ==)' />
<defs>
  <clipPath id='cpMC4wMHw3OTIuMDB8NDMyLjAwfDAuMDA='>
    <rect x='0.00' y='0.00' width='792.00' height='432.00' />
  </clipPath>
</defs>
<defs>
  <clipPath id='cpNDIwLjUxfDc4NC4wM3wzODYuNDh8MzIuNTU='>
    <rect x='420.51' y='32.55' width='363.52' height='353.93' />
  </clipPath>
</defs>
<rect x='420.51' y='32.55' width='363.52' height='353.93' style='stroke-width: 1.55; stroke: none; fill: #BFC4BB;' clip-path='url(#cpNDIwLjUxfDc4NC4wM3wzODYuNDh8MzIuNTU=)' />
<polyline points='424.71,386.48 424.71,32.55 ' style='stroke-width: 0.078; stroke-linecap: butt;' clip-path='url(#cpNDIwLjUxfDc4NC4wM3wzODYuNDh8MzIuNTU=)' />
<polyline points='492.28,386.48 492.28,32.55 ' style='stroke-width: 0.078; stroke-linecap: butt;' clip-path='url(#cpNDIwLjUxfDc4NC4wM3wzODYuNDh8MzIuNTU=)' />
<polyline points='559.85,386.48 559.85,32.55 ' style='stroke-width: 0.078; stroke-linecap: butt;' clip-path='url(#cpNDIwLjUxfDc4NC4wM3wzODYuNDh8MzIuNTU=)' />
<polyline points='627.42,386.48 627.42,32.55 ' style='stroke-width: 0.078; stroke-linecap: butt;' clip-path='url(#cpNDIwLjUxfDc4NC4wM3wzODYuNDh8MzIuNTU=)' />
<polyline points='694.99,386.48 694.99,32.55 ' style='stroke-width: 0.078; stroke-linecap: butt;' clip-path='url(#cpNDIwLjUxfDc4NC4wM3wzODYuNDh8MzIuNTU=)' />
<polyline points='762.55,386.48 762.55,32.55 ' style='stroke-width: 0.078; stroke-linecap: butt;' clip-path='url(#cpNDIwLjUxfDc4NC4wM3wzODYuNDh8MzIuNTU=)' />
<polyline points='420.51,375.42 784.03,375.42 ' style='stroke-width: 0.16; stroke-linecap: butt;' clip-path='url(#cpNDIwLjUxfDc4NC4wM3wzODYuNDh8MzIuNTU=)' />
<polyline points='420.51,356.99 784.03,356.99 ' style='stroke-width: 0.16; stroke-linecap: butt;' clip-path='url(#cpNDIwLjUxfDc4NC4wM3wzODYuNDh8MzIuNTU=)' />
<polyline points='420.51,338.56 784.03,338.56 ' style='stroke-width: 0.16; stroke-linecap: butt;' clip-path='url(#cpNDIwLjUxfDc4NC4wM3wzODYuNDh8MzIuNTU=)' />
<polyline points='420.51,320.12 784.03,320.12 ' style='stroke-width: 0.16; stroke-linecap: butt;' clip-path='url(#cpNDIwLjUxfDc4NC4wM3wzODYuNDh8MzIuNTU=)' />
<polyline points='420.51,301.69 784.03,301.69 ' style='stroke-width: 0.16; stroke-linecap: butt;' clip-path='url(#cpNDIwLjUxfDc4NC4wM3wzODYuNDh8MzIuNTU=)' />
<polyline points='420.51,283.25 784.03,283.25 ' style='stroke-width: 0.16; stroke-linecap: butt;' clip-path='url(#cpNDIwLjUxfDc4NC4wM3wzODYuNDh8MzIuNTU=)' />
<polyline points='420.51,264.82 784.03,264.82 ' style='stroke-width: 0.16; stroke-linecap: butt;' clip-path='url(#cpNDIwLjUxfDc4NC4wM3wzODYuNDh8MzIuNTU=)' />
<polyline points='420.51,246.39 784.03,246.39 ' style='stroke-width: 0.16; stroke-linecap: butt;' clip-path='url(#cpNDIwLjUxfDc4NC4wM3wzODYuNDh8MzIuNTU=)' />
<polyline points='420.51,227.95 784.03,227.95 ' style='stroke-width: 0.16; stroke-linecap: butt;' clip-path='url(#cpNDIwLjUxfDc4NC4wM3wzODYuNDh8MzIuNTU=)' />
<polyline points='420.51,209.52 784.03,209.52 ' style='stroke-width: 0.16; stroke-linecap: butt;' clip-path='url(#cpNDIwLjUxfDc4NC4wM3wzODYuNDh8MzIuNTU=)' />
<polyline points='420.51,191.08 784.03,191.08 ' style='stroke-width: 0.16; stroke-linecap: butt;' clip-path='url(#cpNDIwLjUxfDc4NC4wM3wzODYuNDh8MzIuNTU=)' />
<polyline points='420.51,172.65 784.03,172.65 ' style='stroke-width: 0.16; stroke-linecap: butt;' clip-path='url(#cpNDIwLjUxfDc4NC4wM3wzODYuNDh8MzIuNTU=)' />
<polyline points='420.51,154.22 784.03,154.22 ' style='stroke-width: 0.16; stroke-linecap: butt;' clip-path='url(#cpNDIwLjUxfDc4NC4wM3wzODYuNDh8MzIuNTU=)' />
<polyline points='420.51,135.78 784.03,135.78 ' style='stroke-width: 0.16; stroke-linecap: butt;' clip-path='url(#cpNDIwLjUxfDc4NC4wM3wzODYuNDh8MzIuNTU=)' />
<polyline points='420.51,117.35 784.03,117.35 ' style='stroke-width: 0.16; stroke-linecap: butt;' clip-path='url(#cpNDIwLjUxfDc4NC4wM3wzODYuNDh8MzIuNTU=)' />
<polyline points='420.51,98.91 784.03,98.91 ' style='stroke-width: 0.16; stroke-linecap: butt;' clip-path='url(#cpNDIwLjUxfDc4NC4wM3wzODYuNDh8MzIuNTU=)' />
<polyline points='420.51,80.48 784.03,80.48 ' style='stroke-width: 0.16; stroke-linecap: butt;' clip-path='url(#cpNDIwLjUxfDc4NC4wM3wzODYuNDh8MzIuNTU=)' />
<polyline points='420.51,62.05 784.03,62.05 ' style='stroke-width: 0.16; stroke-linecap: butt;' clip-path='url(#cpNDIwLjUxfDc4NC4wM3wzODYuNDh8MzIuNTU=)' />
<polyline points='420.51,43.61 784.03,43.61 ' style='stroke-width: 0.16; stroke-linecap: butt;' clip-path='url(#cpNDIwLjUxfDc4NC4wM3wzODYuNDh8MzIuNTU=)' />
<polyline points='458.50,386.48 458.50,32.55 ' style='stroke-width: 0.16; stroke-linecap: butt;' clip-path='url(#cpNDIwLjUxfDc4NC4wM3wzODYuNDh8MzIuNTU=)' />
<polyline points='526.07,386.48 526.07,32.55 ' style='stroke-width: 0.16; stroke-linecap: butt;' clip-path='url(#cpNDIwLjUxfDc4NC4wM3wzODYuNDh8MzIuNTU=)' />
<polyline points='593.63,386.48 593.63,32.55 ' style='stroke-width: 0.16; stroke-linecap: butt;' clip-path='url(#cpNDIwLjUxfDc4NC4wM3wzODYuNDh8MzIuNTU=)' />
<polyline points='661.20,386.48 661.20,32.55 ' style='stroke-width: 0.16; stroke-linecap: butt;' clip-path='url(#cpNDIwLjUxfDc4NC4wM3wzODYuNDh8MzIuNTU=)' />
<polyline points='728.77,386.48 728.77,32.55 ' style='stroke-width: 0.16; stroke-linecap: butt;' clip-path='url(#cpNDIwLjUxfDc4NC4wM3wzODYuNDh8MzIuNTU=)' />
<line x1='593.63' y1='386.48' x2='593.63' y2='32.55' style='stroke-width: 0.85; stroke-dasharray: 7.97,3.41; stroke-linecap: butt;' clip-path='url(#cpNDIwLjUxfDc4NC4wM3wzODYuNDh8MzIuNTU=)' />
<circle cx='590.95' cy='117.35' r='1.95' style='stroke-width: 0.71; fill: #000000;' clip-path='url(#cpNDIwLjUxfDc4NC4wM3wzODYuNDh8MzIuNTU=)' />
<circle cx='606.87' cy='356.99' r='1.95' style='stroke-width: 0.71; fill: #000000;' clip-path='url(#cpNDIwLjUxfDc4NC4wM3wzODYuNDh8MzIuNTU=)' />
<circle cx='597.44' cy='172.65' r='1.95' style='stroke-width: 0.71; fill: #000000;' clip-path='url(#cpNDIwLjUxfDc4NC4wM3wzODYuNDh8MzIuNTU=)' />
<circle cx='590.86' cy='98.91' r='1.95' style='stroke-width: 0.71; fill: #000000;' clip-path='url(#cpNDIwLjUxfDc4NC4wM3wzODYuNDh8MzIuNTU=)' />
<circle cx='592.70' cy='264.82' r='1.95' style='stroke-width: 0.71; fill: #000000;' clip-path='url(#cpNDIwLjUxfDc4NC4wM3wzODYuNDh8MzIuNTU=)' />
<circle cx='581.13' cy='191.08' r='1.95' style='stroke-width: 0.71; fill: #000000;' clip-path='url(#cpNDIwLjUxfDc4NC4wM3wzODYuNDh8MzIuNTU=)' />
<circle cx='588.80' cy='154.22' r='1.95' style='stroke-width: 0.71; fill: #000000;' clip-path='url(#cpNDIwLjUxfDc4NC4wM3wzODYuNDh8MzIuNTU=)' />
<circle cx='590.98' cy='227.95' r='1.95' style='stroke-width: 0.71; fill: #000000;' clip-path='url(#cpNDIwLjUxfDc4NC4wM3wzODYuNDh8MzIuNTU=)' />
<circle cx='602.98' cy='209.52' r='1.95' style='stroke-width: 0.71; fill: #000000;' clip-path='url(#cpNDIwLjUxfDc4NC4wM3wzODYuNDh8MzIuNTU=)' />
<circle cx='572.23' cy='62.05' r='1.95' style='stroke-width: 0.71; fill: #000000;' clip-path='url(#cpNDIwLjUxfDc4NC4wM3wzODYuNDh8MzIuNTU=)' />
<circle cx='576.55' cy='43.61' r='1.95' style='stroke-width: 0.71; fill: #000000;' clip-path='url(#cpNDIwLjUxfDc4NC4wM3wzODYuNDh8MzIuNTU=)' />
<circle cx='594.88' cy='135.78' r='1.95' style='stroke-width: 0.71; fill: #000000;' clip-path='url(#cpNDIwLjUxfDc4NC4wM3wzODYuNDh8MzIuNTU=)' />
<circle cx='586.93' cy='80.48' r='1.95' style='stroke-width: 0.71; fill: #000000;' clip-path='url(#cpNDIwLjUxfDc4NC4wM3wzODYuNDh8MzIuNTU=)' />
<circle cx='598.94' cy='283.25' r='1.95' style='stroke-width: 0.71; fill: #000000;' clip-path='url(#cpNDIwLjUxfDc4NC4wM3wzODYuNDh8MzIuNTU=)' />
<circle cx='599.56' cy='375.42' r='1.95' style='stroke-width: 0.71; fill: #000000;' clip-path='url(#cpNDIwLjUxfDc4NC4wM3wzODYuNDh8MzIuNTU=)' />
<circle cx='597.39' cy='246.39' r='1.95' style='stroke-width: 0.71; fill: #000000;' clip-path='url(#cpNDIwLjUxfDc4NC4wM3wzODYuNDh8MzIuNTU=)' />
<circle cx='600.61' cy='301.69' r='1.95' style='stroke-width: 0.71; fill: #000000;' clip-path='url(#cpNDIwLjUxfDc4NC4wM3wzODYuNDh8MzIuNTU=)' />
<circle cx='600.77' cy='320.12' r='1.95' style='stroke-width: 0.71; fill: #000000;' clip-path='url(#cpNDIwLjUxfDc4NC4wM3wzODYuNDh8MzIuNTU=)' />
<circle cx='608.47' cy='338.56' r='1.95' style='stroke-width: 0.71; fill: #000000;' clip-path='url(#cpNDIwLjUxfDc4NC4wM3wzODYuNDh8MzIuNTU=)' />
<polyline points='599.84,117.35 599.84,117.35 ' style='stroke-width: 1.07; stroke-linecap: butt;' clip-path='url(#cpNDIwLjUxfDc4NC4wM3wzODYuNDh8MzIuNTU=)' />
<polyline points='599.84,117.35 582.06,117.35 ' style='stroke-width: 1.07; stroke-linecap: butt;' clip-path='url(#cpNDIwLjUxfDc4NC4wM3wzODYuNDh8MzIuNTU=)' />
<polyline points='582.06,117.35 582.06,117.35 ' style='stroke-width: 1.07; stroke-linecap: butt;' clip-path='url(#cpNDIwLjUxfDc4NC4wM3wzODYuNDh8MzIuNTU=)' />
<polyline points='615.76,356.99 615.76,356.99 ' style='stroke-width: 1.07; stroke-linecap: butt;' clip-path='url(#cpNDIwLjUxfDc4NC4wM3wzODYuNDh8MzIuNTU=)' />
<polyline points='615.76,356.99 597.98,356.99 ' style='stroke-width: 1.07; stroke-linecap: butt;' clip-path='url(#cpNDIwLjUxfDc4NC4wM3wzODYuNDh8MzIuNTU=)' />
<polyline points='597.98,356.99 597.98,356.99 ' style='stroke-width: 1.07; stroke-linecap: butt;' clip-path='url(#cpNDIwLjUxfDc4NC4wM3wzODYuNDh8MzIuNTU=)' />
<polyline points='606.33,172.65 606.33,172.65 ' style='stroke-width: 1.07; stroke-linecap: butt;' clip-path='url(#cpNDIwLjUxfDc4NC4wM3wzODYuNDh8MzIuNTU=)' />
<polyline points='606.33,172.65 588.55,172.65 ' style='stroke-width: 1.07; stroke-linecap: butt;' clip-path='url(#cpNDIwLjUxfDc4NC4wM3wzODYuNDh8MzIuNTU=)' />
<polyline points='588.55,172.65 588.55,172.65 ' style='stroke-width: 1.07; stroke-linecap: butt;' clip-path='url(#cpNDIwLjUxfDc4NC4wM3wzODYuNDh8MzIuNTU=)' />
<polyline points='599.75,98.91 599.75,98.91 ' style='stroke-width: 1.07; stroke-linecap: butt;' clip-path='url(#cpNDIwLjUxfDc4NC4wM3wzODYuNDh8MzIuNTU=)' />
<polyline points='599.75,98.91 581.97,98.91 ' style='stroke-width: 1.07; stroke-linecap: butt;' clip-path='url(#cpNDIwLjUxfDc4NC4wM3wzODYuNDh8MzIuNTU=)' />
<polyline points='581.97,98.91 581.97,98.91 ' style='stroke-width: 1.07; stroke-linecap: butt;' clip-path='url(#cpNDIwLjUxfDc4NC4wM3wzODYuNDh8MzIuNTU=)' />
<polyline points='601.59,264.82 601.59,264.82 ' style='stroke-width: 1.07; stroke-linecap: butt;' clip-path='url(#cpNDIwLjUxfDc4NC4wM3wzODYuNDh8MzIuNTU=)' />
<polyline points='601.59,264.82 583.81,264.82 ' style='stroke-width: 1.07; stroke-linecap: butt;' clip-path='url(#cpNDIwLjUxfDc4NC4wM3wzODYuNDh8MzIuNTU=)' />
<polyline points='583.81,264.82 583.81,264.82 ' style='stroke-width: 1.07; stroke-linecap: butt;' clip-path='url(#cpNDIwLjUxfDc4NC4wM3wzODYuNDh8MzIuNTU=)' />
<polyline points='590.02,191.08 590.02,191.08 ' style='stroke-width: 1.07; stroke-linecap: butt;' clip-path='url(#cpNDIwLjUxfDc4NC4wM3wzODYuNDh8MzIuNTU=)' />
<polyline points='590.02,191.08 572.24,191.08 ' style='stroke-width: 1.07; stroke-linecap: butt;' clip-path='url(#cpNDIwLjUxfDc4NC4wM3wzODYuNDh8MzIuNTU=)' />
<polyline points='572.24,191.08 572.24,191.08 ' style='stroke-width: 1.07; stroke-linecap: butt;' clip-path='url(#cpNDIwLjUxfDc4NC4wM3wzODYuNDh8MzIuNTU=)' />
<polyline points='597.69,154.22 597.69,154.22 ' style='stroke-width: 1.07; stroke-linecap: butt;' clip-path='url(#cpNDIwLjUxfDc4NC4wM3wzODYuNDh8MzIuNTU=)' />
<polyline points='597.69,154.22 579.91,154.22 ' style='stroke-width: 1.07; stroke-linecap: butt;' clip-path='url(#cpNDIwLjUxfDc4NC4wM3wzODYuNDh8MzIuNTU=)' />
<polyline points='579.91,154.22 579.91,154.22 ' style='stroke-width: 1.07; stroke-linecap: butt;' clip-path='url(#cpNDIwLjUxfDc4NC4wM3wzODYuNDh8MzIuNTU=)' />
<polyline points='599.87,227.95 599.87,227.95 ' style='stroke-width: 1.07; stroke-linecap: butt;' clip-path='url(#cpNDIwLjUxfDc4NC4wM3wzODYuNDh8MzIuNTU=)' />
<polyline points='599.87,227.95 582.08,227.95 ' style='stroke-width: 1.07; stroke-linecap: butt;' clip-path='url(#cpNDIwLjUxfDc4NC4wM3wzODYuNDh8MzIuNTU=)' />
<polyline points='582.08,227.95 582.08,227.95 ' style='stroke-width: 1.07; stroke-linecap: butt;' clip-path='url(#cpNDIwLjUxfDc4NC4wM3wzODYuNDh8MzIuNTU=)' />
<polyline points='611.87,209.52 611.87,209.52 ' style='stroke-width: 1.07; stroke-linecap: butt;' clip-path='url(#cpNDIwLjUxfDc4NC4wM3wzODYuNDh8MzIuNTU=)' />
<polyline points='611.87,209.52 594.09,209.52 ' style='stroke-width: 1.07; stroke-linecap: butt;' clip-path='url(#cpNDIwLjUxfDc4NC4wM3wzODYuNDh8MzIuNTU=)' />
<polyline points='594.09,209.52 594.09,209.52 ' style='stroke-width: 1.07; stroke-linecap: butt;' clip-path='url(#cpNDIwLjUxfDc4NC4wM3wzODYuNDh8MzIuNTU=)' />
<polyline points='581.12,62.05 581.12,62.05 ' style='stroke-width: 1.07; stroke-linecap: butt;' clip-path='url(#cpNDIwLjUxfDc4NC4wM3wzODYuNDh8MzIuNTU=)' />
<polyline points='581.12,62.05 563.34,62.05 ' style='stroke-width: 1.07; stroke-linecap: butt;' clip-path='url(#cpNDIwLjUxfDc4NC4wM3wzODYuNDh8MzIuNTU=)' />
<polyline points='563.34,62.05 563.34,62.05 ' style='stroke-width: 1.07; stroke-linecap: butt;' clip-path='url(#cpNDIwLjUxfDc4NC4wM3wzODYuNDh8MzIuNTU=)' />
<polyline points='585.44,43.61 585.44,43.61 ' style='stroke-width: 1.07; stroke-linecap: butt;' clip-path='url(#cpNDIwLjUxfDc4NC4wM3wzODYuNDh8MzIuNTU=)' />
<polyline points='585.44,43.61 567.66,43.61 ' style='stroke-width: 1.07; stroke-linecap: butt;' clip-path='url(#cpNDIwLjUxfDc4NC4wM3wzODYuNDh8MzIuNTU=)' />
<polyline points='567.66,43.61 567.66,43.61 ' style='stroke-width: 1.07; stroke-linecap: butt;' clip-path='url(#cpNDIwLjUxfDc4NC4wM3wzODYuNDh8MzIuNTU=)' />
<polyline points='603.77,135.78 603.77,135.78 ' style='stroke-width: 1.07; stroke-linecap: butt;' clip-path='url(#cpNDIwLjUxfDc4NC4wM3wzODYuNDh8MzIuNTU=)' />
<polyline points='603.77,135.78 585.99,135.78 ' style='stroke-width: 1.07; stroke-linecap: butt;' clip-path='url(#cpNDIwLjUxfDc4NC4wM3wzODYuNDh8MzIuNTU=)' />
<polyline points='585.99,135.78 585.99,135.78 ' style='stroke-width: 1.07; stroke-linecap: butt;' clip-path='url(#cpNDIwLjUxfDc4NC4wM3wzODYuNDh8MzIuNTU=)' />
<polyline points='595.82,80.48 595.82,80.48 ' style='stroke-width: 1.07; stroke-linecap: butt;' clip-path='url(#cpNDIwLjUxfDc4NC4wM3wzODYuNDh8MzIuNTU=)' />
<polyline points='595.82,80.48 578.03,80.48 ' style='stroke-width: 1.07; stroke-linecap: butt;' clip-path='url(#cpNDIwLjUxfDc4NC4wM3wzODYuNDh8MzIuNTU=)' />
<polyline points='578.03,80.48 578.03,80.48 ' style='stroke-width: 1.07; stroke-linecap: butt;' clip-path='url(#cpNDIwLjUxfDc4NC4wM3wzODYuNDh8MzIuNTU=)' />
<polyline points='607.83,283.25 607.83,283.25 ' style='stroke-width: 1.07; stroke-linecap: butt;' clip-path='url(#cpNDIwLjUxfDc4NC4wM3wzODYuNDh8MzIuNTU=)' />
<polyline points='607.83,283.25 590.05,283.25 ' style='stroke-width: 1.07; stroke-linecap: butt;' clip-path='url(#cpNDIwLjUxfDc4NC4wM3wzODYuNDh8MzIuNTU=)' />
<polyline points='590.05,283.25 590.05,283.25 ' style='stroke-width: 1.07; stroke-linecap: butt;' clip-path='url(#cpNDIwLjUxfDc4NC4wM3wzODYuNDh8MzIuNTU=)' />
<polyline points='608.45,375.42 608.45,375.42 ' style='stroke-width: 1.07; stroke-linecap: butt;' clip-path='url(#cpNDIwLjUxfDc4NC4wM3wzODYuNDh8MzIuNTU=)' />
<polyline points='608.45,375.42 590.67,375.42 ' style='stroke-width: 1.07; stroke-linecap: butt;' clip-path='url(#cpNDIwLjUxfDc4NC4wM3wzODYuNDh8MzIuNTU=)' />
<polyline points='590.67,375.42 590.67,375.42 ' style='stroke-width: 1.07; stroke-linecap: butt;' clip-path='url(#cpNDIwLjUxfDc4NC4wM3wzODYuNDh8MzIuNTU=)' />
<polyline points='606.28,246.39 606.28,246.39 ' style='stroke-width: 1.07; stroke-linecap: butt;' clip-path='url(#cpNDIwLjUxfDc4NC4wM3wzODYuNDh8MzIuNTU=)' />
<polyline points='606.28,246.39 588.50,246.39 ' style='stroke-width: 1.07; stroke-linecap: butt;' clip-path='url(#cpNDIwLjUxfDc4NC4wM3wzODYuNDh8MzIuNTU=)' />
<polyline points='588.50,246.39 588.50,246.39 ' style='stroke-width: 1.07; stroke-linecap: butt;' clip-path='url(#cpNDIwLjUxfDc4NC4wM3wzODYuNDh8MzIuNTU=)' />
<polyline points='609.50,301.69 609.50,301.69 ' style='stroke-width: 1.07; stroke-linecap: butt;' clip-path='url(#cpNDIwLjUxfDc4NC4wM3wzODYuNDh8MzIuNTU=)' />
<polyline points='609.50,301.69 591.72,301.69 ' style='stroke-width: 1.07; stroke-linecap: butt;' clip-path='url(#cpNDIwLjUxfDc4NC4wM3wzODYuNDh8MzIuNTU=)' />
<polyline points='591.72,301.69 591.72,301.69 ' style='stroke-width: 1.07; stroke-linecap: butt;' clip-path='url(#cpNDIwLjUxfDc4NC4wM3wzODYuNDh8MzIuNTU=)' />
<polyline points='609.66,320.12 609.66,320.12 ' style='stroke-width: 1.07; stroke-linecap: butt;' clip-path='url(#cpNDIwLjUxfDc4NC4wM3wzODYuNDh8MzIuNTU=)' />
<polyline points='609.66,320.12 591.88,320.12 ' style='stroke-width: 1.07; stroke-linecap: butt;' clip-path='url(#cpNDIwLjUxfDc4NC4wM3wzODYuNDh8MzIuNTU=)' />
<polyline points='591.88,320.12 591.88,320.12 ' style='stroke-width: 1.07; stroke-linecap: butt;' clip-path='url(#cpNDIwLjUxfDc4NC4wM3wzODYuNDh8MzIuNTU=)' />
<polyline points='617.36,338.56 617.36,338.56 ' style='stroke-width: 1.07; stroke-linecap: butt;' clip-path='url(#cpNDIwLjUxfDc4NC4wM3wzODYuNDh8MzIuNTU=)' />
<polyline points='617.36,338.56 599.58,338.56 ' style='stroke-width: 1.07; stroke-linecap: butt;' clip-path='url(#cpNDIwLjUxfDc4NC4wM3wzODYuNDh8MzIuNTU=)' />
<polyline points='599.58,338.56 599.58,338.56 ' style='stroke-width: 1.07; stroke-linecap: butt;' clip-path='url(#cpNDIwLjUxfDc4NC4wM3wzODYuNDh8MzIuNTU=)' />
<rect x='420.51' y='32.55' width='363.52' height='353.93' style='stroke-width: 1.55;' clip-path='url(#cpNDIwLjUxfDc4NC4wM3wzODYuNDh8MzIuNTU=)' />
<defs>
  <clipPath id='cpMC4wMHw3OTIuMDB8NDMyLjAwfDAuMDA='>
    <rect x='0.00' y='0.00' width='792.00' height='432.00' />
  </clipPath>
</defs>
<defs>
  <clipPath id='cpNDkuMDF8NDEyLjU0fDMyLjU1fDcuOTc='>
    <rect x='49.01' y='7.97' width='363.52' height='24.58' />
  </clipPath>
</defs>
<rect x='49.01' y='7.97' width='363.52' height='24.58' style='stroke-width: 1.55; fill: #000000;' clip-path='url(#cpNDkuMDF8NDEyLjU0fDMyLjU1fDcuOTc=)' />
<g clip-path='url(#cpNDkuMDF8NDEyLjU0fDMyLjU1fDcuOTc=)'><text x='199.91' y='24.70' style='font-size: 12.80px; fill: #FFFFFF; font-family: Georgia;' textLength='61.73px' lengthAdjust='spacingAndGlyphs'>(Intercept)</text></g>
<defs>
  <clipPath id='cpMC4wMHw3OTIuMDB8NDMyLjAwfDAuMDA='>
    <rect x='0.00' y='0.00' width='792.00' height='432.00' />
  </clipPath>
</defs>
<defs>
  <clipPath id='cpNDIwLjUxfDc4NC4wM3wzMi41NXw3Ljk3'>
    <rect x='420.51' y='7.97' width='363.52' height='24.58' />
  </clipPath>
</defs>
<rect x='420.51' y='7.97' width='363.52' height='24.58' style='stroke-width: 1.55; fill: #000000;' clip-path='url(#cpNDIwLjUxfDc4NC4wM3wzMi41NXw3Ljk3)' />
<g clip-path='url(#cpNDIwLjUxfDc4NC4wM3wzMi41NXw3Ljk3)'><text x='589.22' y='24.70' style='font-size: 12.80px; fill: #FFFFFF; font-family: Georgia;' textLength='26.09px' lengthAdjust='spacingAndGlyphs'>conc</text></g>
<defs>
  <clipPath id='cpMC4wMHw3OTIuMDB8NDMyLjAwfDAuMDA='>
    <rect x='0.00' y='0.00' width='792.00' height='432.00' />
  </clipPath>
</defs>
<polyline points='87.00,390.47 87.00,386.48 ' style='stroke-width: 0.78; stroke-linecap: butt;' clip-path='url(#cpMC4wMHw3OTIuMDB8NDMyLjAwfDAuMDA=)' />
<polyline points='154.57,390.47 154.57,386.48 ' style='stroke-width: 0.78; stroke-linecap: butt;' clip-path='url(#cpMC4wMHw3OTIuMDB8NDMyLjAwfDAuMDA=)' />
<polyline points='222.14,390.47 222.14,386.48 ' style='stroke-width: 0.78; stroke-linecap: butt;' clip-path='url(#cpMC4wMHw3OTIuMDB8NDMyLjAwfDAuMDA=)' />
<polyline points='289.71,390.47 289.71,386.48 ' style='stroke-width: 0.78; stroke-linecap: butt;' clip-path='url(#cpMC4wMHw3OTIuMDB8NDMyLjAwfDAuMDA=)' />
<polyline points='357.28,390.47 357.28,386.48 ' style='stroke-width: 0.78; stroke-linecap: butt;' clip-path='url(#cpMC4wMHw3OTIuMDB8NDMyLjAwfDAuMDA=)' />
<g clip-path='url(#cpMC4wMHw3OTIuMDB8NDMyLjAwfDAuMDA=)'><text x='72.28' y='402.53' style='font-size: 12.80px; font-family: Georgia;' textLength='29.45px' lengthAdjust='spacingAndGlyphs'>-0.10</text></g>
<g clip-path='url(#cpMC4wMHw3OTIuMDB8NDMyLjAwfDAuMDA=)'><text x='139.22' y='402.53' style='font-size: 12.80px; font-family: Georgia;' textLength='30.71px' lengthAdjust='spacingAndGlyphs'>-0.05</text></g>
<g clip-path='url(#cpMC4wMHw3OTIuMDB8NDMyLjAwfDAuMDA=)'><text x='208.63' y='402.53' style='font-size: 12.80px; font-family: Georgia;' textLength='27.02px' lengthAdjust='spacingAndGlyphs'>0.00</text></g>
<g clip-path='url(#cpMC4wMHw3OTIuMDB8NDMyLjAwfDAuMDA=)'><text x='276.75' y='402.53' style='font-size: 12.80px; font-family: Georgia;' textLength='25.93px' lengthAdjust='spacingAndGlyphs'>0.05</text></g>
<g clip-path='url(#cpMC4wMHw3OTIuMDB8NDMyLjAwfDAuMDA=)'><text x='344.95' y='402.53' style='font-size: 12.80px; font-family: Georgia;' textLength='24.66px' lengthAdjust='spacingAndGlyphs'>0.10</text></g>
<polyline points='458.50,390.47 458.50,386.48 ' style='stroke-width: 0.78; stroke-linecap: butt;' clip-path='url(#cpMC4wMHw3OTIuMDB8NDMyLjAwfDAuMDA=)' />
<polyline points='526.07,390.47 526.07,386.48 ' style='stroke-width: 0.78; stroke-linecap: butt;' clip-path='url(#cpMC4wMHw3OTIuMDB8NDMyLjAwfDAuMDA=)' />
<polyline points='593.63,390.47 593.63,386.48 ' style='stroke-width: 0.78; stroke-linecap: butt;' clip-path='url(#cpMC4wMHw3OTIuMDB8NDMyLjAwfDAuMDA=)' />
<polyline points='661.20,390.47 661.20,386.48 ' style='stroke-width: 0.78; stroke-linecap: butt;' clip-path='url(#cpMC4wMHw3OTIuMDB8NDMyLjAwfDAuMDA=)' />
<polyline points='728.77,390.47 728.77,386.48 ' style='stroke-width: 0.78; stroke-linecap: butt;' clip-path='url(#cpMC4wMHw3OTIuMDB8NDMyLjAwfDAuMDA=)' />
<g clip-path='url(#cpMC4wMHw3OTIuMDB8NDMyLjAwfDAuMDA=)'><text x='443.77' y='402.53' style='font-size: 12.80px; font-family: Georgia;' textLength='29.45px' lengthAdjust='spacingAndGlyphs'>-0.10</text></g>
<g clip-path='url(#cpMC4wMHw3OTIuMDB8NDMyLjAwfDAuMDA=)'><text x='510.71' y='402.53' style='font-size: 12.80px; font-family: Georgia;' textLength='30.71px' lengthAdjust='spacingAndGlyphs'>-0.05</text></g>
<g clip-path='url(#cpMC4wMHw3OTIuMDB8NDMyLjAwfDAuMDA=)'><text x='580.12' y='402.53' style='font-size: 12.80px; font-family: Georgia;' textLength='27.02px' lengthAdjust='spacingAndGlyphs'>0.00</text></g>
<g clip-path='url(#cpMC4wMHw3OTIuMDB8NDMyLjAwfDAuMDA=)'><text x='648.24' y='402.53' style='font-size: 12.80px; font-family: Georgia;' textLength='25.93px' lengthAdjust='spacingAndGlyphs'>0.05</text></g>
<g clip-path='url(#cpMC4wMHw3OTIuMDB8NDMyLjAwfDAuMDA=)'><text x='716.44' y='402.53' style='font-size: 12.80px; font-family: Georgia;' textLength='24.66px' lengthAdjust='spacingAndGlyphs'>0.10</text></g>
<g clip-path='url(#cpMC4wMHw3OTIuMDB8NDMyLjAwfDAuMDA=)'><text x='26.75' y='379.86' style='font-size: 12.80px; font-family: Georgia;' textLength='15.09px' lengthAdjust='spacingAndGlyphs'>40</text></g>
<g clip-path='url(#cpMC4wMHw3OTIuMDB8NDMyLjAwfDAuMDA=)'><text x='28.26' y='361.42' style='font-size: 12.80px; font-family: Georgia;' textLength='13.58px' lengthAdjust='spacingAndGlyphs'>27</text></g>
<g clip-path='url(#cpMC4wMHw3OTIuMDB8NDMyLjAwfDAuMDA=)'><text x='27.38' y='342.99' style='font-size: 12.80px; font-family: Georgia;' textLength='14.46px' lengthAdjust='spacingAndGlyphs'>44</text></g>
<g clip-path='url(#cpMC4wMHw3OTIuMDB8NDMyLjAwfDAuMDA=)'><text x='27.55' y='324.56' style='font-size: 12.80px; font-family: Georgia;' textLength='14.29px' lengthAdjust='spacingAndGlyphs'>43</text></g>
<g clip-path='url(#cpMC4wMHw3OTIuMDB8NDMyLjAwfDAuMDA=)'><text x='27.46' y='306.12' style='font-size: 12.80px; font-family: Georgia;' textLength='14.38px' lengthAdjust='spacingAndGlyphs'>42</text></g>
<g clip-path='url(#cpMC4wMHw3OTIuMDB8NDMyLjAwfDAuMDA=)'><text x='27.53' y='287.69' style='font-size: 12.80px; font-family: Georgia;' textLength='14.31px' lengthAdjust='spacingAndGlyphs'>39</text></g>
<g clip-path='url(#cpMC4wMHw3OTIuMDB8NDMyLjAwfDAuMDA=)'><text x='26.92' y='269.25' style='font-size: 12.80px; font-family: Georgia;' textLength='14.92px' lengthAdjust='spacingAndGlyphs'>30</text></g>
<g clip-path='url(#cpMC4wMHw3OTIuMDB8NDMyLjAwfDAuMDA=)'><text x='29.11' y='250.82' style='font-size: 12.80px; font-family: Georgia;' textLength='12.73px' lengthAdjust='spacingAndGlyphs'>41</text></g>
<g clip-path='url(#cpMC4wMHw3OTIuMDB8NDMyLjAwfDAuMDA=)'><text x='27.72' y='232.39' style='font-size: 12.80px; font-family: Georgia;' textLength='14.12px' lengthAdjust='spacingAndGlyphs'>33</text></g>
<g clip-path='url(#cpMC4wMHw3OTIuMDB8NDMyLjAwfDAuMDA=)'><text x='27.55' y='213.95' style='font-size: 12.80px; font-family: Georgia;' textLength='14.29px' lengthAdjust='spacingAndGlyphs'>34</text></g>
<g clip-path='url(#cpMC4wMHw3OTIuMDB8NDMyLjAwfDAuMDA=)'><text x='29.28' y='195.52' style='font-size: 12.80px; font-family: Georgia;' textLength='12.56px' lengthAdjust='spacingAndGlyphs'>31</text></g>
<g clip-path='url(#cpMC4wMHw3OTIuMDB8NDMyLjAwfDAuMDA=)'><text x='27.06' y='177.08' style='font-size: 12.80px; font-family: Georgia;' textLength='14.78px' lengthAdjust='spacingAndGlyphs'>28</text></g>
<g clip-path='url(#cpMC4wMHw3OTIuMDB8NDMyLjAwfDAuMDA=)'><text x='27.63' y='158.65' style='font-size: 12.80px; font-family: Georgia;' textLength='14.21px' lengthAdjust='spacingAndGlyphs'>32</text></g>
<g clip-path='url(#cpMC4wMHw3OTIuMDB8NDMyLjAwfDAuMDA=)'><text x='28.35' y='140.22' style='font-size: 12.80px; font-family: Georgia;' textLength='13.49px' lengthAdjust='spacingAndGlyphs'>37</text></g>
<g clip-path='url(#cpMC4wMHw3OTIuMDB8NDMyLjAwfDAuMDA=)'><text x='27.45' y='121.78' style='font-size: 12.80px; font-family: Georgia;' textLength='14.39px' lengthAdjust='spacingAndGlyphs'>26</text></g>
<g clip-path='url(#cpMC4wMHw3OTIuMDB8NDMyLjAwfDAuMDA=)'><text x='27.45' y='103.35' style='font-size: 12.80px; font-family: Georgia;' textLength='14.39px' lengthAdjust='spacingAndGlyphs'>29</text></g>
<g clip-path='url(#cpMC4wMHw3OTIuMDB8NDMyLjAwfDAuMDA=)'><text x='27.15' y='84.91' style='font-size: 12.80px; font-family: Georgia;' textLength='14.69px' lengthAdjust='spacingAndGlyphs'>38</text></g>
<g clip-path='url(#cpMC4wMHw3OTIuMDB8NDMyLjAwfDAuMDA=)'><text x='28.02' y='66.48' style='font-size: 12.80px; font-family: Georgia;' textLength='13.82px' lengthAdjust='spacingAndGlyphs'>35</text></g>
<g clip-path='url(#cpMC4wMHw3OTIuMDB8NDMyLjAwfDAuMDA=)'><text x='27.53' y='48.05' style='font-size: 12.80px; font-family: Georgia;' textLength='14.31px' lengthAdjust='spacingAndGlyphs'>36</text></g>
<polyline points='45.03,375.42 49.01,375.42 ' style='stroke-width: 0.78; stroke-linecap: butt;' clip-path='url(#cpMC4wMHw3OTIuMDB8NDMyLjAwfDAuMDA=)' />
<polyline points='45.03,356.99 49.01,356.99 ' style='stroke-width: 0.78; stroke-linecap: butt;' clip-path='url(#cpMC4wMHw3OTIuMDB8NDMyLjAwfDAuMDA=)' />
<polyline points='45.03,338.56 49.01,338.56 ' style='stroke-width: 0.78; stroke-linecap: butt;' clip-path='url(#cpMC4wMHw3OTIuMDB8NDMyLjAwfDAuMDA=)' />
<polyline points='45.03,320.12 49.01,320.12 ' style='stroke-width: 0.78; stroke-linecap: butt;' clip-path='url(#cpMC4wMHw3OTIuMDB8NDMyLjAwfDAuMDA=)' />
<polyline points='45.03,301.69 49.01,301.69 ' style='stroke-width: 0.78; stroke-linecap: butt;' clip-path='url(#cpMC4wMHw3OTIuMDB8NDMyLjAwfDAuMDA=)' />
<polyline points='45.03,283.25 49.01,283.25 ' style='stroke-width: 0.78; stroke-linecap: butt;' clip-path='url(#cpMC4wMHw3OTIuMDB8NDMyLjAwfDAuMDA=)' />
<polyline points='45.03,264.82 49.01,264.82 ' style='stroke-width: 0.78; stroke-linecap: butt;' clip-path='url(#cpMC4wMHw3OTIuMDB8NDMyLjAwfDAuMDA=)' />
<polyline points='45.03,246.39 49.01,246.39 ' style='stroke-width: 0.78; stroke-linecap: butt;' clip-path='url(#cpMC4wMHw3OTIuMDB8NDMyLjAwfDAuMDA=)' />
<polyline points='45.03,227.95 49.01,227.95 ' style='stroke-width: 0.78; stroke-linecap: butt;' clip-path='url(#cpMC4wMHw3OTIuMDB8NDMyLjAwfDAuMDA=)' />
<polyline points='45.03,209.52 49.01,209.52 ' style='stroke-width: 0.78; stroke-linecap: butt;' clip-path='url(#cpMC4wMHw3OTIuMDB8NDMyLjAwfDAuMDA=)' />
<polyline points='45.03,191.08 49.01,191.08 ' style='stroke-width: 0.78; stroke-linecap: butt;' clip-path='url(#cpMC4wMHw3OTIuMDB8NDMyLjAwfDAuMDA=)' />
<polyline points='45.03,172.65 49.01,172.65 ' style='stroke-width: 0.78; stroke-linecap: butt;' clip-path='url(#cpMC4wMHw3OTIuMDB8NDMyLjAwfDAuMDA=)' />
<polyline points='45.03,154.22 49.01,154.22 ' style='stroke-width: 0.78; stroke-linecap: butt;' clip-path='url(#cpMC4wMHw3OTIuMDB8NDMyLjAwfDAuMDA=)' />
<polyline points='45.03,135.78 49.01,135.78 ' style='stroke-width: 0.78; stroke-linecap: butt;' clip-path='url(#cpMC4wMHw3OTIuMDB8NDMyLjAwfDAuMDA=)' />
<polyline points='45.03,117.35 49.01,117.35 ' style='stroke-width: 0.78; stroke-linecap: butt;' clip-path='url(#cpMC4wMHw3OTIuMDB8NDMyLjAwfDAuMDA=)' />
<polyline points='45.03,98.91 49.01,98.91 ' style='stroke-width: 0.78; stroke-linecap: butt;' clip-path='url(#cpMC4wMHw3OTIuMDB8NDMyLjAwfDAuMDA=)' />
<polyline points='45.03,80.48 49.01,80.48 ' style='stroke-width: 0.78; stroke-linecap: butt;' clip-path='url(#cpMC4wMHw3OTIuMDB8NDMyLjAwfDAuMDA=)' />
<polyline points='45.03,62.05 49.01,62.05 ' style='stroke-width: 0.78; stroke-linecap: butt;' clip-path='url(#cpMC4wMHw3OTIuMDB8NDMyLjAwfDAuMDA=)' />
<polyline points='45.03,43.61 49.01,43.61 ' style='stroke-width: 0.78; stroke-linecap: butt;' clip-path='url(#cpMC4wMHw3OTIuMDB8NDMyLjAwfDAuMDA=)' />
<g clip-path='url(#cpMC4wMHw3OTIuMDB8NDMyLjAwfDAuMDA=)'><text x='182.89' y='420.56' style='font-size: 16.00px; font-family: Georgia;' textLength='467.27px' lengthAdjust='spacingAndGlyphs'>Условное матожидание (вклад случайного эффекта в разброс)</text></g>
<g clip-path='url(#cpMC4wMHw3OTIuMDB8NDMyLjAwfDAuMDA=)'><text transform='translate(19.06,247.97) rotate(-90)' style='font-size: 16.00px; font-family: Georgia;' textLength='76.90px' lengthAdjust='spacingAndGlyphs'>Пробирки</text></g>
</svg>
