<?xml version='1.0' encoding='UTF-8' ?>
<svg xmlns='http://www.w3.org/2000/svg' xmlns:xlink='http://www.w3.org/1999/xlink' viewBox='0 0 576.00 432.00'>
<defs>
  <style type='text/css'><![CDATA[
    line, polyline, polygon, path, rect, circle {
      fill: none;
      stroke: #000000;
      stroke-linecap: round;
      stroke-linejoin: round;
      stroke-miterlimit: 10.00;
    }
  ]]></style>
</defs>
<rect width='100%' height='100%' style='stroke: none; fill: #FFFFFF;'/>
<rect x='-0.000000000000064' y='0.00' width='576.00' height='432.00' style='stroke-width: 1.55; stroke: #BFC4BB; fill: #BFC4BB;' />
<defs>
  <clipPath id='cpNDguNzd8NDc1LjcwfDM4Ni42Mnw3Ljk3'>
    <rect x='48.77' y='7.97' width='426.92' height='378.65' />
  </clipPath>
</defs>
<rect x='48.77' y='7.97' width='426.92' height='378.65' style='stroke-width: 1.55; stroke: none; fill: #BFC4BB;' clip-path='url(#cpNDguNzd8NDc1LjcwfDM4Ni42Mnw3Ljk3)' />
<polyline points='86.66,386.62 86.66,7.97 ' style='stroke-width: 0.078; stroke-linecap: butt;' clip-path='url(#cpNDguNzd8NDc1LjcwfDM4Ni42Mnw3Ljk3)' />
<polyline points='230.70,386.62 230.70,7.97 ' style='stroke-width: 0.078; stroke-linecap: butt;' clip-path='url(#cpNDguNzd8NDc1LjcwfDM4Ni42Mnw3Ljk3)' />
<polyline points='374.73,386.62 374.73,7.97 ' style='stroke-width: 0.078; stroke-linecap: butt;' clip-path='url(#cpNDguNzd8NDc1LjcwfDM4Ni42Mnw3Ljk3)' />
<polyline points='48.77,378.84 475.70,378.84 ' style='stroke-width: 0.16; stroke-linecap: butt;' clip-path='url(#cpNDguNzd8NDc1LjcwfDM4Ni42Mnw3Ljk3)' />
<polyline points='48.77,365.88 475.70,365.88 ' style='stroke-width: 0.16; stroke-linecap: butt;' clip-path='url(#cpNDguNzd8NDc1LjcwfDM4Ni42Mnw3Ljk3)' />
<polyline points='48.77,352.91 475.70,352.91 ' style='stroke-width: 0.16; stroke-linecap: butt;' clip-path='url(#cpNDguNzd8NDc1LjcwfDM4Ni42Mnw3Ljk3)' />
<polyline points='48.77,339.94 475.70,339.94 ' style='stroke-width: 0.16; stroke-linecap: butt;' clip-path='url(#cpNDguNzd8NDc1LjcwfDM4Ni42Mnw3Ljk3)' />
<polyline points='48.77,326.97 475.70,326.97 ' style='stroke-width: 0.16; stroke-linecap: butt;' clip-path='url(#cpNDguNzd8NDc1LjcwfDM4Ni42Mnw3Ljk3)' />
<polyline points='48.77,314.01 475.70,314.01 ' style='stroke-width: 0.16; stroke-linecap: butt;' clip-path='url(#cpNDguNzd8NDc1LjcwfDM4Ni42Mnw3Ljk3)' />
<polyline points='48.77,301.04 475.70,301.04 ' style='stroke-width: 0.16; stroke-linecap: butt;' clip-path='url(#cpNDguNzd8NDc1LjcwfDM4Ni42Mnw3Ljk3)' />
<polyline points='48.77,288.07 475.70,288.07 ' style='stroke-width: 0.16; stroke-linecap: butt;' clip-path='url(#cpNDguNzd8NDc1LjcwfDM4Ni42Mnw3Ljk3)' />
<polyline points='48.77,275.10 475.70,275.10 ' style='stroke-width: 0.16; stroke-linecap: butt;' clip-path='url(#cpNDguNzd8NDc1LjcwfDM4Ni42Mnw3Ljk3)' />
<polyline points='48.77,262.14 475.70,262.14 ' style='stroke-width: 0.16; stroke-linecap: butt;' clip-path='url(#cpNDguNzd8NDc1LjcwfDM4Ni42Mnw3Ljk3)' />
<polyline points='48.77,249.17 475.70,249.17 ' style='stroke-width: 0.16; stroke-linecap: butt;' clip-path='url(#cpNDguNzd8NDc1LjcwfDM4Ni42Mnw3Ljk3)' />
<polyline points='48.77,236.20 475.70,236.20 ' style='stroke-width: 0.16; stroke-linecap: butt;' clip-path='url(#cpNDguNzd8NDc1LjcwfDM4Ni42Mnw3Ljk3)' />
<polyline points='48.77,223.23 475.70,223.23 ' style='stroke-width: 0.16; stroke-linecap: butt;' clip-path='url(#cpNDguNzd8NDc1LjcwfDM4Ni42Mnw3Ljk3)' />
<polyline points='48.77,210.26 475.70,210.26 ' style='stroke-width: 0.16; stroke-linecap: butt;' clip-path='url(#cpNDguNzd8NDc1LjcwfDM4Ni42Mnw3Ljk3)' />
<polyline points='48.77,197.30 475.70,197.30 ' style='stroke-width: 0.16; stroke-linecap: butt;' clip-path='url(#cpNDguNzd8NDc1LjcwfDM4Ni42Mnw3Ljk3)' />
<polyline points='48.77,184.33 475.70,184.33 ' style='stroke-width: 0.16; stroke-linecap: butt;' clip-path='url(#cpNDguNzd8NDc1LjcwfDM4Ni42Mnw3Ljk3)' />
<polyline points='48.77,171.36 475.70,171.36 ' style='stroke-width: 0.16; stroke-linecap: butt;' clip-path='url(#cpNDguNzd8NDc1LjcwfDM4Ni42Mnw3Ljk3)' />
<polyline points='48.77,158.39 475.70,158.39 ' style='stroke-width: 0.16; stroke-linecap: butt;' clip-path='url(#cpNDguNzd8NDc1LjcwfDM4Ni42Mnw3Ljk3)' />
<polyline points='48.77,145.43 475.70,145.43 ' style='stroke-width: 0.16; stroke-linecap: butt;' clip-path='url(#cpNDguNzd8NDc1LjcwfDM4Ni42Mnw3Ljk3)' />
<polyline points='48.77,132.46 475.70,132.46 ' style='stroke-width: 0.16; stroke-linecap: butt;' clip-path='url(#cpNDguNzd8NDc1LjcwfDM4Ni42Mnw3Ljk3)' />
<polyline points='48.77,119.49 475.70,119.49 ' style='stroke-width: 0.16; stroke-linecap: butt;' clip-path='url(#cpNDguNzd8NDc1LjcwfDM4Ni42Mnw3Ljk3)' />
<polyline points='48.77,106.52 475.70,106.52 ' style='stroke-width: 0.16; stroke-linecap: butt;' clip-path='url(#cpNDguNzd8NDc1LjcwfDM4Ni42Mnw3Ljk3)' />
<polyline points='48.77,93.56 475.70,93.56 ' style='stroke-width: 0.16; stroke-linecap: butt;' clip-path='url(#cpNDguNzd8NDc1LjcwfDM4Ni42Mnw3Ljk3)' />
<polyline points='48.77,80.59 475.70,80.59 ' style='stroke-width: 0.16; stroke-linecap: butt;' clip-path='url(#cpNDguNzd8NDc1LjcwfDM4Ni42Mnw3Ljk3)' />
<polyline points='48.77,67.62 475.70,67.62 ' style='stroke-width: 0.16; stroke-linecap: butt;' clip-path='url(#cpNDguNzd8NDc1LjcwfDM4Ni42Mnw3Ljk3)' />
<polyline points='48.77,54.65 475.70,54.65 ' style='stroke-width: 0.16; stroke-linecap: butt;' clip-path='url(#cpNDguNzd8NDc1LjcwfDM4Ni42Mnw3Ljk3)' />
<polyline points='48.77,41.69 475.70,41.69 ' style='stroke-width: 0.16; stroke-linecap: butt;' clip-path='url(#cpNDguNzd8NDc1LjcwfDM4Ni42Mnw3Ljk3)' />
<polyline points='48.77,28.72 475.70,28.72 ' style='stroke-width: 0.16; stroke-linecap: butt;' clip-path='url(#cpNDguNzd8NDc1LjcwfDM4Ni42Mnw3Ljk3)' />
<polyline points='48.77,15.75 475.70,15.75 ' style='stroke-width: 0.16; stroke-linecap: butt;' clip-path='url(#cpNDguNzd8NDc1LjcwfDM4Ni42Mnw3Ljk3)' />
<polyline points='158.68,386.62 158.68,7.97 ' style='stroke-width: 0.16; stroke-linecap: butt;' clip-path='url(#cpNDguNzd8NDc1LjcwfDM4Ni42Mnw3Ljk3)' />
<polyline points='302.71,386.62 302.71,7.97 ' style='stroke-width: 0.16; stroke-linecap: butt;' clip-path='url(#cpNDguNzd8NDc1LjcwfDM4Ni42Mnw3Ljk3)' />
<polyline points='446.75,386.62 446.75,7.97 ' style='stroke-width: 0.16; stroke-linecap: butt;' clip-path='url(#cpNDguNzd8NDc1LjcwfDM4Ni42Mnw3Ljk3)' />
<circle cx='396.10' cy='28.72' r='3.56' style='stroke-width: 0.71; stroke: #F3E52B; fill: #F3E52B;' clip-path='url(#cpNDguNzd8NDc1LjcwfDM4Ni42Mnw3Ljk3)' />
<circle cx='68.66' cy='352.91' r='3.56' style='stroke-width: 0.71; stroke: #DAE137; fill: #DAE137;' clip-path='url(#cpNDguNzd8NDc1LjcwfDM4Ni42Mnw3Ljk3)' />
<circle cx='122.67' cy='236.20' r='3.56' style='stroke-width: 0.71; stroke: #D1E03A; fill: #D1E03A;' clip-path='url(#cpNDguNzd8NDc1LjcwfDM4Ni42Mnw3Ljk3)' />
<circle cx='284.71' cy='54.65' r='3.56' style='stroke-width: 0.71; stroke: #289C87; fill: #289C87;' clip-path='url(#cpNDguNzd8NDc1LjcwfDM4Ni42Mnw3Ljk3)' />
<circle cx='68.66' cy='339.94' r='3.56' style='stroke-width: 0.71; stroke: #6BC760; fill: #6BC760;' clip-path='url(#cpNDguNzd8NDc1LjcwfDM4Ni42Mnw3Ljk3)' />
<circle cx='68.42' cy='365.88' r='3.56' style='stroke-width: 0.71; stroke: #6DC85E; fill: #6DC85E;' clip-path='url(#cpNDguNzd8NDc1LjcwfDM4Ni42Mnw3Ljk3)' />
<circle cx='122.67' cy='223.23' r='3.56' style='stroke-width: 0.71; stroke: #BFDD40; fill: #BFDD40;' clip-path='url(#cpNDguNzd8NDc1LjcwfDM4Ni42Mnw3Ljk3)' />
<circle cx='122.67' cy='210.26' r='3.56' style='stroke-width: 0.71; stroke: #C8DE3D; fill: #C8DE3D;' clip-path='url(#cpNDguNzd8NDc1LjcwfDM4Ni42Mnw3Ljk3)' />
<circle cx='338.72' cy='41.69' r='3.56' style='stroke-width: 0.71; stroke: #45B378; fill: #45B378;' clip-path='url(#cpNDguNzd8NDc1LjcwfDM4Ni42Mnw3Ljk3)' />
<circle cx='68.66' cy='326.97' r='3.56' style='stroke-width: 0.71; stroke: #C8DE3D; fill: #C8DE3D;' clip-path='url(#cpNDguNzd8NDc1LjcwfDM4Ni42Mnw3Ljk3)' />
<circle cx='122.67' cy='197.30' r='3.56' style='stroke-width: 0.71; stroke: #90D54C; fill: #90D54C;' clip-path='url(#cpNDguNzd8NDc1LjcwfDM4Ni42Mnw3Ljk3)' />
<circle cx='122.67' cy='184.33' r='3.56' style='stroke-width: 0.71; stroke: #DAE137; fill: #DAE137;' clip-path='url(#cpNDguNzd8NDc1LjcwfDM4Ni42Mnw3Ljk3)' />
<circle cx='68.66' cy='314.01' r='3.56' style='stroke-width: 0.71; stroke: #FDE725; fill: #FDE725;' clip-path='url(#cpNDguNzd8NDc1LjcwfDM4Ni42Mnw3Ljk3)' />
<circle cx='123.63' cy='158.39' r='3.56' style='stroke-width: 0.71; stroke: #A9D946; fill: #A9D946;' clip-path='url(#cpNDguNzd8NDc1LjcwfDM4Ni42Mnw3Ljk3)' />
<circle cx='69.86' cy='288.07' r='3.56' style='stroke-width: 0.71; stroke: #F5E62A; fill: #F5E62A;' clip-path='url(#cpNDguNzd8NDc1LjcwfDM4Ni42Mnw3Ljk3)' />
<circle cx='176.68' cy='93.56' r='3.56' style='stroke-width: 0.71; stroke: #90D54C; fill: #90D54C;' clip-path='url(#cpNDguNzd8NDc1LjcwfDM4Ni42Mnw3Ljk3)' />
<circle cx='122.67' cy='171.36' r='3.56' style='stroke-width: 0.71; stroke: #EBE42F; fill: #EBE42F;' clip-path='url(#cpNDguNzd8NDc1LjcwfDM4Ni42Mnw3Ljk3)' />
<circle cx='69.38' cy='301.04' r='3.56' style='stroke-width: 0.71; stroke: #DDE235; fill: #DDE235;' clip-path='url(#cpNDguNzd8NDc1LjcwfDM4Ni42Mnw3Ljk3)' />
<circle cx='178.12' cy='80.59' r='3.56' style='stroke-width: 0.71; stroke: #5DBE6B; fill: #5DBE6B;' clip-path='url(#cpNDguNzd8NDc1LjcwfDM4Ni42Mnw3Ljk3)' />
<circle cx='456.29' cy='15.75' r='3.56' style='stroke-width: 0.71; stroke: #440154; fill: #440154;' clip-path='url(#cpNDguNzd8NDc1LjcwfDM4Ni42Mnw3Ljk3)' />
<circle cx='175.24' cy='106.52' r='3.56' style='stroke-width: 0.71; stroke: #289D86; fill: #289D86;' clip-path='url(#cpNDguNzd8NDc1LjcwfDM4Ni42Mnw3Ljk3)' />
<circle cx='94.95' cy='275.10' r='3.56' style='stroke-width: 0.71; stroke: #25A385; fill: #25A385;' clip-path='url(#cpNDguNzd8NDc1LjcwfDM4Ni42Mnw3Ljk3)' />
<circle cx='135.09' cy='145.43' r='3.56' style='stroke-width: 0.71; stroke: #2C868B; fill: #2C868B;' clip-path='url(#cpNDguNzd8NDc1LjcwfDM4Ni42Mnw3Ljk3)' />
<circle cx='135.09' cy='132.46' r='3.56' style='stroke-width: 0.71; stroke: #42B17A; fill: #42B17A;' clip-path='url(#cpNDguNzd8NDc1LjcwfDM4Ni42Mnw3Ljk3)' />
<circle cx='135.09' cy='119.49' r='3.56' style='stroke-width: 0.71; stroke: #30AB80; fill: #30AB80;' clip-path='url(#cpNDguNzd8NDc1LjcwfDM4Ni42Mnw3Ljk3)' />
<circle cx='94.95' cy='262.14' r='3.56' style='stroke-width: 0.71; stroke: #C0DD40; fill: #C0DD40;' clip-path='url(#cpNDguNzd8NDc1LjcwfDM4Ni42Mnw3Ljk3)' />
<circle cx='68.18' cy='378.84' r='3.56' style='stroke-width: 0.71; stroke: #76CE56; fill: #76CE56;' clip-path='url(#cpNDguNzd8NDc1LjcwfDM4Ni42Mnw3Ljk3)' />
<circle cx='121.71' cy='249.17' r='3.56' style='stroke-width: 0.71; stroke: #57BB6F; fill: #57BB6F;' clip-path='url(#cpNDguNzd8NDc1LjcwfDM4Ni42Mnw3Ljk3)' />
<circle cx='282.31' cy='67.62' r='3.56' style='stroke-width: 0.71; stroke: #31708D; fill: #31708D;' clip-path='url(#cpNDguNzd8NDc1LjcwfDM4Ni42Mnw3Ljk3)' />
<rect x='48.77' y='7.97' width='426.92' height='378.65' style='stroke-width: 1.55;' clip-path='url(#cpNDguNzd8NDc1LjcwfDM4Ni42Mnw3Ljk3)' />
<defs>
  <clipPath id='cpMC4wMHw1NzYuMDB8NDMyLjAwfDAuMDA='>
    <rect x='0.00' y='0.00' width='576.00' height='432.00' />
  </clipPath>
</defs>
<g clip-path='url(#cpMC4wMHw1NzYuMDB8NDMyLjAwfDAuMDA=)'><text x='27.69' y='383.28' style='font-size: 12.80px; font-family: Georgia;' textLength='13.91px' lengthAdjust='spacingAndGlyphs'>52</text></g>
<g clip-path='url(#cpMC4wMHw1NzYuMDB8NDMyLjAwfDAuMDA=)'><text x='29.04' y='370.31' style='font-size: 12.80px; font-family: Georgia;' textLength='12.56px' lengthAdjust='spacingAndGlyphs'>31</text></g>
<g clip-path='url(#cpMC4wMHw1NzYuMDB8NDMyLjAwfDAuMDA=)'><text x='28.02' y='357.34' style='font-size: 12.80px; font-family: Georgia;' textLength='13.58px' lengthAdjust='spacingAndGlyphs'>27</text></g>
<g clip-path='url(#cpMC4wMHw1NzYuMDB8NDMyLjAwfDAuMDA=)'><text x='26.68' y='344.38' style='font-size: 12.80px; font-family: Georgia;' textLength='14.92px' lengthAdjust='spacingAndGlyphs'>30</text></g>
<g clip-path='url(#cpMC4wMHw1NzYuMDB8NDMyLjAwfDAuMDA=)'><text x='27.78' y='331.41' style='font-size: 12.80px; font-family: Georgia;' textLength='13.82px' lengthAdjust='spacingAndGlyphs'>35</text></g>
<g clip-path='url(#cpMC4wMHw1NzYuMDB8NDMyLjAwfDAuMDA=)'><text x='26.91' y='318.44' style='font-size: 12.80px; font-family: Georgia;' textLength='14.69px' lengthAdjust='spacingAndGlyphs'>38</text></g>
<g clip-path='url(#cpMC4wMHw1NzYuMDB8NDMyLjAwfDAuMDA=)'><text x='27.31' y='305.47' style='font-size: 12.80px; font-family: Georgia;' textLength='14.29px' lengthAdjust='spacingAndGlyphs'>43</text></g>
<g clip-path='url(#cpMC4wMHw1NzYuMDB8NDMyLjAwfDAuMDA=)'><text x='26.51' y='292.50' style='font-size: 12.80px; font-family: Georgia;' textLength='15.09px' lengthAdjust='spacingAndGlyphs'>40</text></g>
<g clip-path='url(#cpMC4wMHw1NzYuMDB8NDMyLjAwfDAuMDA=)'><text x='27.94' y='279.54' style='font-size: 12.80px; font-family: Georgia;' textLength='13.66px' lengthAdjust='spacingAndGlyphs'>47</text></g>
<g clip-path='url(#cpMC4wMHw1NzYuMDB8NDMyLjAwfDAuMDA=)'><text x='29.34' y='266.57' style='font-size: 12.80px; font-family: Georgia;' textLength='12.26px' lengthAdjust='spacingAndGlyphs'>51</text></g>
<g clip-path='url(#cpMC4wMHw1NzYuMDB8NDMyLjAwfDAuMDA=)'><text x='27.78' y='253.60' style='font-size: 12.80px; font-family: Georgia;' textLength='13.82px' lengthAdjust='spacingAndGlyphs'>53</text></g>
<g clip-path='url(#cpMC4wMHw1NzYuMDB8NDMyLjAwfDAuMDA=)'><text x='26.82' y='240.63' style='font-size: 12.80px; font-family: Georgia;' textLength='14.78px' lengthAdjust='spacingAndGlyphs'>28</text></g>
<g clip-path='url(#cpMC4wMHw1NzYuMDB8NDMyLjAwfDAuMDA=)'><text x='27.39' y='227.67' style='font-size: 12.80px; font-family: Georgia;' textLength='14.21px' lengthAdjust='spacingAndGlyphs'>32</text></g>
<g clip-path='url(#cpMC4wMHw1NzYuMDB8NDMyLjAwfDAuMDA=)'><text x='27.48' y='214.70' style='font-size: 12.80px; font-family: Georgia;' textLength='14.12px' lengthAdjust='spacingAndGlyphs'>33</text></g>
<g clip-path='url(#cpMC4wMHw1NzYuMDB8NDMyLjAwfDAuMDA=)'><text x='27.29' y='201.73' style='font-size: 12.80px; font-family: Georgia;' textLength='14.31px' lengthAdjust='spacingAndGlyphs'>36</text></g>
<g clip-path='url(#cpMC4wMHw1NzYuMDB8NDMyLjAwfDAuMDA=)'><text x='28.11' y='188.76' style='font-size: 12.80px; font-family: Georgia;' textLength='13.49px' lengthAdjust='spacingAndGlyphs'>37</text></g>
<g clip-path='url(#cpMC4wMHw1NzYuMDB8NDMyLjAwfDAuMDA=)'><text x='27.22' y='175.80' style='font-size: 12.80px; font-family: Georgia;' textLength='14.38px' lengthAdjust='spacingAndGlyphs'>42</text></g>
<g clip-path='url(#cpMC4wMHw1NzYuMDB8NDMyLjAwfDAuMDA=)'><text x='27.29' y='162.83' style='font-size: 12.80px; font-family: Georgia;' textLength='14.31px' lengthAdjust='spacingAndGlyphs'>39</text></g>
<g clip-path='url(#cpMC4wMHw1NzYuMDB8NDMyLjAwfDAuMDA=)'><text x='26.74' y='149.86' style='font-size: 12.80px; font-family: Georgia;' textLength='14.86px' lengthAdjust='spacingAndGlyphs'>48</text></g>
<g clip-path='url(#cpMC4wMHw1NzYuMDB8NDMyLjAwfDAuMDA=)'><text x='27.13' y='136.89' style='font-size: 12.80px; font-family: Georgia;' textLength='14.48px' lengthAdjust='spacingAndGlyphs'>49</text></g>
<g clip-path='url(#cpMC4wMHw1NzYuMDB8NDMyLjAwfDAuMDA=)'><text x='26.98' y='123.93' style='font-size: 12.80px; font-family: Georgia;' textLength='14.62px' lengthAdjust='spacingAndGlyphs'>50</text></g>
<g clip-path='url(#cpMC4wMHw1NzYuMDB8NDMyLjAwfDAuMDA=)'><text x='27.13' y='110.96' style='font-size: 12.80px; font-family: Georgia;' textLength='14.48px' lengthAdjust='spacingAndGlyphs'>46</text></g>
<g clip-path='url(#cpMC4wMHw1NzYuMDB8NDMyLjAwfDAuMDA=)'><text x='28.87' y='97.99' style='font-size: 12.80px; font-family: Georgia;' textLength='12.73px' lengthAdjust='spacingAndGlyphs'>41</text></g>
<g clip-path='url(#cpMC4wMHw1NzYuMDB8NDMyLjAwfDAuMDA=)'><text x='27.14' y='85.02' style='font-size: 12.80px; font-family: Georgia;' textLength='14.46px' lengthAdjust='spacingAndGlyphs'>44</text></g>
<g clip-path='url(#cpMC4wMHw1NzYuMDB8NDMyLjAwfDAuMDA=)'><text x='27.61' y='72.06' style='font-size: 12.80px; font-family: Georgia;' textLength='13.99px' lengthAdjust='spacingAndGlyphs'>54</text></g>
<g clip-path='url(#cpMC4wMHw1NzYuMDB8NDMyLjAwfDAuMDA=)'><text x='27.21' y='59.09' style='font-size: 12.80px; font-family: Georgia;' textLength='14.39px' lengthAdjust='spacingAndGlyphs'>29</text></g>
<g clip-path='url(#cpMC4wMHw1NzYuMDB8NDMyLjAwfDAuMDA=)'><text x='27.31' y='46.12' style='font-size: 12.80px; font-family: Georgia;' textLength='14.29px' lengthAdjust='spacingAndGlyphs'>34</text></g>
<g clip-path='url(#cpMC4wMHw1NzYuMDB8NDMyLjAwfDAuMDA=)'><text x='27.69' y='33.15' style='font-size: 12.80px; font-family: Georgia;' textLength='13.91px' lengthAdjust='spacingAndGlyphs'>25</text></g>
<g clip-path='url(#cpMC4wMHw1NzYuMDB8NDMyLjAwfDAuMDA=)'><text x='27.61' y='20.19' style='font-size: 12.80px; font-family: Georgia;' textLength='13.99px' lengthAdjust='spacingAndGlyphs'>45</text></g>
<polyline points='44.79,378.84 48.77,378.84 ' style='stroke-width: 0.78; stroke-linecap: butt;' clip-path='url(#cpMC4wMHw1NzYuMDB8NDMyLjAwfDAuMDA=)' />
<polyline points='44.79,365.88 48.77,365.88 ' style='stroke-width: 0.78; stroke-linecap: butt;' clip-path='url(#cpMC4wMHw1NzYuMDB8NDMyLjAwfDAuMDA=)' />
<polyline points='44.79,352.91 48.77,352.91 ' style='stroke-width: 0.78; stroke-linecap: butt;' clip-path='url(#cpMC4wMHw1NzYuMDB8NDMyLjAwfDAuMDA=)' />
<polyline points='44.79,339.94 48.77,339.94 ' style='stroke-width: 0.78; stroke-linecap: butt;' clip-path='url(#cpMC4wMHw1NzYuMDB8NDMyLjAwfDAuMDA=)' />
<polyline points='44.79,326.97 48.77,326.97 ' style='stroke-width: 0.78; stroke-linecap: butt;' clip-path='url(#cpMC4wMHw1NzYuMDB8NDMyLjAwfDAuMDA=)' />
<polyline points='44.79,314.01 48.77,314.01 ' style='stroke-width: 0.78; stroke-linecap: butt;' clip-path='url(#cpMC4wMHw1NzYuMDB8NDMyLjAwfDAuMDA=)' />
<polyline points='44.79,301.04 48.77,301.04 ' style='stroke-width: 0.78; stroke-linecap: butt;' clip-path='url(#cpMC4wMHw1NzYuMDB8NDMyLjAwfDAuMDA=)' />
<polyline points='44.79,288.07 48.77,288.07 ' style='stroke-width: 0.78; stroke-linecap: butt;' clip-path='url(#cpMC4wMHw1NzYuMDB8NDMyLjAwfDAuMDA=)' />
<polyline points='44.79,275.10 48.77,275.10 ' style='stroke-width: 0.78; stroke-linecap: butt;' clip-path='url(#cpMC4wMHw1NzYuMDB8NDMyLjAwfDAuMDA=)' />
<polyline points='44.79,262.14 48.77,262.14 ' style='stroke-width: 0.78; stroke-linecap: butt;' clip-path='url(#cpMC4wMHw1NzYuMDB8NDMyLjAwfDAuMDA=)' />
<polyline points='44.79,249.17 48.77,249.17 ' style='stroke-width: 0.78; stroke-linecap: butt;' clip-path='url(#cpMC4wMHw1NzYuMDB8NDMyLjAwfDAuMDA=)' />
<polyline points='44.79,236.20 48.77,236.20 ' style='stroke-width: 0.78; stroke-linecap: butt;' clip-path='url(#cpMC4wMHw1NzYuMDB8NDMyLjAwfDAuMDA=)' />
<polyline points='44.79,223.23 48.77,223.23 ' style='stroke-width: 0.78; stroke-linecap: butt;' clip-path='url(#cpMC4wMHw1NzYuMDB8NDMyLjAwfDAuMDA=)' />
<polyline points='44.79,210.26 48.77,210.26 ' style='stroke-width: 0.78; stroke-linecap: butt;' clip-path='url(#cpMC4wMHw1NzYuMDB8NDMyLjAwfDAuMDA=)' />
<polyline points='44.79,197.30 48.77,197.30 ' style='stroke-width: 0.78; stroke-linecap: butt;' clip-path='url(#cpMC4wMHw1NzYuMDB8NDMyLjAwfDAuMDA=)' />
<polyline points='44.79,184.33 48.77,184.33 ' style='stroke-width: 0.78; stroke-linecap: butt;' clip-path='url(#cpMC4wMHw1NzYuMDB8NDMyLjAwfDAuMDA=)' />
<polyline points='44.79,171.36 48.77,171.36 ' style='stroke-width: 0.78; stroke-linecap: butt;' clip-path='url(#cpMC4wMHw1NzYuMDB8NDMyLjAwfDAuMDA=)' />
<polyline points='44.79,158.39 48.77,158.39 ' style='stroke-width: 0.78; stroke-linecap: butt;' clip-path='url(#cpMC4wMHw1NzYuMDB8NDMyLjAwfDAuMDA=)' />
<polyline points='44.79,145.43 48.77,145.43 ' style='stroke-width: 0.78; stroke-linecap: butt;' clip-path='url(#cpMC4wMHw1NzYuMDB8NDMyLjAwfDAuMDA=)' />
<polyline points='44.79,132.46 48.77,132.46 ' style='stroke-width: 0.78; stroke-linecap: butt;' clip-path='url(#cpMC4wMHw1NzYuMDB8NDMyLjAwfDAuMDA=)' />
<polyline points='44.79,119.49 48.77,119.49 ' style='stroke-width: 0.78; stroke-linecap: butt;' clip-path='url(#cpMC4wMHw1NzYuMDB8NDMyLjAwfDAuMDA=)' />
<polyline points='44.79,106.52 48.77,106.52 ' style='stroke-width: 0.78; stroke-linecap: butt;' clip-path='url(#cpMC4wMHw1NzYuMDB8NDMyLjAwfDAuMDA=)' />
<polyline points='44.79,93.56 48.77,93.56 ' style='stroke-width: 0.78; stroke-linecap: butt;' clip-path='url(#cpMC4wMHw1NzYuMDB8NDMyLjAwfDAuMDA=)' />
<polyline points='44.79,80.59 48.77,80.59 ' style='stroke-width: 0.78; stroke-linecap: butt;' clip-path='url(#cpMC4wMHw1NzYuMDB8NDMyLjAwfDAuMDA=)' />
<polyline points='44.79,67.62 48.77,67.62 ' style='stroke-width: 0.78; stroke-linecap: butt;' clip-path='url(#cpMC4wMHw1NzYuMDB8NDMyLjAwfDAuMDA=)' />
<polyline points='44.79,54.65 48.77,54.65 ' style='stroke-width: 0.78; stroke-linecap: butt;' clip-path='url(#cpMC4wMHw1NzYuMDB8NDMyLjAwfDAuMDA=)' />
<polyline points='44.79,41.69 48.77,41.69 ' style='stroke-width: 0.78; stroke-linecap: butt;' clip-path='url(#cpMC4wMHw1NzYuMDB8NDMyLjAwfDAuMDA=)' />
<polyline points='44.79,28.72 48.77,28.72 ' style='stroke-width: 0.78; stroke-linecap: butt;' clip-path='url(#cpMC4wMHw1NzYuMDB8NDMyLjAwfDAuMDA=)' />
<polyline points='44.79,15.75 48.77,15.75 ' style='stroke-width: 0.78; stroke-linecap: butt;' clip-path='url(#cpMC4wMHw1NzYuMDB8NDMyLjAwfDAuMDA=)' />
<polyline points='158.68,390.61 158.68,386.62 ' style='stroke-width: 0.78; stroke-linecap: butt;' clip-path='url(#cpMC4wMHw1NzYuMDB8NDMyLjAwfDAuMDA=)' />
<polyline points='302.71,390.61 302.71,386.62 ' style='stroke-width: 0.78; stroke-linecap: butt;' clip-path='url(#cpMC4wMHw1NzYuMDB8NDMyLjAwfDAuMDA=)' />
<polyline points='446.75,390.61 446.75,386.62 ' style='stroke-width: 0.78; stroke-linecap: butt;' clip-path='url(#cpMC4wMHw1NzYuMDB8NDMyLjAwfDAuMDA=)' />
<g clip-path='url(#cpMC4wMHw1NzYuMDB8NDMyLjAwfDAuMDA=)'><text x='142.07' y='402.67' style='font-size: 12.80px; font-family: Georgia;' textLength='33.21px' lengthAdjust='spacingAndGlyphs'>2e-04</text></g>
<g clip-path='url(#cpMC4wMHw1NzYuMDB8NDMyLjAwfDAuMDA=)'><text x='286.07' y='402.67' style='font-size: 12.80px; font-family: Georgia;' textLength='33.29px' lengthAdjust='spacingAndGlyphs'>4e-04</text></g>
<g clip-path='url(#cpMC4wMHw1NzYuMDB8NDMyLjAwfDAuMDA=)'><text x='430.09' y='402.67' style='font-size: 12.80px; font-family: Georgia;' textLength='33.31px' lengthAdjust='spacingAndGlyphs'>6e-04</text></g>
<g clip-path='url(#cpMC4wMHw1NzYuMDB8NDMyLjAwfDAuMDA=)'><text x='245.43' y='420.56' style='font-size: 16.00px; font-family: Georgia;' textLength='33.60px' lengthAdjust='spacingAndGlyphs'>cbha</text></g>
<g clip-path='url(#cpMC4wMHw1NzYuMDB8NDMyLjAwfDAuMDA=)'><text transform='translate(19.06,235.75) rotate(-90)' style='font-size: 16.00px; font-family: Georgia;' textLength='76.90px' lengthAdjust='spacingAndGlyphs'>Пробирки</text></g>
<rect x='491.64' y='134.86' width='76.39' height='124.87' style='stroke-width: 1.55; stroke: none; fill: #BFC4BB;' clip-path='url(#cpMC4wMHw1NzYuMDB8NDMyLjAwfDAuMDA=)' />
<g clip-path='url(#cpMC4wMHw1NzYuMDB8NDMyLjAwfDAuMDA=)'><image width='17.28' height='86.40' x='499.61' y='165.36' xlink:href='data:image/png;base64,iVBORw0KGgoAAAANSUhEUgAAABIAAABXCAYAAAAJWxWIAAAABmJLR0QA/wD/AP+gvaeTAAABf0lEQVRYha2WwbUbMQwDBxTW+91XLikgNaThlLMWcnAJggrAG4IkKP1af8Lhi/htXXOqQzKYl4+FQJgCEQnmWg0gLJ8LGTAFoa9HqyVUIdo4BaKPBrMK7RcYFwZS4FSIhFkFolGJKCl5NOm0XykJ7YBpDDbgLBVkUiISOD4nEoPTGOxdInqGDhGA01j+gDPnpW0Fp9X+XRjImdUhegLejUObUmkA/hSIQolIKhFJrWDbYK3jL+T3HNFY2u/JLhAhrDkXyjwlswNOw+zqXaPgEVInRjRgKh5tnEJpglJCqtX+r9mF0rY6mZ0B7wZRHnzPPhYaCb/X51iIUYcIgu8pEGnjV4FIAV8FjwL4KpQmpUPEpEMUNnaBaBB2w6MtvBorMsHXeo6FALwqpQW7QTQtIoI9BaKdztLOCL8beTTgtwoxwsY/DaKAfwpEmXSIdtQh0gq+K2aXiIDWOUqpawjfKhBF+FUQ0qLVteC7ECNKOh5pgm8ViAh+sf+eCs3e//4DWueS/rUN6SoAAAAASUVORK5CYII='/></g>
<g clip-path='url(#cpMC4wMHw1NzYuMDB8NDMyLjAwfDAuMDA=)'><text x='525.13' y='241.92' style='font-size: 12.80px; font-family: Georgia;' textLength='34.26px' lengthAdjust='spacingAndGlyphs'>0.006</text></g>
<g clip-path='url(#cpMC4wMHw1NzYuMDB8NDMyLjAwfDAuMDA=)'><text x='525.13' y='227.20' style='font-size: 12.80px; font-family: Georgia;' textLength='33.45px' lengthAdjust='spacingAndGlyphs'>0.007</text></g>
<g clip-path='url(#cpMC4wMHw1NzYuMDB8NDMyLjAwfDAuMDA=)'><text x='525.13' y='212.49' style='font-size: 12.80px; font-family: Georgia;' textLength='34.65px' lengthAdjust='spacingAndGlyphs'>0.008</text></g>
<g clip-path='url(#cpMC4wMHw1NzYuMDB8NDMyLjAwfDAuMDA=)'><text x='525.13' y='197.77' style='font-size: 12.80px; font-family: Georgia;' textLength='34.26px' lengthAdjust='spacingAndGlyphs'>0.009</text></g>
<g clip-path='url(#cpMC4wMHw1NzYuMDB8NDMyLjAwfDAuMDA=)'><text x='525.13' y='183.05' style='font-size: 12.80px; font-family: Georgia;' textLength='32.52px' lengthAdjust='spacingAndGlyphs'>0.010</text></g>
<g clip-path='url(#cpMC4wMHw1NzYuMDB8NDMyLjAwfDAuMDA=)'><text x='499.61' y='155.65' style='font-size: 16.00px; font-family: Georgia;' textLength='59.11px' lengthAdjust='spacingAndGlyphs'>C_chym</text></g>
<line x1='499.61' y1='237.49' x2='503.06' y2='237.49' style='stroke-width: 0.38; stroke: #FFFFFF; stroke-linecap: butt;' clip-path='url(#cpMC4wMHw1NzYuMDB8NDMyLjAwfDAuMDA=)' />
<line x1='499.61' y1='222.77' x2='503.06' y2='222.77' style='stroke-width: 0.38; stroke: #FFFFFF; stroke-linecap: butt;' clip-path='url(#cpMC4wMHw1NzYuMDB8NDMyLjAwfDAuMDA=)' />
<line x1='499.61' y1='208.05' x2='503.06' y2='208.05' style='stroke-width: 0.38; stroke: #FFFFFF; stroke-linecap: butt;' clip-path='url(#cpMC4wMHw1NzYuMDB8NDMyLjAwfDAuMDA=)' />
<line x1='499.61' y1='193.33' x2='503.06' y2='193.33' style='stroke-width: 0.38; stroke: #FFFFFF; stroke-linecap: butt;' clip-path='url(#cpMC4wMHw1NzYuMDB8NDMyLjAwfDAuMDA=)' />
<line x1='499.61' y1='178.61' x2='503.06' y2='178.61' style='stroke-width: 0.38; stroke: #FFFFFF; stroke-linecap: butt;' clip-path='url(#cpMC4wMHw1NzYuMDB8NDMyLjAwfDAuMDA=)' />
<line x1='513.43' y1='237.49' x2='516.89' y2='237.49' style='stroke-width: 0.38; stroke: #FFFFFF; stroke-linecap: butt;' clip-path='url(#cpMC4wMHw1NzYuMDB8NDMyLjAwfDAuMDA=)' />
<line x1='513.43' y1='222.77' x2='516.89' y2='222.77' style='stroke-width: 0.38; stroke: #FFFFFF; stroke-linecap: butt;' clip-path='url(#cpMC4wMHw1NzYuMDB8NDMyLjAwfDAuMDA=)' />
<line x1='513.43' y1='208.05' x2='516.89' y2='208.05' style='stroke-width: 0.38; stroke: #FFFFFF; stroke-linecap: butt;' clip-path='url(#cpMC4wMHw1NzYuMDB8NDMyLjAwfDAuMDA=)' />
<line x1='513.43' y1='193.33' x2='516.89' y2='193.33' style='stroke-width: 0.38; stroke: #FFFFFF; stroke-linecap: butt;' clip-path='url(#cpMC4wMHw1NzYuMDB8NDMyLjAwfDAuMDA=)' />
<line x1='513.43' y1='178.61' x2='516.89' y2='178.61' style='stroke-width: 0.38; stroke: #FFFFFF; stroke-linecap: butt;' clip-path='url(#cpMC4wMHw1NzYuMDB8NDMyLjAwfDAuMDA=)' />
</svg>
