<?xml version='1.0' encoding='UTF-8' ?>
<svg xmlns='http://www.w3.org/2000/svg' xmlns:xlink='http://www.w3.org/1999/xlink' viewBox='0 0 576.00 432.00'>
<defs>
  <style type='text/css'><![CDATA[
    line, polyline, polygon, path, rect, circle {
      fill: none;
      stroke: #000000;
      stroke-linecap: round;
      stroke-linejoin: round;
      stroke-miterlimit: 10.00;
    }
  ]]></style>
</defs>
<rect width='100%' height='100%' style='stroke: none; fill: #FFFFFF;'/>
<rect x='-0.000000000000064' y='0.00' width='576.00' height='432.00' style='stroke-width: 1.55; stroke: #BFC4BB; fill: #BFC4BB;' />
<defs>
  <clipPath id='cpNjYuOTl8NTY4LjAzfDM4Ni42Mnw3Ljk3'>
    <rect x='66.99' y='7.97' width='501.04' height='378.65' />
  </clipPath>
</defs>
<rect x='66.99' y='7.97' width='501.04' height='378.65' style='stroke-width: 1.55; stroke: none; fill: #BFC4BB;' clip-path='url(#cpNjYuOTl8NTY4LjAzfDM4Ni42Mnw3Ljk3)' />
<polyline points='66.99,333.07 568.03,333.07 ' style='stroke-width: 0.078; stroke-linecap: butt;' clip-path='url(#cpNjYuOTl8NTY4LjAzfDM4Ni42Mnw3Ljk3)' />
<polyline points='66.99,215.15 568.03,215.15 ' style='stroke-width: 0.078; stroke-linecap: butt;' clip-path='url(#cpNjYuOTl8NTY4LjAzfDM4Ni42Mnw3Ljk3)' />
<polyline points='66.99,97.22 568.03,97.22 ' style='stroke-width: 0.078; stroke-linecap: butt;' clip-path='url(#cpNjYuOTl8NTY4LjAzfDM4Ni42Mnw3Ljk3)' />
<polyline points='125.57,386.62 125.57,7.97 ' style='stroke-width: 0.078; stroke-linecap: butt;' clip-path='url(#cpNjYuOTl8NTY4LjAzfDM4Ni42Mnw3Ljk3)' />
<polyline points='203.43,386.62 203.43,7.97 ' style='stroke-width: 0.078; stroke-linecap: butt;' clip-path='url(#cpNjYuOTl8NTY4LjAzfDM4Ni42Mnw3Ljk3)' />
<polyline points='281.29,386.62 281.29,7.97 ' style='stroke-width: 0.078; stroke-linecap: butt;' clip-path='url(#cpNjYuOTl8NTY4LjAzfDM4Ni42Mnw3Ljk3)' />
<polyline points='359.14,386.62 359.14,7.97 ' style='stroke-width: 0.078; stroke-linecap: butt;' clip-path='url(#cpNjYuOTl8NTY4LjAzfDM4Ni42Mnw3Ljk3)' />
<polyline points='437.00,386.62 437.00,7.97 ' style='stroke-width: 0.078; stroke-linecap: butt;' clip-path='url(#cpNjYuOTl8NTY4LjAzfDM4Ni42Mnw3Ljk3)' />
<polyline points='514.86,386.62 514.86,7.97 ' style='stroke-width: 0.078; stroke-linecap: butt;' clip-path='url(#cpNjYuOTl8NTY4LjAzfDM4Ni42Mnw3Ljk3)' />
<polyline points='66.99,274.11 568.03,274.11 ' style='stroke-width: 0.16; stroke-linecap: butt;' clip-path='url(#cpNjYuOTl8NTY4LjAzfDM4Ni42Mnw3Ljk3)' />
<polyline points='66.99,156.18 568.03,156.18 ' style='stroke-width: 0.16; stroke-linecap: butt;' clip-path='url(#cpNjYuOTl8NTY4LjAzfDM4Ni42Mnw3Ljk3)' />
<polyline points='66.99,38.25 568.03,38.25 ' style='stroke-width: 0.16; stroke-linecap: butt;' clip-path='url(#cpNjYuOTl8NTY4LjAzfDM4Ni42Mnw3Ljk3)' />
<polyline points='86.65,386.62 86.65,7.97 ' style='stroke-width: 0.16; stroke-linecap: butt;' clip-path='url(#cpNjYuOTl8NTY4LjAzfDM4Ni42Mnw3Ljk3)' />
<polyline points='164.50,386.62 164.50,7.97 ' style='stroke-width: 0.16; stroke-linecap: butt;' clip-path='url(#cpNjYuOTl8NTY4LjAzfDM4Ni42Mnw3Ljk3)' />
<polyline points='242.36,386.62 242.36,7.97 ' style='stroke-width: 0.16; stroke-linecap: butt;' clip-path='url(#cpNjYuOTl8NTY4LjAzfDM4Ni42Mnw3Ljk3)' />
<polyline points='320.21,386.62 320.21,7.97 ' style='stroke-width: 0.16; stroke-linecap: butt;' clip-path='url(#cpNjYuOTl8NTY4LjAzfDM4Ni42Mnw3Ljk3)' />
<polyline points='398.07,386.62 398.07,7.97 ' style='stroke-width: 0.16; stroke-linecap: butt;' clip-path='url(#cpNjYuOTl8NTY4LjAzfDM4Ni42Mnw3Ljk3)' />
<polyline points='475.93,386.62 475.93,7.97 ' style='stroke-width: 0.16; stroke-linecap: butt;' clip-path='url(#cpNjYuOTl8NTY4LjAzfDM4Ni42Mnw3Ljk3)' />
<polyline points='553.78,386.62 553.78,7.97 ' style='stroke-width: 0.16; stroke-linecap: butt;' clip-path='url(#cpNjYuOTl8NTY4LjAzfDM4Ni42Mnw3Ljk3)' />
<circle cx='97.51' cy='79.72' r='1.95' style='stroke-width: 0.71; fill: #000000;' clip-path='url(#cpNjYuOTl8NTY4LjAzfDM4Ni42Mnw3Ljk3)' />
<circle cx='116.79' cy='347.82' r='1.95' style='stroke-width: 0.71; fill: #000000;' clip-path='url(#cpNjYuOTl8NTY4LjAzfDM4Ni42Mnw3Ljk3)' />
<circle cx='123.38' cy='303.59' r='1.95' style='stroke-width: 0.71; fill: #000000;' clip-path='url(#cpNjYuOTl8NTY4LjAzfDM4Ni42Mnw3Ljk3)' />
<circle cx='294.22' cy='170.92' r='1.95' style='stroke-width: 0.71; fill: #000000;' clip-path='url(#cpNjYuOTl8NTY4LjAzfDM4Ni42Mnw3Ljk3)' />
<circle cx='203.35' cy='347.82' r='1.95' style='stroke-width: 0.71; fill: #000000;' clip-path='url(#cpNjYuOTl8NTY4LjAzfDM4Ni42Mnw3Ljk3)' />
<circle cx='200.24' cy='348.01' r='1.95' style='stroke-width: 0.71; fill: #000000;' clip-path='url(#cpNjYuOTl8NTY4LjAzfDM4Ni42Mnw3Ljk3)' />
<circle cx='136.35' cy='303.59' r='1.95' style='stroke-width: 0.71; fill: #000000;' clip-path='url(#cpNjYuOTl8NTY4LjAzfDM4Ni42Mnw3Ljk3)' />
<circle cx='129.90' cy='303.59' r='1.95' style='stroke-width: 0.71; fill: #000000;' clip-path='url(#cpNjYuOTl8NTY4LjAzfDM4Ni42Mnw3Ljk3)' />
<circle cx='247.86' cy='126.70' r='1.95' style='stroke-width: 0.71; fill: #000000;' clip-path='url(#cpNjYuOTl8NTY4LjAzfDM4Ni42Mnw3Ljk3)' />
<circle cx='129.90' cy='347.82' r='1.95' style='stroke-width: 0.71; fill: #000000;' clip-path='url(#cpNjYuOTl8NTY4LjAzfDM4Ni42Mnw3Ljk3)' />
<circle cx='167.69' cy='303.59' r='1.95' style='stroke-width: 0.71; fill: #000000;' clip-path='url(#cpNjYuOTl8NTY4LjAzfDM4Ni42Mnw3Ljk3)' />
<circle cx='116.79' cy='303.59' r='1.95' style='stroke-width: 0.71; fill: #000000;' clip-path='url(#cpNjYuOTl8NTY4LjAzfDM4Ni42Mnw3Ljk3)' />
<circle cx='89.77' cy='347.82' r='1.95' style='stroke-width: 0.71; fill: #000000;' clip-path='url(#cpNjYuOTl8NTY4LjAzfDM4Ni42Mnw3Ljk3)' />
<circle cx='151.58' cy='302.81' r='1.95' style='stroke-width: 0.71; fill: #000000;' clip-path='url(#cpNjYuOTl8NTY4LjAzfDM4Ni42Mnw3Ljk3)' />
<circle cx='95.61' cy='346.83' r='1.95' style='stroke-width: 0.71; fill: #000000;' clip-path='url(#cpNjYuOTl8NTY4LjAzfDM4Ni42Mnw3Ljk3)' />
<circle cx='167.69' cy='259.37' r='1.95' style='stroke-width: 0.71; fill: #000000;' clip-path='url(#cpNjYuOTl8NTY4LjAzfDM4Ni42Mnw3Ljk3)' />
<circle cx='103.42' cy='303.59' r='1.95' style='stroke-width: 0.71; fill: #000000;' clip-path='url(#cpNjYuOTl8NTY4LjAzfDM4Ni42Mnw3Ljk3)' />
<circle cx='114.08' cy='347.23' r='1.95' style='stroke-width: 0.71; fill: #000000;' clip-path='url(#cpNjYuOTl8NTY4LjAzfDM4Ni42Mnw3Ljk3)' />
<circle cx='222.55' cy='258.19' r='1.95' style='stroke-width: 0.71; fill: #000000;' clip-path='url(#cpNjYuOTl8NTY4LjAzfDM4Ni42Mnw3Ljk3)' />
<circle cx='545.26' cy='30.44' r='1.95' style='stroke-width: 0.71; fill: #000000;' clip-path='url(#cpNjYuOTl8NTY4LjAzfDM4Ni42Mnw3Ljk3)' />
<circle cx='291.56' cy='260.55' r='1.95' style='stroke-width: 0.71; fill: #000000;' clip-path='url(#cpNjYuOTl8NTY4LjAzfDM4Ni42Mnw3Ljk3)' />
<circle cx='280.40' cy='326.29' r='1.95' style='stroke-width: 0.71; fill: #000000;' clip-path='url(#cpNjYuOTl8NTY4LjAzfDM4Ni42Mnw3Ljk3)' />
<circle cx='336.68' cy='293.42' r='1.95' style='stroke-width: 0.71; fill: #000000;' clip-path='url(#cpNjYuOTl8NTY4LjAzfDM4Ni42Mnw3Ljk3)' />
<circle cx='250.70' cy='293.42' r='1.95' style='stroke-width: 0.71; fill: #000000;' clip-path='url(#cpNjYuOTl8NTY4LjAzfDM4Ni42Mnw3Ljk3)' />
<circle cx='264.30' cy='293.42' r='1.95' style='stroke-width: 0.71; fill: #000000;' clip-path='url(#cpNjYuOTl8NTY4LjAzfDM4Ni42Mnw3Ljk3)' />
<circle cx='135.81' cy='326.29' r='1.95' style='stroke-width: 0.71; fill: #000000;' clip-path='url(#cpNjYuOTl8NTY4LjAzfDM4Ni42Mnw3Ljk3)' />
<circle cx='187.63' cy='348.21' r='1.95' style='stroke-width: 0.71; fill: #000000;' clip-path='url(#cpNjYuOTl8NTY4LjAzfDM4Ni42Mnw3Ljk3)' />
<circle cx='229.65' cy='304.38' r='1.95' style='stroke-width: 0.71; fill: #000000;' clip-path='url(#cpNjYuOTl8NTY4LjAzfDM4Ni42Mnw3Ljk3)' />
<circle cx='377.25' cy='172.89' r='1.95' style='stroke-width: 0.71; fill: #000000;' clip-path='url(#cpNjYuOTl8NTY4LjAzfDM4Ni42Mnw3Ljk3)' />
<polyline points='89.77,282.44 95.53,287.77 101.30,292.65 107.06,296.89 112.83,300.65 118.60,304.03 124.36,307.15 130.13,310.00 135.89,312.55 141.66,314.17 147.42,314.43 153.19,313.90 158.96,313.16 164.72,312.79 170.49,313.11 176.25,312.86 182.02,311.87 187.78,310.22 193.55,308.02 199.31,305.36 205.08,302.34 210.85,299.06 216.61,295.62 222.38,292.10 228.14,287.71 233.91,282.05 239.67,276.07 245.44,270.71 251.21,266.92 256.97,264.17 262.74,261.65 268.50,259.26 274.27,256.94 280.03,254.60 285.80,252.16 291.57,249.55 297.33,246.71 303.10,243.76 308.86,240.71 314.63,237.56 320.39,234.32 326.16,230.97 331.93,227.52 337.69,223.98 343.46,220.34 349.22,216.59 354.99,212.75 360.75,208.81 366.52,204.77 372.29,200.63 378.05,196.39 383.82,192.06 389.58,187.62 395.35,183.08 401.11,178.44 406.88,173.71 412.64,168.87 418.41,163.93 424.18,158.90 429.94,153.76 435.71,148.52 441.47,143.19 447.24,137.75 453.00,132.21 458.77,126.58 464.54,120.84 470.30,115.00 476.07,109.06 481.83,103.02 487.60,96.88 493.36,90.64 499.13,84.30 504.90,77.86 510.66,71.32 516.43,64.67 522.19,57.93 527.96,51.08 533.72,44.14 539.49,37.09 545.26,29.94 ' style='stroke-width: 2.13; stroke: #FF0000; stroke-linecap: butt;' clip-path='url(#cpNjYuOTl8NTY4LjAzfDM4Ni42Mnw3Ljk3)' />
<polygon points='89.77,294.84 95.53,293.13 101.30,291.40 107.06,289.63 112.83,287.84 118.60,286.01 124.36,284.14 130.13,282.23 135.89,280.27 141.66,278.27 147.42,276.21 153.19,274.09 158.96,271.92 164.72,269.67 170.49,267.36 176.25,264.98 182.02,262.52 187.78,259.99 193.55,257.37 199.31,254.67 205.08,251.89 210.85,249.03 216.61,246.09 222.38,243.07 228.14,239.97 233.91,236.80 239.67,233.56 245.44,230.26 251.21,226.89 256.97,223.46 262.74,219.98 268.50,216.45 274.27,212.87 280.03,209.25 285.80,205.59 291.57,201.89 297.33,198.16 303.10,194.40 308.86,190.61 314.63,186.79 320.39,182.95 326.16,179.09 331.93,175.21 337.69,171.31 343.46,167.39 349.22,163.46 354.99,159.51 360.75,155.55 366.52,151.57 372.29,147.59 378.05,143.59 383.82,139.59 389.58,135.57 395.35,131.55 401.11,127.52 406.88,123.48 412.64,119.44 418.41,115.38 424.18,111.33 429.94,107.26 435.71,103.19 441.47,99.12 447.24,95.04 453.00,90.96 458.77,86.87 464.54,82.78 470.30,78.68 476.07,74.58 481.83,70.48 487.60,66.38 493.36,62.27 499.13,58.16 504.90,54.04 510.66,49.93 516.43,45.81 522.19,41.69 527.96,37.56 533.72,33.44 539.49,29.31 545.26,25.18 545.26,204.23 539.49,205.61 533.72,206.98 527.96,208.36 522.19,209.74 516.43,211.13 510.66,212.51 504.90,213.90 499.13,215.29 493.36,216.68 487.60,218.08 481.83,219.48 476.07,220.88 470.30,222.29 464.54,223.69 458.77,225.11 453.00,226.52 447.24,227.95 441.47,229.37 435.71,230.80 429.94,232.24 424.18,233.68 418.41,235.12 412.64,236.57 406.88,238.03 401.11,239.50 395.35,240.97 389.58,242.45 383.82,243.94 378.05,245.44 372.29,246.95 366.52,248.47 360.75,250.00 354.99,251.54 349.22,253.10 343.46,254.67 337.69,256.26 331.93,257.86 326.16,259.49 320.39,261.13 314.63,262.79 308.86,264.48 303.10,266.20 297.33,267.94 291.57,269.71 285.80,271.52 280.03,273.36 274.27,275.24 268.50,277.17 262.74,279.14 256.97,281.16 251.21,283.24 245.44,285.38 239.67,287.57 233.91,289.84 228.14,292.17 222.38,294.58 216.61,297.06 210.85,299.63 205.08,302.27 199.31,304.99 193.55,307.80 187.78,310.69 182.02,313.66 176.25,316.70 170.49,319.83 164.72,323.02 158.96,326.28 153.19,329.61 147.42,333.00 141.66,336.44 135.89,339.94 130.13,343.49 124.36,347.08 118.60,350.72 112.83,354.39 107.06,358.10 101.30,361.84 95.53,365.61 89.77,369.41 ' style='stroke-width: 0.00; stroke: none; fill: #999999; fill-opacity: 0.40;' clip-path='url(#cpNjYuOTl8NTY4LjAzfDM4Ni42Mnw3Ljk3)' />
<polyline points='89.77,294.84 95.53,293.13 101.30,291.40 107.06,289.63 112.83,287.84 118.60,286.01 124.36,284.14 130.13,282.23 135.89,280.27 141.66,278.27 147.42,276.21 153.19,274.09 158.96,271.92 164.72,269.67 170.49,267.36 176.25,264.98 182.02,262.52 187.78,259.99 193.55,257.37 199.31,254.67 205.08,251.89 210.85,249.03 216.61,246.09 222.38,243.07 228.14,239.97 233.91,236.80 239.67,233.56 245.44,230.26 251.21,226.89 256.97,223.46 262.74,219.98 268.50,216.45 274.27,212.87 280.03,209.25 285.80,205.59 291.57,201.89 297.33,198.16 303.10,194.40 308.86,190.61 314.63,186.79 320.39,182.95 326.16,179.09 331.93,175.21 337.69,171.31 343.46,167.39 349.22,163.46 354.99,159.51 360.75,155.55 366.52,151.57 372.29,147.59 378.05,143.59 383.82,139.59 389.58,135.57 395.35,131.55 401.11,127.52 406.88,123.48 412.64,119.44 418.41,115.38 424.18,111.33 429.94,107.26 435.71,103.19 441.47,99.12 447.24,95.04 453.00,90.96 458.77,86.87 464.54,82.78 470.30,78.68 476.07,74.58 481.83,70.48 487.60,66.38 493.36,62.27 499.13,58.16 504.90,54.04 510.66,49.93 516.43,45.81 522.19,41.69 527.96,37.56 533.72,33.44 539.49,29.31 545.26,25.18 ' style='stroke-width: 2.13; stroke: none; stroke-dasharray: 19.92,8.54;' clip-path='url(#cpNjYuOTl8NTY4LjAzfDM4Ni42Mnw3Ljk3)' />
<polyline points='545.26,204.23 539.49,205.61 533.72,206.98 527.96,208.36 522.19,209.74 516.43,211.13 510.66,212.51 504.90,213.90 499.13,215.29 493.36,216.68 487.60,218.08 481.83,219.48 476.07,220.88 470.30,222.29 464.54,223.69 458.77,225.11 453.00,226.52 447.24,227.95 441.47,229.37 435.71,230.80 429.94,232.24 424.18,233.68 418.41,235.12 412.64,236.57 406.88,238.03 401.11,239.50 395.35,240.97 389.58,242.45 383.82,243.94 378.05,245.44 372.29,246.95 366.52,248.47 360.75,250.00 354.99,251.54 349.22,253.10 343.46,254.67 337.69,256.26 331.93,257.86 326.16,259.49 320.39,261.13 314.63,262.79 308.86,264.48 303.10,266.20 297.33,267.94 291.57,269.71 285.80,271.52 280.03,273.36 274.27,275.24 268.50,277.17 262.74,279.14 256.97,281.16 251.21,283.24 245.44,285.38 239.67,287.57 233.91,289.84 228.14,292.17 222.38,294.58 216.61,297.06 210.85,299.63 205.08,302.27 199.31,304.99 193.55,307.80 187.78,310.69 182.02,313.66 176.25,316.70 170.49,319.83 164.72,323.02 158.96,326.28 153.19,329.61 147.42,333.00 141.66,336.44 135.89,339.94 130.13,343.49 124.36,347.08 118.60,350.72 112.83,354.39 107.06,358.10 101.30,361.84 95.53,365.61 89.77,369.41 ' style='stroke-width: 2.13; stroke: none; stroke-dasharray: 19.92,8.54;' clip-path='url(#cpNjYuOTl8NTY4LjAzfDM4Ni42Mnw3Ljk3)' />
<polyline points='89.77,332.12 95.53,329.37 101.30,326.62 107.06,323.87 112.83,321.12 118.60,318.36 124.36,315.61 130.13,312.86 135.89,310.11 141.66,307.35 147.42,304.60 153.19,301.85 158.96,299.10 164.72,296.35 170.49,293.59 176.25,290.84 182.02,288.09 187.78,285.34 193.55,282.59 199.31,279.83 205.08,277.08 210.85,274.33 216.61,271.58 222.38,268.82 228.14,266.07 233.91,263.32 239.67,260.57 245.44,257.82 251.21,255.06 256.97,252.31 262.74,249.56 268.50,246.81 274.27,244.06 280.03,241.30 285.80,238.55 291.57,235.80 297.33,233.05 303.10,230.30 308.86,227.54 314.63,224.79 320.39,222.04 326.16,219.29 331.93,216.53 337.69,213.78 343.46,211.03 349.22,208.28 354.99,205.53 360.75,202.77 366.52,200.02 372.29,197.27 378.05,194.52 383.82,191.77 389.58,189.01 395.35,186.26 401.11,183.51 406.88,180.76 412.64,178.00 418.41,175.25 424.18,172.50 429.94,169.75 435.71,167.00 441.47,164.24 447.24,161.49 453.00,158.74 458.77,155.99 464.54,153.24 470.30,150.48 476.07,147.73 481.83,144.98 487.60,142.23 493.36,139.48 499.13,136.72 504.90,133.97 510.66,131.22 516.43,128.47 522.19,125.71 527.96,122.96 533.72,120.21 539.49,117.46 545.26,114.71 ' style='stroke-width: 2.13; stroke: #3366FF; stroke-dasharray: 19.92,8.54; stroke-linecap: butt;' clip-path='url(#cpNjYuOTl8NTY4LjAzfDM4Ni42Mnw3Ljk3)' />
<rect x='66.99' y='7.97' width='501.04' height='378.65' style='stroke-width: 1.55;' clip-path='url(#cpNjYuOTl8NTY4LjAzfDM4Ni42Mnw3Ljk3)' />
<defs>
  <clipPath id='cpMC4wMHw1NzYuMDB8NDMyLjAwfDAuMDA='>
    <rect x='0.00' y='0.00' width='576.00' height='432.00' />
  </clipPath>
</defs>
<g clip-path='url(#cpMC4wMHw1NzYuMDB8NDMyLjAwfDAuMDA=)'><text x='26.61' y='278.54' style='font-size: 12.80px; font-family: Georgia;' textLength='33.21px' lengthAdjust='spacingAndGlyphs'>2e-04</text></g>
<g clip-path='url(#cpMC4wMHw1NzYuMDB8NDMyLjAwfDAuMDA=)'><text x='26.53' y='160.62' style='font-size: 12.80px; font-family: Georgia;' textLength='33.29px' lengthAdjust='spacingAndGlyphs'>4e-04</text></g>
<g clip-path='url(#cpMC4wMHw1NzYuMDB8NDMyLjAwfDAuMDA=)'><text x='26.51' y='42.69' style='font-size: 12.80px; font-family: Georgia;' textLength='33.31px' lengthAdjust='spacingAndGlyphs'>6e-04</text></g>
<polyline points='63.01,274.11 66.99,274.11 ' style='stroke-width: 0.78; stroke-linecap: butt;' clip-path='url(#cpMC4wMHw1NzYuMDB8NDMyLjAwfDAuMDA=)' />
<polyline points='63.01,156.18 66.99,156.18 ' style='stroke-width: 0.78; stroke-linecap: butt;' clip-path='url(#cpMC4wMHw1NzYuMDB8NDMyLjAwfDAuMDA=)' />
<polyline points='63.01,38.25 66.99,38.25 ' style='stroke-width: 0.78; stroke-linecap: butt;' clip-path='url(#cpMC4wMHw1NzYuMDB8NDMyLjAwfDAuMDA=)' />
<polyline points='86.65,390.61 86.65,386.62 ' style='stroke-width: 0.78; stroke-linecap: butt;' clip-path='url(#cpMC4wMHw1NzYuMDB8NDMyLjAwfDAuMDA=)' />
<polyline points='164.50,390.61 164.50,386.62 ' style='stroke-width: 0.78; stroke-linecap: butt;' clip-path='url(#cpMC4wMHw1NzYuMDB8NDMyLjAwfDAuMDA=)' />
<polyline points='242.36,390.61 242.36,386.62 ' style='stroke-width: 0.78; stroke-linecap: butt;' clip-path='url(#cpMC4wMHw1NzYuMDB8NDMyLjAwfDAuMDA=)' />
<polyline points='320.21,390.61 320.21,386.62 ' style='stroke-width: 0.78; stroke-linecap: butt;' clip-path='url(#cpMC4wMHw1NzYuMDB8NDMyLjAwfDAuMDA=)' />
<polyline points='398.07,390.61 398.07,386.62 ' style='stroke-width: 0.78; stroke-linecap: butt;' clip-path='url(#cpMC4wMHw1NzYuMDB8NDMyLjAwfDAuMDA=)' />
<polyline points='475.93,390.61 475.93,386.62 ' style='stroke-width: 0.78; stroke-linecap: butt;' clip-path='url(#cpMC4wMHw1NzYuMDB8NDMyLjAwfDAuMDA=)' />
<polyline points='553.78,390.61 553.78,386.62 ' style='stroke-width: 0.78; stroke-linecap: butt;' clip-path='url(#cpMC4wMHw1NzYuMDB8NDMyLjAwfDAuMDA=)' />
<g clip-path='url(#cpMC4wMHw1NzYuMDB8NDMyLjAwfDAuMDA=)'><text x='69.75' y='402.67' style='font-size: 12.80px; font-family: Georgia;' textLength='33.78px' lengthAdjust='spacingAndGlyphs'>0.005</text></g>
<g clip-path='url(#cpMC4wMHw1NzYuMDB8NDMyLjAwfDAuMDA=)'><text x='147.37' y='402.67' style='font-size: 12.80px; font-family: Georgia;' textLength='34.26px' lengthAdjust='spacingAndGlyphs'>0.006</text></g>
<g clip-path='url(#cpMC4wMHw1NzYuMDB8NDMyLjAwfDAuMDA=)'><text x='225.63' y='402.67' style='font-size: 12.80px; font-family: Georgia;' textLength='33.45px' lengthAdjust='spacingAndGlyphs'>0.007</text></g>
<g clip-path='url(#cpMC4wMHw1NzYuMDB8NDMyLjAwfDAuMDA=)'><text x='302.89' y='402.67' style='font-size: 12.80px; font-family: Georgia;' textLength='34.65px' lengthAdjust='spacingAndGlyphs'>0.008</text></g>
<g clip-path='url(#cpMC4wMHw1NzYuMDB8NDMyLjAwfDAuMDA=)'><text x='380.94' y='402.67' style='font-size: 12.80px; font-family: Georgia;' textLength='34.26px' lengthAdjust='spacingAndGlyphs'>0.009</text></g>
<g clip-path='url(#cpMC4wMHw1NzYuMDB8NDMyLjAwfDAuMDA=)'><text x='459.67' y='402.67' style='font-size: 12.80px; font-family: Georgia;' textLength='32.52px' lengthAdjust='spacingAndGlyphs'>0.010</text></g>
<g clip-path='url(#cpMC4wMHw1NzYuMDB8NDMyLjAwfDAuMDA=)'><text x='538.70' y='402.67' style='font-size: 12.80px; font-family: Georgia;' textLength='30.16px' lengthAdjust='spacingAndGlyphs'>0.011</text></g>
<g clip-path='url(#cpMC4wMHw1NzYuMDB8NDMyLjAwfDAuMDA=)'><text x='287.96' y='420.56' style='font-size: 16.00px; font-family: Georgia;' textLength='59.11px' lengthAdjust='spacingAndGlyphs'>C_chym</text></g>
<g clip-path='url(#cpMC4wMHw1NzYuMDB8NDMyLjAwfDAuMDA=)'><text transform='translate(19.06,214.10) rotate(-90)' style='font-size: 16.00px; font-family: Georgia;' textLength='33.60px' lengthAdjust='spacingAndGlyphs'>cbha</text></g>
</svg>
