<?xml version='1.0' encoding='UTF-8' ?>
<svg xmlns='http://www.w3.org/2000/svg' xmlns:xlink='http://www.w3.org/1999/xlink' viewBox='0 0 792.00 432.00'>
<defs>
  <style type='text/css'><![CDATA[
    line, polyline, polygon, path, rect, circle {
      fill: none;
      stroke: #000000;
      stroke-linecap: round;
      stroke-linejoin: round;
      stroke-miterlimit: 10.00;
    }
  ]]></style>
</defs>
<rect width='100%' height='100%' style='stroke: none; fill: #FFFFFF;'/>
<rect x='0.00' y='0.00' width='792.00' height='432.00' style='stroke-width: 1.55; stroke: #BFC4BB; fill: #BFC4BB;' />
<defs>
  <clipPath id='cpNTMuMTZ8NDE0LjYxfDM4Ni40OHwzMi41NQ=='>
    <rect x='53.16' y='32.55' width='361.45' height='353.93' />
  </clipPath>
</defs>
<rect x='53.16' y='32.55' width='361.45' height='353.93' style='stroke-width: 1.55; stroke: none; fill: #BFC4BB;' clip-path='url(#cpNTMuMTZ8NDE0LjYxfDM4Ni40OHwzMi41NQ==)' />
<polyline points='53.16,335.17 414.61,335.17 ' style='stroke-width: 0.078; stroke-linecap: butt;' clip-path='url(#cpNTMuMTZ8NDE0LjYxfDM4Ni40OHwzMi41NQ==)' />
<polyline points='53.16,264.71 414.61,264.71 ' style='stroke-width: 0.078; stroke-linecap: butt;' clip-path='url(#cpNTMuMTZ8NDE0LjYxfDM4Ni40OHwzMi41NQ==)' />
<polyline points='53.16,194.24 414.61,194.24 ' style='stroke-width: 0.078; stroke-linecap: butt;' clip-path='url(#cpNTMuMTZ8NDE0LjYxfDM4Ni40OHwzMi41NQ==)' />
<polyline points='53.16,123.78 414.61,123.78 ' style='stroke-width: 0.078; stroke-linecap: butt;' clip-path='url(#cpNTMuMTZ8NDE0LjYxfDM4Ni40OHwzMi41NQ==)' />
<polyline points='53.16,53.32 414.61,53.32 ' style='stroke-width: 0.078; stroke-linecap: butt;' clip-path='url(#cpNTMuMTZ8NDE0LjYxfDM4Ni40OHwzMi41NQ==)' />
<polyline points='110.66,386.48 110.66,32.55 ' style='stroke-width: 0.078; stroke-linecap: butt;' clip-path='url(#cpNTMuMTZ8NDE0LjYxfDM4Ni40OHwzMi41NQ==)' />
<polyline points='192.81,386.48 192.81,32.55 ' style='stroke-width: 0.078; stroke-linecap: butt;' clip-path='url(#cpNTMuMTZ8NDE0LjYxfDM4Ni40OHwzMi41NQ==)' />
<polyline points='274.96,386.48 274.96,32.55 ' style='stroke-width: 0.078; stroke-linecap: butt;' clip-path='url(#cpNTMuMTZ8NDE0LjYxfDM4Ni40OHwzMi41NQ==)' />
<polyline points='357.11,386.48 357.11,32.55 ' style='stroke-width: 0.078; stroke-linecap: butt;' clip-path='url(#cpNTMuMTZ8NDE0LjYxfDM4Ni40OHwzMi41NQ==)' />
<polyline points='53.16,370.40 414.61,370.40 ' style='stroke-width: 0.16; stroke-linecap: butt;' clip-path='url(#cpNTMuMTZ8NDE0LjYxfDM4Ni40OHwzMi41NQ==)' />
<polyline points='53.16,299.94 414.61,299.94 ' style='stroke-width: 0.16; stroke-linecap: butt;' clip-path='url(#cpNTMuMTZ8NDE0LjYxfDM4Ni40OHwzMi41NQ==)' />
<polyline points='53.16,229.47 414.61,229.47 ' style='stroke-width: 0.16; stroke-linecap: butt;' clip-path='url(#cpNTMuMTZ8NDE0LjYxfDM4Ni40OHwzMi41NQ==)' />
<polyline points='53.16,159.01 414.61,159.01 ' style='stroke-width: 0.16; stroke-linecap: butt;' clip-path='url(#cpNTMuMTZ8NDE0LjYxfDM4Ni40OHwzMi41NQ==)' />
<polyline points='53.16,88.55 414.61,88.55 ' style='stroke-width: 0.16; stroke-linecap: butt;' clip-path='url(#cpNTMuMTZ8NDE0LjYxfDM4Ni40OHwzMi41NQ==)' />
<polyline points='69.59,386.48 69.59,32.55 ' style='stroke-width: 0.16; stroke-linecap: butt;' clip-path='url(#cpNTMuMTZ8NDE0LjYxfDM4Ni40OHwzMi41NQ==)' />
<polyline points='151.74,386.48 151.74,32.55 ' style='stroke-width: 0.16; stroke-linecap: butt;' clip-path='url(#cpNTMuMTZ8NDE0LjYxfDM4Ni40OHwzMi41NQ==)' />
<polyline points='233.89,386.48 233.89,32.55 ' style='stroke-width: 0.16; stroke-linecap: butt;' clip-path='url(#cpNTMuMTZ8NDE0LjYxfDM4Ni40OHwzMi41NQ==)' />
<polyline points='316.03,386.48 316.03,32.55 ' style='stroke-width: 0.16; stroke-linecap: butt;' clip-path='url(#cpNTMuMTZ8NDE0LjYxfDM4Ni40OHwzMi41NQ==)' />
<polyline points='398.18,386.48 398.18,32.55 ' style='stroke-width: 0.16; stroke-linecap: butt;' clip-path='url(#cpNTMuMTZ8NDE0LjYxfDM4Ni40OHwzMi41NQ==)' />
<circle cx='69.59' cy='264.03' r='1.95' style='stroke-width: 0.71; fill: #000000;' clip-path='url(#cpNTMuMTZ8NDE0LjYxfDM4Ni40OHwzMi41NQ==)' />
<circle cx='69.59' cy='317.64' r='1.95' style='stroke-width: 0.71; fill: #000000;' clip-path='url(#cpNTMuMTZ8NDE0LjYxfDM4Ni40OHwzMi41NQ==)' />
<circle cx='69.59' cy='264.91' r='1.95' style='stroke-width: 0.71; fill: #000000;' clip-path='url(#cpNTMuMTZ8NDE0LjYxfDM4Ni40OHwzMi41NQ==)' />
<circle cx='69.59' cy='265.53' r='1.95' style='stroke-width: 0.71; fill: #000000;' clip-path='url(#cpNTMuMTZ8NDE0LjYxfDM4Ni40OHwzMi41NQ==)' />
<circle cx='69.59' cy='317.83' r='1.95' style='stroke-width: 0.71; fill: #000000;' clip-path='url(#cpNTMuMTZ8NDE0LjYxfDM4Ni40OHwzMi41NQ==)' />
<circle cx='69.59' cy='370.40' r='1.95' style='stroke-width: 0.71; fill: #000000;' clip-path='url(#cpNTMuMTZ8NDE0LjYxfDM4Ni40OHwzMi41NQ==)' />
<circle cx='69.59' cy='294.49' r='1.95' style='stroke-width: 0.71; fill: #000000;' clip-path='url(#cpNTMuMTZ8NDE0LjYxfDM4Ni40OHwzMi41NQ==)' />
<circle cx='69.59' cy='333.49' r='1.95' style='stroke-width: 0.71; fill: #000000;' clip-path='url(#cpNTMuMTZ8NDE0LjYxfDM4Ni40OHwzMi41NQ==)' />
<circle cx='69.59' cy='254.90' r='1.95' style='stroke-width: 0.71; fill: #000000;' clip-path='url(#cpNTMuMTZ8NDE0LjYxfDM4Ni40OHwzMi41NQ==)' />
<circle cx='233.89' cy='260.82' r='1.95' style='stroke-width: 0.71; fill: #000000;' clip-path='url(#cpNTMuMTZ8NDE0LjYxfDM4Ni40OHwzMi41NQ==)' />
<circle cx='233.89' cy='176.38' r='1.95' style='stroke-width: 0.71; fill: #000000;' clip-path='url(#cpNTMuMTZ8NDE0LjYxfDM4Ni40OHwzMi41NQ==)' />
<circle cx='233.89' cy='208.82' r='1.95' style='stroke-width: 0.71; fill: #000000;' clip-path='url(#cpNTMuMTZ8NDE0LjYxfDM4Ni40OHwzMi41NQ==)' />
<circle cx='233.89' cy='253.33' r='1.95' style='stroke-width: 0.71; fill: #000000;' clip-path='url(#cpNTMuMTZ8NDE0LjYxfDM4Ni40OHwzMi41NQ==)' />
<circle cx='233.89' cy='268.75' r='1.95' style='stroke-width: 0.71; fill: #000000;' clip-path='url(#cpNTMuMTZ8NDE0LjYxfDM4Ni40OHwzMi41NQ==)' />
<circle cx='233.89' cy='290.69' r='1.95' style='stroke-width: 0.71; fill: #000000;' clip-path='url(#cpNTMuMTZ8NDE0LjYxfDM4Ni40OHwzMi41NQ==)' />
<circle cx='233.89' cy='252.06' r='1.95' style='stroke-width: 0.71; fill: #000000;' clip-path='url(#cpNTMuMTZ8NDE0LjYxfDM4Ni40OHwzMi41NQ==)' />
<circle cx='233.89' cy='246.60' r='1.95' style='stroke-width: 0.71; fill: #000000;' clip-path='url(#cpNTMuMTZ8NDE0LjYxfDM4Ni40OHwzMi41NQ==)' />
<circle cx='233.89' cy='189.01' r='1.95' style='stroke-width: 0.71; fill: #000000;' clip-path='url(#cpNTMuMTZ8NDE0LjYxfDM4Ni40OHwzMi41NQ==)' />
<circle cx='398.18' cy='172.68' r='1.95' style='stroke-width: 0.71; fill: #000000;' clip-path='url(#cpNTMuMTZ8NDE0LjYxfDM4Ni40OHwzMi41NQ==)' />
<circle cx='398.18' cy='106.02' r='1.95' style='stroke-width: 0.71; fill: #000000;' clip-path='url(#cpNTMuMTZ8NDE0LjYxfDM4Ni40OHwzMi41NQ==)' />
<circle cx='398.18' cy='139.30' r='1.95' style='stroke-width: 0.71; fill: #000000;' clip-path='url(#cpNTMuMTZ8NDE0LjYxfDM4Ni40OHwzMi41NQ==)' />
<circle cx='398.18' cy='175.92' r='1.95' style='stroke-width: 0.71; fill: #000000;' clip-path='url(#cpNTMuMTZ8NDE0LjYxfDM4Ni40OHwzMi41NQ==)' />
<circle cx='398.18' cy='185.22' r='1.95' style='stroke-width: 0.71; fill: #000000;' clip-path='url(#cpNTMuMTZ8NDE0LjYxfDM4Ni40OHwzMi41NQ==)' />
<circle cx='398.18' cy='289.54' r='1.95' style='stroke-width: 0.71; fill: #000000;' clip-path='url(#cpNTMuMTZ8NDE0LjYxfDM4Ni40OHwzMi41NQ==)' />
<circle cx='398.18' cy='205.64' r='1.95' style='stroke-width: 0.71; fill: #000000;' clip-path='url(#cpNTMuMTZ8NDE0LjYxfDM4Ni40OHwzMi41NQ==)' />
<circle cx='398.18' cy='210.99' r='1.95' style='stroke-width: 0.71; fill: #000000;' clip-path='url(#cpNTMuMTZ8NDE0LjYxfDM4Ni40OHwzMi41NQ==)' />
<circle cx='398.18' cy='99.26' r='1.95' style='stroke-width: 0.71; fill: #000000;' clip-path='url(#cpNTMuMTZ8NDE0LjYxfDM4Ni40OHwzMi41NQ==)' />
<polygon points='69.59,282.50 69.59,282.50 69.59,282.50 69.59,282.50 69.59,282.50 69.59,282.50 69.59,282.50 69.59,282.50 69.59,282.50 233.89,203.91 233.89,203.91 233.89,203.91 233.89,203.91 233.89,203.91 233.89,203.91 233.89,203.91 233.89,203.91 233.89,203.91 398.18,118.01 398.18,118.01 398.18,118.01 398.18,118.01 398.18,118.01 398.18,118.01 398.18,118.01 398.18,118.01 398.18,118.01 398.18,184.82 398.18,184.82 398.18,184.82 398.18,184.82 398.18,184.82 398.18,184.82 398.18,184.82 398.18,184.82 398.18,184.82 233.89,249.38 233.89,249.38 233.89,249.38 233.89,249.38 233.89,249.38 233.89,249.38 233.89,249.38 233.89,249.38 233.89,249.38 69.59,319.67 69.59,319.67 69.59,319.67 69.59,319.67 69.59,319.67 69.59,319.67 69.59,319.67 69.59,319.67 69.59,319.67 ' style='stroke-width: 0.00; stroke: none; fill: #FF0000; fill-opacity: 0.20;' clip-path='url(#cpNTMuMTZ8NDE0LjYxfDM4Ni40OHwzMi41NQ==)' />
<polyline points='69.59,282.50 69.59,282.50 69.59,282.50 69.59,282.50 69.59,282.50 69.59,282.50 69.59,282.50 69.59,282.50 69.59,282.50 233.89,203.91 233.89,203.91 233.89,203.91 233.89,203.91 233.89,203.91 233.89,203.91 233.89,203.91 233.89,203.91 233.89,203.91 398.18,118.01 398.18,118.01 398.18,118.01 398.18,118.01 398.18,118.01 398.18,118.01 398.18,118.01 398.18,118.01 398.18,118.01 ' style='stroke-width: 1.07; stroke: #FF0000; stroke-dasharray: 5.69,5.69;' clip-path='url(#cpNTMuMTZ8NDE0LjYxfDM4Ni40OHwzMi41NQ==)' />
<polyline points='398.18,184.82 398.18,184.82 398.18,184.82 398.18,184.82 398.18,184.82 398.18,184.82 398.18,184.82 398.18,184.82 398.18,184.82 233.89,249.38 233.89,249.38 233.89,249.38 233.89,249.38 233.89,249.38 233.89,249.38 233.89,249.38 233.89,249.38 233.89,249.38 69.59,319.67 69.59,319.67 69.59,319.67 69.59,319.67 69.59,319.67 69.59,319.67 69.59,319.67 69.59,319.67 69.59,319.67 ' style='stroke-width: 1.07; stroke: #FF0000; stroke-dasharray: 5.69,5.69;' clip-path='url(#cpNTMuMTZ8NDE0LjYxfDM4Ni40OHwzMi41NQ==)' />
<polyline points='69.59,301.07 69.59,301.07 69.59,301.07 69.59,301.07 69.59,301.07 69.59,301.07 69.59,301.07 69.59,301.07 69.59,301.07 233.89,225.58 233.89,225.58 233.89,225.58 233.89,225.58 233.89,225.58 233.89,225.58 233.89,225.58 233.89,225.58 233.89,225.58 398.18,150.26 398.18,150.26 398.18,150.26 398.18,150.26 398.18,150.26 398.18,150.26 398.18,150.26 398.18,150.26 398.18,150.26 ' style='stroke-width: 1.07; stroke: #FF0000; stroke-linecap: butt;' clip-path='url(#cpNTMuMTZ8NDE0LjYxfDM4Ni40OHwzMi41NQ==)' />
<polygon points='69.59,298.57 69.59,298.57 69.59,298.57 69.59,298.57 69.59,298.57 69.59,298.57 69.59,298.57 69.59,298.57 69.59,298.57 233.89,221.23 233.89,221.23 233.89,221.23 233.89,221.23 233.89,221.23 233.89,221.23 233.89,221.23 233.89,221.23 233.89,221.23 398.18,133.47 398.18,133.47 398.18,133.47 398.18,133.47 398.18,133.47 398.18,133.47 398.18,133.47 398.18,133.47 398.18,133.47 398.18,191.71 398.18,191.71 398.18,191.71 398.18,191.71 398.18,191.71 398.18,191.71 398.18,191.71 398.18,191.71 398.18,191.71 233.89,253.30 233.89,253.30 233.89,253.30 233.89,253.30 233.89,253.30 233.89,253.30 233.89,253.30 233.89,253.30 233.89,253.30 69.59,325.08 69.59,325.08 69.59,325.08 69.59,325.08 69.59,325.08 69.59,325.08 69.59,325.08 69.59,325.08 69.59,325.08 ' style='stroke-width: 0.00; stroke: none; fill: #228B22; fill-opacity: 0.20;' clip-path='url(#cpNTMuMTZ8NDE0LjYxfDM4Ni40OHwzMi41NQ==)' />
<polyline points='69.59,298.57 69.59,298.57 69.59,298.57 69.59,298.57 69.59,298.57 69.59,298.57 69.59,298.57 69.59,298.57 69.59,298.57 233.89,221.23 233.89,221.23 233.89,221.23 233.89,221.23 233.89,221.23 233.89,221.23 233.89,221.23 233.89,221.23 233.89,221.23 398.18,133.47 398.18,133.47 398.18,133.47 398.18,133.47 398.18,133.47 398.18,133.47 398.18,133.47 398.18,133.47 398.18,133.47 ' style='stroke-width: 1.07; stroke: #228B22; stroke-dasharray: 5.69,5.69;' clip-path='url(#cpNTMuMTZ8NDE0LjYxfDM4Ni40OHwzMi41NQ==)' />
<polyline points='398.18,191.71 398.18,191.71 398.18,191.71 398.18,191.71 398.18,191.71 398.18,191.71 398.18,191.71 398.18,191.71 398.18,191.71 233.89,253.30 233.89,253.30 233.89,253.30 233.89,253.30 233.89,253.30 233.89,253.30 233.89,253.30 233.89,253.30 233.89,253.30 69.59,325.08 69.59,325.08 69.59,325.08 69.59,325.08 69.59,325.08 69.59,325.08 69.59,325.08 69.59,325.08 69.59,325.08 ' style='stroke-width: 1.07; stroke: #228B22; stroke-dasharray: 5.69,5.69;' clip-path='url(#cpNTMuMTZ8NDE0LjYxfDM4Ni40OHwzMi41NQ==)' />
<polyline points='69.59,311.93 69.59,311.93 69.59,311.93 69.59,311.93 69.59,311.93 69.59,311.93 69.59,311.93 69.59,311.93 69.59,311.93 233.89,237.09 233.89,237.09 233.89,237.09 233.89,237.09 233.89,237.09 233.89,237.09 233.89,237.09 233.89,237.09 233.89,237.09 398.18,161.95 398.18,161.95 398.18,161.95 398.18,161.95 398.18,161.95 398.18,161.95 398.18,161.95 398.18,161.95 398.18,161.95 ' style='stroke-width: 1.07; stroke: #228B22; stroke-linecap: butt;' clip-path='url(#cpNTMuMTZ8NDE0LjYxfDM4Ni40OHwzMi41NQ==)' />
<rect x='53.16' y='32.55' width='361.45' height='353.93' style='stroke-width: 1.55;' clip-path='url(#cpNTMuMTZ8NDE0LjYxfDM4Ni40OHwzMi41NQ==)' />
<defs>
  <clipPath id='cpMC4wMHw3OTIuMDB8NDMyLjAwfDAuMDA='>
    <rect x='0.00' y='0.00' width='792.00' height='432.00' />
  </clipPath>
</defs>
<defs>
  <clipPath id='cpNDIyLjU4fDc4NC4wM3wzODYuNDh8MzIuNTU='>
    <rect x='422.58' y='32.55' width='361.45' height='353.93' />
  </clipPath>
</defs>
<rect x='422.58' y='32.55' width='361.45' height='353.93' style='stroke-width: 1.55; stroke: none; fill: #BFC4BB;' clip-path='url(#cpNDIyLjU4fDc4NC4wM3wzODYuNDh8MzIuNTU=)' />
<polyline points='422.58,335.17 784.03,335.17 ' style='stroke-width: 0.078; stroke-linecap: butt;' clip-path='url(#cpNDIyLjU4fDc4NC4wM3wzODYuNDh8MzIuNTU=)' />
<polyline points='422.58,264.71 784.03,264.71 ' style='stroke-width: 0.078; stroke-linecap: butt;' clip-path='url(#cpNDIyLjU4fDc4NC4wM3wzODYuNDh8MzIuNTU=)' />
<polyline points='422.58,194.24 784.03,194.24 ' style='stroke-width: 0.078; stroke-linecap: butt;' clip-path='url(#cpNDIyLjU4fDc4NC4wM3wzODYuNDh8MzIuNTU=)' />
<polyline points='422.58,123.78 784.03,123.78 ' style='stroke-width: 0.078; stroke-linecap: butt;' clip-path='url(#cpNDIyLjU4fDc4NC4wM3wzODYuNDh8MzIuNTU=)' />
<polyline points='422.58,53.32 784.03,53.32 ' style='stroke-width: 0.078; stroke-linecap: butt;' clip-path='url(#cpNDIyLjU4fDc4NC4wM3wzODYuNDh8MzIuNTU=)' />
<polyline points='480.08,386.48 480.08,32.55 ' style='stroke-width: 0.078; stroke-linecap: butt;' clip-path='url(#cpNDIyLjU4fDc4NC4wM3wzODYuNDh8MzIuNTU=)' />
<polyline points='562.23,386.48 562.23,32.55 ' style='stroke-width: 0.078; stroke-linecap: butt;' clip-path='url(#cpNDIyLjU4fDc4NC4wM3wzODYuNDh8MzIuNTU=)' />
<polyline points='644.38,386.48 644.38,32.55 ' style='stroke-width: 0.078; stroke-linecap: butt;' clip-path='url(#cpNDIyLjU4fDc4NC4wM3wzODYuNDh8MzIuNTU=)' />
<polyline points='726.53,386.48 726.53,32.55 ' style='stroke-width: 0.078; stroke-linecap: butt;' clip-path='url(#cpNDIyLjU4fDc4NC4wM3wzODYuNDh8MzIuNTU=)' />
<polyline points='422.58,370.40 784.03,370.40 ' style='stroke-width: 0.16; stroke-linecap: butt;' clip-path='url(#cpNDIyLjU4fDc4NC4wM3wzODYuNDh8MzIuNTU=)' />
<polyline points='422.58,299.94 784.03,299.94 ' style='stroke-width: 0.16; stroke-linecap: butt;' clip-path='url(#cpNDIyLjU4fDc4NC4wM3wzODYuNDh8MzIuNTU=)' />
<polyline points='422.58,229.47 784.03,229.47 ' style='stroke-width: 0.16; stroke-linecap: butt;' clip-path='url(#cpNDIyLjU4fDc4NC4wM3wzODYuNDh8MzIuNTU=)' />
<polyline points='422.58,159.01 784.03,159.01 ' style='stroke-width: 0.16; stroke-linecap: butt;' clip-path='url(#cpNDIyLjU4fDc4NC4wM3wzODYuNDh8MzIuNTU=)' />
<polyline points='422.58,88.55 784.03,88.55 ' style='stroke-width: 0.16; stroke-linecap: butt;' clip-path='url(#cpNDIyLjU4fDc4NC4wM3wzODYuNDh8MzIuNTU=)' />
<polyline points='439.01,386.48 439.01,32.55 ' style='stroke-width: 0.16; stroke-linecap: butt;' clip-path='url(#cpNDIyLjU4fDc4NC4wM3wzODYuNDh8MzIuNTU=)' />
<polyline points='521.16,386.48 521.16,32.55 ' style='stroke-width: 0.16; stroke-linecap: butt;' clip-path='url(#cpNDIyLjU4fDc4NC4wM3wzODYuNDh8MzIuNTU=)' />
<polyline points='603.30,386.48 603.30,32.55 ' style='stroke-width: 0.16; stroke-linecap: butt;' clip-path='url(#cpNDIyLjU4fDc4NC4wM3wzODYuNDh8MzIuNTU=)' />
<polyline points='685.45,386.48 685.45,32.55 ' style='stroke-width: 0.16; stroke-linecap: butt;' clip-path='url(#cpNDIyLjU4fDc4NC4wM3wzODYuNDh8MzIuNTU=)' />
<polyline points='767.60,386.48 767.60,32.55 ' style='stroke-width: 0.16; stroke-linecap: butt;' clip-path='url(#cpNDIyLjU4fDc4NC4wM3wzODYuNDh8MzIuNTU=)' />
<circle cx='439.01' cy='328.22' r='1.95' style='stroke-width: 0.71; fill: #000000;' clip-path='url(#cpNDIyLjU4fDc4NC4wM3wzODYuNDh8MzIuNTU=)' />
<circle cx='439.01' cy='307.23' r='1.95' style='stroke-width: 0.71; fill: #000000;' clip-path='url(#cpNDIyLjU4fDc4NC4wM3wzODYuNDh8MzIuNTU=)' />
<circle cx='439.01' cy='275.43' r='1.95' style='stroke-width: 0.71; fill: #000000;' clip-path='url(#cpNDIyLjU4fDc4NC4wM3wzODYuNDh8MzIuNTU=)' />
<circle cx='439.01' cy='306.99' r='1.95' style='stroke-width: 0.71; fill: #000000;' clip-path='url(#cpNDIyLjU4fDc4NC4wM3wzODYuNDh8MzIuNTU=)' />
<circle cx='439.01' cy='317.32' r='1.95' style='stroke-width: 0.71; fill: #000000;' clip-path='url(#cpNDIyLjU4fDc4NC4wM3wzODYuNDh8MzIuNTU=)' />
<circle cx='439.01' cy='370.40' r='1.95' style='stroke-width: 0.71; fill: #000000;' clip-path='url(#cpNDIyLjU4fDc4NC4wM3wzODYuNDh8MzIuNTU=)' />
<circle cx='439.01' cy='317.76' r='1.95' style='stroke-width: 0.71; fill: #000000;' clip-path='url(#cpNDIyLjU4fDc4NC4wM3wzODYuNDh8MzIuNTU=)' />
<circle cx='439.01' cy='317.60' r='1.95' style='stroke-width: 0.71; fill: #000000;' clip-path='url(#cpNDIyLjU4fDc4NC4wM3wzODYuNDh8MzIuNTU=)' />
<circle cx='439.01' cy='316.97' r='1.95' style='stroke-width: 0.71; fill: #000000;' clip-path='url(#cpNDIyLjU4fDc4NC4wM3wzODYuNDh8MzIuNTU=)' />
<circle cx='439.01' cy='317.52' r='1.95' style='stroke-width: 0.71; fill: #000000;' clip-path='url(#cpNDIyLjU4fDc4NC4wM3wzODYuNDh8MzIuNTU=)' />
<circle cx='603.30' cy='305.81' r='1.95' style='stroke-width: 0.71; fill: #000000;' clip-path='url(#cpNDIyLjU4fDc4NC4wM3wzODYuNDh8MzIuNTU=)' />
<circle cx='603.30' cy='268.47' r='1.95' style='stroke-width: 0.71; fill: #000000;' clip-path='url(#cpNDIyLjU4fDc4NC4wM3wzODYuNDh8MzIuNTU=)' />
<circle cx='603.30' cy='230.27' r='1.95' style='stroke-width: 0.71; fill: #000000;' clip-path='url(#cpNDIyLjU4fDc4NC4wM3wzODYuNDh8MzIuNTU=)' />
<circle cx='603.30' cy='262.29' r='1.95' style='stroke-width: 0.71; fill: #000000;' clip-path='url(#cpNDIyLjU4fDc4NC4wM3wzODYuNDh8MzIuNTU=)' />
<circle cx='603.30' cy='239.46' r='1.95' style='stroke-width: 0.71; fill: #000000;' clip-path='url(#cpNDIyLjU4fDc4NC4wM3wzODYuNDh8MzIuNTU=)' />
<circle cx='603.30' cy='268.75' r='1.95' style='stroke-width: 0.71; fill: #000000;' clip-path='url(#cpNDIyLjU4fDc4NC4wM3wzODYuNDh8MzIuNTU=)' />
<circle cx='603.30' cy='236.28' r='1.95' style='stroke-width: 0.71; fill: #000000;' clip-path='url(#cpNDIyLjU4fDc4NC4wM3wzODYuNDh8MzIuNTU=)' />
<circle cx='603.30' cy='240.87' r='1.95' style='stroke-width: 0.71; fill: #000000;' clip-path='url(#cpNDIyLjU4fDc4NC4wM3wzODYuNDh8MzIuNTU=)' />
<circle cx='603.30' cy='254.27' r='1.95' style='stroke-width: 0.71; fill: #000000;' clip-path='url(#cpNDIyLjU4fDc4NC4wM3wzODYuNDh8MzIuNTU=)' />
<circle cx='603.30' cy='197.13' r='1.95' style='stroke-width: 0.71; fill: #000000;' clip-path='url(#cpNDIyLjU4fDc4NC4wM3wzODYuNDh8MzIuNTU=)' />
<circle cx='767.60' cy='287.94' r='1.95' style='stroke-width: 0.71; fill: #000000;' clip-path='url(#cpNDIyLjU4fDc4NC4wM3wzODYuNDh8MzIuNTU=)' />
<circle cx='767.60' cy='255.55' r='1.95' style='stroke-width: 0.71; fill: #000000;' clip-path='url(#cpNDIyLjU4fDc4NC4wM3wzODYuNDh8MzIuNTU=)' />
<circle cx='767.60' cy='117.03' r='1.95' style='stroke-width: 0.71; fill: #000000;' clip-path='url(#cpNDIyLjU4fDc4NC4wM3wzODYuNDh8MzIuNTU=)' />
<circle cx='767.60' cy='182.27' r='1.95' style='stroke-width: 0.71; fill: #000000;' clip-path='url(#cpNDIyLjU4fDc4NC4wM3wzODYuNDh8MzIuNTU=)' />
<circle cx='767.60' cy='106.63' r='1.95' style='stroke-width: 0.71; fill: #000000;' clip-path='url(#cpNDIyLjU4fDc4NC4wM3wzODYuNDh8MzIuNTU=)' />
<circle cx='767.60' cy='121.66' r='1.95' style='stroke-width: 0.71; fill: #000000;' clip-path='url(#cpNDIyLjU4fDc4NC4wM3wzODYuNDh8MzIuNTU=)' />
<circle cx='767.60' cy='118.83' r='1.95' style='stroke-width: 0.71; fill: #000000;' clip-path='url(#cpNDIyLjU4fDc4NC4wM3wzODYuNDh8MzIuNTU=)' />
<circle cx='767.60' cy='94.40' r='1.95' style='stroke-width: 0.71; fill: #000000;' clip-path='url(#cpNDIyLjU4fDc4NC4wM3wzODYuNDh8MzIuNTU=)' />
<circle cx='767.60' cy='89.60' r='1.95' style='stroke-width: 0.71; fill: #000000;' clip-path='url(#cpNDIyLjU4fDc4NC4wM3wzODYuNDh8MzIuNTU=)' />
<circle cx='767.60' cy='48.64' r='1.95' style='stroke-width: 0.71; fill: #000000;' clip-path='url(#cpNDIyLjU4fDc4NC4wM3wzODYuNDh8MzIuNTU=)' />
<polygon points='439.01,303.65 439.01,303.65 439.01,303.65 439.01,303.65 439.01,303.65 439.01,303.65 439.01,303.65 439.01,303.65 439.01,303.65 439.01,303.65 603.30,225.21 603.30,225.21 603.30,225.21 603.30,225.21 603.30,225.21 603.30,225.21 603.30,225.21 603.30,225.21 603.30,225.21 603.30,225.21 767.60,137.96 767.60,137.96 767.60,137.96 767.60,137.96 767.60,137.96 767.60,137.96 767.60,137.96 767.60,137.96 767.60,137.96 767.60,137.96 767.60,206.63 767.60,206.63 767.60,206.63 767.60,206.63 767.60,206.63 767.60,206.63 767.60,206.63 767.60,206.63 767.60,206.63 767.60,206.63 603.30,269.01 603.30,269.01 603.30,269.01 603.30,269.01 603.30,269.01 603.30,269.01 603.30,269.01 603.30,269.01 603.30,269.01 603.30,269.01 439.01,338.19 439.01,338.19 439.01,338.19 439.01,338.19 439.01,338.19 439.01,338.19 439.01,338.19 439.01,338.19 439.01,338.19 439.01,338.19 ' style='stroke-width: 0.00; stroke: none; fill: #FF0000; fill-opacity: 0.20;' clip-path='url(#cpNDIyLjU4fDc4NC4wM3wzODYuNDh8MzIuNTU=)' />
<polyline points='439.01,303.65 439.01,303.65 439.01,303.65 439.01,303.65 439.01,303.65 439.01,303.65 439.01,303.65 439.01,303.65 439.01,303.65 439.01,303.65 603.30,225.21 603.30,225.21 603.30,225.21 603.30,225.21 603.30,225.21 603.30,225.21 603.30,225.21 603.30,225.21 603.30,225.21 603.30,225.21 767.60,137.96 767.60,137.96 767.60,137.96 767.60,137.96 767.60,137.96 767.60,137.96 767.60,137.96 767.60,137.96 767.60,137.96 767.60,137.96 ' style='stroke-width: 1.07; stroke: #FF0000; stroke-dasharray: 5.69,5.69;' clip-path='url(#cpNDIyLjU4fDc4NC4wM3wzODYuNDh8MzIuNTU=)' />
<polyline points='767.60,206.63 767.60,206.63 767.60,206.63 767.60,206.63 767.60,206.63 767.60,206.63 767.60,206.63 767.60,206.63 767.60,206.63 767.60,206.63 603.30,269.01 603.30,269.01 603.30,269.01 603.30,269.01 603.30,269.01 603.30,269.01 603.30,269.01 603.30,269.01 603.30,269.01 603.30,269.01 439.01,338.19 439.01,338.19 439.01,338.19 439.01,338.19 439.01,338.19 439.01,338.19 439.01,338.19 439.01,338.19 439.01,338.19 439.01,338.19 ' style='stroke-width: 1.07; stroke: #FF0000; stroke-dasharray: 5.69,5.69;' clip-path='url(#cpNDIyLjU4fDc4NC4wM3wzODYuNDh8MzIuNTU=)' />
<polyline points='439.01,322.29 439.01,322.29 439.01,322.29 439.01,322.29 439.01,322.29 439.01,322.29 439.01,322.29 439.01,322.29 439.01,322.29 439.01,322.29 603.30,246.91 603.30,246.91 603.30,246.91 603.30,246.91 603.30,246.91 603.30,246.91 603.30,246.91 603.30,246.91 603.30,246.91 603.30,246.91 767.60,171.67 767.60,171.67 767.60,171.67 767.60,171.67 767.60,171.67 767.60,171.67 767.60,171.67 767.60,171.67 767.60,171.67 767.60,171.67 ' style='stroke-width: 1.07; stroke: #FF0000; stroke-linecap: butt;' clip-path='url(#cpNDIyLjU4fDc4NC4wM3wzODYuNDh8MzIuNTU=)' />
<polygon points='439.01,298.57 439.01,298.57 439.01,298.57 439.01,298.57 439.01,298.57 439.01,298.57 439.01,298.57 439.01,298.57 439.01,298.57 439.01,298.57 603.30,221.23 603.30,221.23 603.30,221.23 603.30,221.23 603.30,221.23 603.30,221.23 603.30,221.23 603.30,221.23 603.30,221.23 603.30,221.23 767.60,133.47 767.60,133.47 767.60,133.47 767.60,133.47 767.60,133.47 767.60,133.47 767.60,133.47 767.60,133.47 767.60,133.47 767.60,133.47 767.60,191.71 767.60,191.71 767.60,191.71 767.60,191.71 767.60,191.71 767.60,191.71 767.60,191.71 767.60,191.71 767.60,191.71 767.60,191.71 603.30,253.30 603.30,253.30 603.30,253.30 603.30,253.30 603.30,253.30 603.30,253.30 603.30,253.30 603.30,253.30 603.30,253.30 603.30,253.30 439.01,325.08 439.01,325.08 439.01,325.08 439.01,325.08 439.01,325.08 439.01,325.08 439.01,325.08 439.01,325.08 439.01,325.08 439.01,325.08 ' style='stroke-width: 0.00; stroke: none; fill: #228B22; fill-opacity: 0.20;' clip-path='url(#cpNDIyLjU4fDc4NC4wM3wzODYuNDh8MzIuNTU=)' />
<polyline points='439.01,298.57 439.01,298.57 439.01,298.57 439.01,298.57 439.01,298.57 439.01,298.57 439.01,298.57 439.01,298.57 439.01,298.57 439.01,298.57 603.30,221.23 603.30,221.23 603.30,221.23 603.30,221.23 603.30,221.23 603.30,221.23 603.30,221.23 603.30,221.23 603.30,221.23 603.30,221.23 767.60,133.47 767.60,133.47 767.60,133.47 767.60,133.47 767.60,133.47 767.60,133.47 767.60,133.47 767.60,133.47 767.60,133.47 767.60,133.47 ' style='stroke-width: 1.07; stroke: #228B22; stroke-dasharray: 5.69,5.69;' clip-path='url(#cpNDIyLjU4fDc4NC4wM3wzODYuNDh8MzIuNTU=)' />
<polyline points='767.60,191.71 767.60,191.71 767.60,191.71 767.60,191.71 767.60,191.71 767.60,191.71 767.60,191.71 767.60,191.71 767.60,191.71 767.60,191.71 603.30,253.30 603.30,253.30 603.30,253.30 603.30,253.30 603.30,253.30 603.30,253.30 603.30,253.30 603.30,253.30 603.30,253.30 603.30,253.30 439.01,325.08 439.01,325.08 439.01,325.08 439.01,325.08 439.01,325.08 439.01,325.08 439.01,325.08 439.01,325.08 439.01,325.08 439.01,325.08 ' style='stroke-width: 1.07; stroke: #228B22; stroke-dasharray: 5.69,5.69;' clip-path='url(#cpNDIyLjU4fDc4NC4wM3wzODYuNDh8MzIuNTU=)' />
<polyline points='439.01,311.93 439.01,311.93 439.01,311.93 439.01,311.93 439.01,311.93 439.01,311.93 439.01,311.93 439.01,311.93 439.01,311.93 439.01,311.93 603.30,237.09 603.30,237.09 603.30,237.09 603.30,237.09 603.30,237.09 603.30,237.09 603.30,237.09 603.30,237.09 603.30,237.09 603.30,237.09 767.60,161.95 767.60,161.95 767.60,161.95 767.60,161.95 767.60,161.95 767.60,161.95 767.60,161.95 767.60,161.95 767.60,161.95 767.60,161.95 ' style='stroke-width: 1.07; stroke: #228B22; stroke-linecap: butt;' clip-path='url(#cpNDIyLjU4fDc4NC4wM3wzODYuNDh8MzIuNTU=)' />
<rect x='422.58' y='32.55' width='361.45' height='353.93' style='stroke-width: 1.55;' clip-path='url(#cpNDIyLjU4fDc4NC4wM3wzODYuNDh8MzIuNTU=)' />
<defs>
  <clipPath id='cpMC4wMHw3OTIuMDB8NDMyLjAwfDAuMDA='>
    <rect x='0.00' y='0.00' width='792.00' height='432.00' />
  </clipPath>
</defs>
<defs>
  <clipPath id='cpNTMuMTZ8NDE0LjYxfDMyLjU1fDcuOTc='>
    <rect x='53.16' y='7.97' width='361.45' height='24.58' />
  </clipPath>
</defs>
<rect x='53.16' y='7.97' width='361.45' height='24.58' style='stroke-width: 1.55; fill: #000000;' clip-path='url(#cpNTMuMTZ8NDE0LjYxfDMyLjU1fDcuOTc=)' />
<g clip-path='url(#cpNTMuMTZ8NDE0LjYxfDMyLjU1fDcuOTc=)'><text x='224.26' y='24.70' style='font-size: 12.80px; fill: #FFFFFF; font-family: Georgia;' textLength='19.24px' lengthAdjust='spacingAndGlyphs'>Gly</text></g>
<defs>
  <clipPath id='cpMC4wMHw3OTIuMDB8NDMyLjAwfDAuMDA='>
    <rect x='0.00' y='0.00' width='792.00' height='432.00' />
  </clipPath>
</defs>
<defs>
  <clipPath id='cpNDIyLjU4fDc4NC4wM3wzMi41NXw3Ljk3'>
    <rect x='422.58' y='7.97' width='361.45' height='24.58' />
  </clipPath>
</defs>
<rect x='422.58' y='7.97' width='361.45' height='24.58' style='stroke-width: 1.55; fill: #000000;' clip-path='url(#cpNDIyLjU4fDc4NC4wM3wzMi41NXw3Ljk3)' />
<g clip-path='url(#cpNDIyLjU4fDc4NC4wM3wzMi41NXw3Ljk3)'><text x='593.36' y='24.70' style='font-size: 12.80px; fill: #FFFFFF; font-family: Georgia;' textLength='19.89px' lengthAdjust='spacingAndGlyphs'>Buf</text></g>
<defs>
  <clipPath id='cpMC4wMHw3OTIuMDB8NDMyLjAwfDAuMDA='>
    <rect x='0.00' y='0.00' width='792.00' height='432.00' />
  </clipPath>
</defs>
<polyline points='69.59,390.47 69.59,386.48 ' style='stroke-width: 0.78; stroke-linecap: butt;' clip-path='url(#cpMC4wMHw3OTIuMDB8NDMyLjAwfDAuMDA=)' />
<polyline points='151.74,390.47 151.74,386.48 ' style='stroke-width: 0.78; stroke-linecap: butt;' clip-path='url(#cpMC4wMHw3OTIuMDB8NDMyLjAwfDAuMDA=)' />
<polyline points='233.89,390.47 233.89,386.48 ' style='stroke-width: 0.78; stroke-linecap: butt;' clip-path='url(#cpMC4wMHw3OTIuMDB8NDMyLjAwfDAuMDA=)' />
<polyline points='316.03,390.47 316.03,386.48 ' style='stroke-width: 0.78; stroke-linecap: butt;' clip-path='url(#cpMC4wMHw3OTIuMDB8NDMyLjAwfDAuMDA=)' />
<polyline points='398.18,390.47 398.18,386.48 ' style='stroke-width: 0.78; stroke-linecap: butt;' clip-path='url(#cpMC4wMHw3OTIuMDB8NDMyLjAwfDAuMDA=)' />
<g clip-path='url(#cpMC4wMHw3OTIuMDB8NDMyLjAwfDAuMDA=)'><text x='60.56' y='402.53' style='font-size: 12.80px; font-family: Georgia;' textLength='18.07px' lengthAdjust='spacingAndGlyphs'>5.0</text></g>
<g clip-path='url(#cpMC4wMHw3OTIuMDB8NDMyLjAwfDAuMDA=)'><text x='143.42' y='402.53' style='font-size: 12.80px; font-family: Georgia;' textLength='16.64px' lengthAdjust='spacingAndGlyphs'>7.5</text></g>
<g clip-path='url(#cpMC4wMHw3OTIuMDB8NDMyLjAwfDAuMDA=)'><text x='221.55' y='402.53' style='font-size: 12.80px; font-family: Georgia;' textLength='24.66px' lengthAdjust='spacingAndGlyphs'>10.0</text></g>
<g clip-path='url(#cpMC4wMHw3OTIuMDB8NDMyLjAwfDAuMDA=)'><text x='304.60' y='402.53' style='font-size: 12.80px; font-family: Georgia;' textLength='22.86px' lengthAdjust='spacingAndGlyphs'>12.5</text></g>
<g clip-path='url(#cpMC4wMHw3OTIuMDB8NDMyLjAwfDAuMDA=)'><text x='386.40' y='402.53' style='font-size: 12.80px; font-family: Georgia;' textLength='23.57px' lengthAdjust='spacingAndGlyphs'>15.0</text></g>
<polyline points='439.01,390.47 439.01,386.48 ' style='stroke-width: 0.78; stroke-linecap: butt;' clip-path='url(#cpMC4wMHw3OTIuMDB8NDMyLjAwfDAuMDA=)' />
<polyline points='521.16,390.47 521.16,386.48 ' style='stroke-width: 0.78; stroke-linecap: butt;' clip-path='url(#cpMC4wMHw3OTIuMDB8NDMyLjAwfDAuMDA=)' />
<polyline points='603.30,390.47 603.30,386.48 ' style='stroke-width: 0.78; stroke-linecap: butt;' clip-path='url(#cpMC4wMHw3OTIuMDB8NDMyLjAwfDAuMDA=)' />
<polyline points='685.45,390.47 685.45,386.48 ' style='stroke-width: 0.78; stroke-linecap: butt;' clip-path='url(#cpMC4wMHw3OTIuMDB8NDMyLjAwfDAuMDA=)' />
<polyline points='767.60,390.47 767.60,386.48 ' style='stroke-width: 0.78; stroke-linecap: butt;' clip-path='url(#cpMC4wMHw3OTIuMDB8NDMyLjAwfDAuMDA=)' />
<g clip-path='url(#cpMC4wMHw3OTIuMDB8NDMyLjAwfDAuMDA=)'><text x='429.98' y='402.53' style='font-size: 12.80px; font-family: Georgia;' textLength='18.07px' lengthAdjust='spacingAndGlyphs'>5.0</text></g>
<g clip-path='url(#cpMC4wMHw3OTIuMDB8NDMyLjAwfDAuMDA=)'><text x='512.84' y='402.53' style='font-size: 12.80px; font-family: Georgia;' textLength='16.64px' lengthAdjust='spacingAndGlyphs'>7.5</text></g>
<g clip-path='url(#cpMC4wMHw3OTIuMDB8NDMyLjAwfDAuMDA=)'><text x='590.97' y='402.53' style='font-size: 12.80px; font-family: Georgia;' textLength='24.66px' lengthAdjust='spacingAndGlyphs'>10.0</text></g>
<g clip-path='url(#cpMC4wMHw3OTIuMDB8NDMyLjAwfDAuMDA=)'><text x='674.02' y='402.53' style='font-size: 12.80px; font-family: Georgia;' textLength='22.86px' lengthAdjust='spacingAndGlyphs'>12.5</text></g>
<g clip-path='url(#cpMC4wMHw3OTIuMDB8NDMyLjAwfDAuMDA=)'><text x='755.82' y='402.53' style='font-size: 12.80px; font-family: Georgia;' textLength='23.57px' lengthAdjust='spacingAndGlyphs'>15.0</text></g>
<g clip-path='url(#cpMC4wMHw3OTIuMDB8NDMyLjAwfDAuMDA=)'><text x='26.82' y='374.83' style='font-size: 12.80px; font-family: Georgia;' textLength='19.16px' lengthAdjust='spacingAndGlyphs'>0.0</text></g>
<g clip-path='url(#cpMC4wMHw3OTIuMDB8NDMyLjAwfDAuMDA=)'><text x='29.18' y='304.37' style='font-size: 12.80px; font-family: Georgia;' textLength='16.81px' lengthAdjust='spacingAndGlyphs'>0.1</text></g>
<g clip-path='url(#cpMC4wMHw3OTIuMDB8NDMyLjAwfDAuMDA=)'><text x='27.53' y='233.91' style='font-size: 12.80px; font-family: Georgia;' textLength='18.46px' lengthAdjust='spacingAndGlyphs'>0.2</text></g>
<g clip-path='url(#cpMC4wMHw3OTIuMDB8NDMyLjAwfDAuMDA=)'><text x='27.62' y='163.45' style='font-size: 12.80px; font-family: Georgia;' textLength='18.37px' lengthAdjust='spacingAndGlyphs'>0.3</text></g>
<g clip-path='url(#cpMC4wMHw3OTIuMDB8NDMyLjAwfDAuMDA=)'><text x='27.45' y='92.99' style='font-size: 12.80px; font-family: Georgia;' textLength='18.54px' lengthAdjust='spacingAndGlyphs'>0.4</text></g>
<polyline points='49.18,370.40 53.16,370.40 ' style='stroke-width: 0.78; stroke-linecap: butt;' clip-path='url(#cpMC4wMHw3OTIuMDB8NDMyLjAwfDAuMDA=)' />
<polyline points='49.18,299.94 53.16,299.94 ' style='stroke-width: 0.78; stroke-linecap: butt;' clip-path='url(#cpMC4wMHw3OTIuMDB8NDMyLjAwfDAuMDA=)' />
<polyline points='49.18,229.47 53.16,229.47 ' style='stroke-width: 0.78; stroke-linecap: butt;' clip-path='url(#cpMC4wMHw3OTIuMDB8NDMyLjAwfDAuMDA=)' />
<polyline points='49.18,159.01 53.16,159.01 ' style='stroke-width: 0.78; stroke-linecap: butt;' clip-path='url(#cpMC4wMHw3OTIuMDB8NDMyLjAwfDAuMDA=)' />
<polyline points='49.18,88.55 53.16,88.55 ' style='stroke-width: 0.78; stroke-linecap: butt;' clip-path='url(#cpMC4wMHw3OTIuMDB8NDMyLjAwfDAuMDA=)' />
<g clip-path='url(#cpMC4wMHw3OTIuMDB8NDMyLjAwfDAuMDA=)'><text x='402.29' y='420.56' style='font-size: 16.00px; font-family: Georgia;' textLength='32.61px' lengthAdjust='spacingAndGlyphs'>conc</text></g>
<g clip-path='url(#cpMC4wMHw3OTIuMDB8NDMyLjAwfDAuMDA=)'><text transform='translate(19.06,230.79) rotate(-90)' style='font-size: 16.00px; font-family: Georgia;' textLength='42.54px' lengthAdjust='spacingAndGlyphs'>cbha2</text></g>
</svg>
